{
  "GroupGUID": "14d2f31e-1d3a-4684-b8c9-e09b35d1a3c2",
  "GroupName": "MIssion Group1",
  "AreaAnchorName": "LevelArea_P40212_F40212001_G4",
  "UnloadCondition": {
    "Conditions": [
      {
        "Type": "SubMission",
        "Phase": "Finish",
        "ID": 407212201
      }
    ]
  },
  "LoadSide": "Server",
  "LoadOnInitial": true,
  "AnchorList": [],
  "MonsterList": [],
  "PropList": [],
  "NPCList": [
    {
      "ID": 400001,
      "PosX": 57.34,
      "PosY": -29.46,
      "PosZ": -41.39,
      "Name": "NPC1",
      "RotY": 297.1748,
      "NPCID": 2201,
      "DialogueGroups": [
        407212101
      ],
      "ServerInteractVerificationIDList": [],
      "DefaultLookAtMode": "Closed",
      "BoardShowList": [
        8
      ],
      "TalkDialogGroupIDList": [],
      "DefaultIdleFreeStyleMotionID": 200230000,
      "BornType": "Permanent",
      "IsNeedFade": true,
      "Dialog": {
        "LevelGraph": "Config/Level/NPCDialogue/P40212/F40212002_G4/DialogueMain_F40212002_G4_N400001.json"
      }
    },
    {
      "ID": 400002,
      "PosX": 56.01,
      "PosY": -29.46,
      "PosZ": -41.64,
      "Name": "NPC2",
      "RotY": 51.95205,
      "NPCID": 2201,
      "DialogueGroups": [],
      "ServerInteractVerificationIDList": [],
      "DefaultLookAtMode": "Closed",
      "BoardShowList": [],
      "TalkDialogGroupIDList": [],
      "DefaultIdleFreeStyleMotionID": 200230000,
      "BornType": "Permanent"
    },
    {
      "ID": 400003,
      "PosX": 56.29,
      "PosY": -29.46,
      "PosZ": -39.02,
      "Name": "NPC3",
      "RotY": 142.66,
      "NPCID": 2201,
      "DialogueGroups": [],
      "ServerInteractVerificationIDList": [],
      "DefaultLookAtMode": "Closed",
      "BoardShowList": [],
      "TalkDialogGroupIDList": [],
      "DefaultIdleFreeStyleMotionID": 200230000,
      "BornType": "Permanent"
    }
  ]
}