{
  "GroupGUID": "94fce375-cd6d-4deb-91db-25b82c9fa097",
  "GroupName": "MainMission2010202_04",
  "Category": "Mission",
  "AreaAnchorName": "LevelArea_P43101_F43101001_G5",
  "SaveType": "Reset",
  "LoadCondition": {
    "Conditions": [
      {
        "Type": "SubMission",
        "ID": 201020204
      }
    ]
  },
  "UnloadCondition": {
    "Conditions": [
      {
        "Type": "SubMission",
        "Phase": "Finish",
        "ID": 201020204
      }
    ]
  },
  "OwnerMainMissionID": 2010202,
  "ConflictIDList": [],
  "AnchorList": [
    {
      "ID": 1,
      "PosX": 172.87,
      "PosY": 46.30149,
      "PosZ": -65.27,
      "Name": "Anchor1",
      "RotY": 96.04
    },
    {
      "ID": 2,
      "PosX": 191.795,
      "PosY": 46.53605,
      "PosZ": -64.2503,
      "Name": "Anchor2",
      "RotY": 78.04001
    },
    {
      "ID": 3,
      "PosX": 216.55,
      "PosY": 47.7,
      "PosZ": -117.46,
      "Name": "Anchor3",
      "RotY": 258.2795,
      "RotX": 25.87601,
      "RotZ": 357.6007,
      "Usage": "Camera"
    },
    {
      "ID": 4,
      "PosX": 163.264,
      "PosY": 48.987,
      "PosZ": -66.0,
      "Name": "Anchor4",
      "RotY": 87.70246,
      "RotX": 19.6,
      "RotZ": 359.9418,
      "Usage": "Camera"
    },
    {
      "ID": 5,
      "PosX": 163.3,
      "PosY": 46.38179,
      "PosZ": -64.56,
      "Name": "Anchor5",
      "RotY": 92.4,
      "Usage": "Actor"
    }
  ],
  "MonsterList": [],
  "PropList": [
    {
      "ID": 300001,
      "PosX": 162.99,
      "PosY": 46.34138,
      "PosZ": -64.40221,
      "Name": "Prop1",
      "PropID": 100,
      "IsOverrideInitLevelGraph": true,
      "Trigger": {
        "Radius": 6.0,
        "DimX": 1.0,
        "DimY": 1.0,
        "DimZ": 1.0,
        "PointList": []
      },
      "CampID": 4,
      "CustomTriggerMap": {},
      "BridgeStateRotations": [],
      "DialogueGroups": [],
      "TalkDialogGroupIDList": [],
      "ServerInteractVerificationIDList": []
    },
    {
      "ID": 300002,
      "PosX": 173.27,
      "PosY": 46.36916,
      "PosZ": -67.42,
      "Name": "Prop2",
      "RotY": 18.2,
      "PropID": 100,
      "IsOverrideInitLevelGraph": true,
      "Trigger": {
        "Shape": "Box",
        "Radius": 1.0,
        "DimX": 1.0,
        "DimY": 1.0,
        "DimZ": 15.0,
        "PointList": []
      },
      "CampID": 4,
      "CustomTriggerMap": {},
      "BridgeStateRotations": [],
      "DialogueGroups": [],
      "TalkDialogGroupIDList": [],
      "ServerInteractVerificationIDList": []
    },
    {
      "ID": 300003,
      "PosX": 226.27,
      "PosY": 47.52229,
      "PosZ": -116.73,
      "Name": "Prop3",
      "RotY": 317.19,
      "PropID": 100,
      "IsOverrideInitLevelGraph": true,
      "Trigger": {
        "Shape": "Box",
        "Radius": 1.0,
        "DimX": 1.0,
        "DimY": 1.0,
        "DimZ": 9.0,
        "PointList": []
      },
      "CampID": 4,
      "CustomTriggerMap": {},
      "BridgeStateRotations": [],
      "DialogueGroups": [],
      "TalkDialogGroupIDList": [],
      "ServerInteractVerificationIDList": []
    }
  ],
  "NPCList": [
    {
      "ID": 400001,
      "PosX": 127.5,
      "PosY": 46.45185,
      "PosZ": -64.42,
      "IsDelete": true,
      "Name": "NPC1",
      "RotY": 155.2,
      "NPCID": 3023,
      "AIConfig": {
        "AIFile": "Config/ConfigAI/Adventure/MazeNPC_FollowPlayer_201020211.json",
        "PathwayList": [
          {
            "UseOwnerGroup": true,
            "UseGroup": 5,
            "UseID": 1
          }
        ],
        "SlaveConfigList": []
      },
      "DialogueGroups": [],
      "ServerInteractVerificationIDList": [],
      "BoardShowList": [],
      "TalkDialogGroupIDList": [],
      "DefaultIdleFreeStyleMotionID": 900050000,
      "IsNeedFade": true,
      "InitialHiddenNodeList": [],
      "SpawnConfig": {
        "EntitySpawnConfig": {},
        "CaptureDistanceTolerance": 10.0
      }
    },
    {
      "ID": 400002,
      "PosX": 168.7641,
      "PosY": 46.36215,
      "PosZ": -66.70447,
      "Name": "NPC2",
      "RotY": 292.8,
      "NPCID": 2213,
      "DialogueGroups": [],
      "ServerInteractVerificationIDList": [],
      "BoardShowList": [],
      "TalkDialogGroupIDList": [],
      "DefaultIdleFreeStyleMotionID": 200520220,
      "InitialHiddenNodeList": [],
      "SpawnConfig": {
        "EntitySpawnConfig": {},
        "CaptureDistanceTolerance": 10.0
      }
    },
    {
      "ID": 400003,
      "PosX": 168.38,
      "PosY": 46.34244,
      "PosZ": -64.54,
      "Name": "NPC3",
      "RotY": 222.0,
      "NPCID": 2213,
      "DialogueGroups": [],
      "ServerInteractVerificationIDList": [],
      "BoardShowList": [],
      "TalkDialogGroupIDList": [],
      "DefaultIdleFreeStyleMotionID": 200520000,
      "InitialHiddenNodeList": [],
      "SpawnConfig": {
        "EntitySpawnConfig": {},
        "CaptureDistanceTolerance": 10.0
      }
    },
    {
      "ID": 400004,
      "PosX": 167.0,
      "PosY": 46.33622,
      "PosZ": -65.51,
      "Name": "NPC4",
      "RotY": 50.1,
      "NPCID": 11103,
      "DialogueGroups": [],
      "ServerInteractVerificationIDList": [],
      "BoardShowList": [],
      "TalkDialogGroupIDList": [],
      "DefaultIdleFreeStyleMotionID": 100010333,
      "InitialHiddenNodeList": [],
      "SpawnConfig": {
        "EntitySpawnConfig": {},
        "CaptureDistanceTolerance": 10.0
      }
    },
    {
      "ID": 400005,
      "PosX": 166.836,
      "PosY": 46.40685,
      "PosZ": -67.098,
      "Name": "NPC5",
      "RotY": 43.8,
      "NPCID": 3023,
      "DialogueGroups": [],
      "ServerInteractVerificationIDList": [],
      "BoardShowList": [],
      "TalkDialogGroupIDList": [],
      "DefaultIdleFreeStyleMotionID": 900050000,
      "InitialHiddenNodeList": [],
      "SpawnConfig": {
        "EntitySpawnConfig": {},
        "CaptureDistanceTolerance": 10.0
      }
    }
  ]
}