{
  "GroupGUID": "b75bde0d-4e38-4337-bf36-6b615d5adba2",
  "GroupName": "MainMission1020901_",
  "Category": "Mission",
  "AreaAnchorName": "LevelArea_P40222_F40222001_G6",
  "SaveType": "Reset",
  "LoadCondition": {
    "Conditions": [
      {
        "Type": "SubMission",
        "ID": 102090103
      },
      {
        "Type": "SubMission",
        "ID": 102090102
      }
    ],
    "Operation": "Or"
  },
  "UnloadCondition": {
    "Conditions": [
      {
        "Type": "SubMission",
        "Phase": "Finish",
        "ID": 102090103
      }
    ]
  },
  "OwnerMainMissionID": 1020901,
  "ConflictIDList": [],
  "AnchorList": [
    {
      "ID": 1,
      "PosX": 69.77,
      "PosY": 45.90625,
      "PosZ": -37.84,
      "Name": "Anchor1",
      "RotY": 32.97185,
      "Usage": "Camera"
    },
    {
      "ID": 2,
      "PosX": 70.94,
      "PosY": 45.90625,
      "PosZ": -35.15,
      "Name": "Anchor2",
      "RotY": 26.74439,
      "Usage": "Camera"
    },
    {
      "ID": 3,
      "PosX": 72.35,
      "PosY": 45.90625,
      "PosZ": -30.02,
      "Name": "Anchor3",
      "RotY": 185.2896,
      "Usage": "Camera"
    },
    {
      "ID": 4,
      "PosX": 71.64,
      "PosY": 45.90625,
      "PosZ": -32.59,
      "Name": "Anchor4",
      "RotY": 32.97185,
      "Usage": "Camera"
    }
  ],
  "MonsterList": [],
  "PropList": [
    {
      "ID": 300001,
      "PosX": 77.14,
      "PosY": 45.90629,
      "PosZ": -33.77,
      "Name": "Prop1",
      "RotY": 19.90384,
      "PropID": 100,
      "IsOverrideInitLevelGraph": true,
      "Trigger": {
        "Shape": "Box",
        "Radius": 5.0,
        "DimX": 30.0,
        "DimY": 1.0,
        "DimZ": 15.0,
        "PointList": []
      },
      "CampID": 4,
      "CustomTriggerMap": {},
      "BridgeStateRotations": [],
      "DialogueGroups": [],
      "TalkDialogGroupIDList": [],
      "ServerInteractVerificationIDList": []
    },
    {
      "ID": 300002,
      "PosX": 60.69,
      "PosY": 45.9063,
      "PosZ": -56.95,
      "Name": "Prop2",
      "PropID": 100,
      "IsOverrideInitLevelGraph": true,
      "Trigger": {
        "Shape": "Box",
        "Radius": 1.0,
        "DimX": 10.0,
        "DimY": 1.0,
        "DimZ": 1.0,
        "PointList": []
      },
      "CampID": 4,
      "CustomTriggerMap": {},
      "BridgeStateRotations": [],
      "DialogueGroups": [],
      "TalkDialogGroupIDList": [],
      "ServerInteractVerificationIDList": []
    }
  ],
  "NPCList": [
    {
      "ID": 400001,
      "PosX": 73.06,
      "PosY": 45.90629,
      "PosZ": -33.57,
      "Name": "NPC1",
      "RotY": 49.95673,
      "NPCID": 2202,
      "DialogueGroups": [],
      "ServerInteractVerificationIDList": [],
      "DefaultLookAtMode": "Closed",
      "BoardShowList": [],
      "TalkDialogGroupIDList": [],
      "DefaultIdleFreeStyleMotionID": 200160227,
      "InitialHiddenNodeList": []
    },
    {
      "ID": 400002,
      "PosX": 71.03,
      "PosY": 45.90628,
      "PosZ": -30.95,
      "Name": "NPC2",
      "RotY": 128.1437,
      "NPCID": 2202,
      "DialogueGroups": [],
      "ServerInteractVerificationIDList": [],
      "DefaultLookAtMode": "Closed",
      "BoardShowList": [],
      "TalkDialogGroupIDList": [],
      "DefaultIdleFreeStyleMotionID": 200160227,
      "InitialHiddenNodeList": []
    },
    {
      "ID": 400003,
      "PosX": 73.1,
      "PosY": 45.90625,
      "PosZ": -30.96,
      "Name": "NPC3",
      "RotY": 167.5275,
      "NPCID": 1208,
      "DialogueGroups": [],
      "ServerInteractVerificationIDList": [],
      "DefaultLookAtMode": "Closed",
      "BoardShowList": [],
      "TalkDialogGroupIDList": [],
      "DefaultIdleFreeStyleMotionID": 312140279,
      "InitialHiddenNodeList": []
    },
    {
      "ID": 400004,
      "PosX": 75.13,
      "PosY": 45.90629,
      "PosZ": -31.48,
      "Name": "NPC4",
      "RotY": 296.327,
      "NPCID": 2202,
      "DialogueGroups": [],
      "ServerInteractVerificationIDList": [],
      "DefaultLookAtMode": "Closed",
      "BoardShowList": [],
      "TalkDialogGroupIDList": [],
      "DefaultIdleFreeStyleMotionID": 200160227,
      "InitialHiddenNodeList": []
    }
  ]
}