{
  "GroupGUID": "e1f709c7-189a-49d3-ac1f-057406643849",
  "GroupName": "R2_Pose2_3rd_Wolf_Monsters",
  "AreaAnchorName": "LevelArea_P20322_F20322001_G103",
  "SaveDimensionFilter": {},
  "SavedValueCondition": {
    "Conditions": [
      {
        "SavedValueName": "ChallengeNum_Host",
        "Operation": "Equal",
        "Value": 3
      }
    ],
    "Operation": "And"
  },
  "UseCustomSaveData": true,
  "LoadSide": "Server",
  "LoadOnInitial": true,
  "ValueSource": {},
  "ConflictIDList": [],
  "IsHoyoGroup": true,
  "HoYoGroupType": "Container",
  "ConflictWhiteList": [],
  "TagContainer": {},
  "AnchorList": [],
  "MonsterList": [
    {
      "ID": 200001,
      "PosX": 73.206,
      "PosY": 88.922,
      "PosZ": 102.589,
      "Name": "Monster1",
      "RotY": 90.10006,
      "NPCMonsterID": 3002011,
      "AIConfig": {
        "AIFile": "Config/ConfigAI/Adventure/NPCMonster/WolfBro_NPCMonster/ST_Gameplay_WolfBro_NPCMonster_Master.json",
        "PathwayList": [
          {
            "UseOwnerGroup": true,
            "UseGroup": 103,
            "UseID": 1
          }
        ],
        "SlaveConfigList": []
      },
      "AIVariableSource": {},
      "ValueSource": {
        "Values": []
      },
      "CampID": 3,
      "BattleArea": {},
      "Trigger": {
        "Radius": 1.0,
        "DimX": 1.0,
        "DimY": 1.0,
        "DimZ": 1.0,
        "PointList": []
      },
      "EventID": 10301299,
      "BoardShowList": [
        4
      ],
      "TagList": [],
      "SpawnConfig": {
        "OverrideSpawn": true,
        "EntitySpawnConfig": {}
      },
      "TagContainer": {}
    },
    {
      "ID": 200002,
      "PosX": 60.18015,
      "PosY": 95.84986,
      "PosZ": 102.58,
      "Name": "Monster2",
      "RotY": 315.3654,
      "NPCMonsterID": 3001021,
      "AIConfig": {
        "AIFile": "Config/ConfigAI/Adventure/NPCMonster/WolfBro_NPCMonster/ST_Gameplay_WolfBro_NPCMonster_Master.json",
        "PathwayList": [],
        "SlaveConfigList": []
      },
      "AIVariableSource": {},
      "ValueSource": {
        "Values": []
      },
      "CampID": 3,
      "BattleArea": {},
      "Trigger": {
        "Radius": 1.0,
        "DimX": 1.0,
        "DimY": 1.0,
        "DimZ": 1.0,
        "PointList": []
      },
      "EventID": 10301299,
      "BoardShowList": [
        4
      ],
      "DefaultLookAtMode": "LookPosition",
      "TagList": [],
      "SpawnConfig": {
        "OverrideSpawn": true,
        "EntitySpawnConfig": {}
      },
      "TagContainer": {}
    },
    {
      "ID": 200003,
      "PosX": 60.015,
      "PosY": 92.07587,
      "PosZ": 102.6015,
      "Name": "Monster3",
      "RotY": 225.0,
      "NPCMonsterID": 3001021,
      "AIConfig": {
        "AIFile": "Config/ConfigAI/Adventure/NPCMonster/WolfBro_NPCMonster/ST_Gameplay_WolfBro_NPCMonster_Master.json",
        "PathwayList": [],
        "SlaveConfigList": []
      },
      "AIVariableSource": {},
      "ValueSource": {
        "Values": []
      },
      "CampID": 3,
      "BattleArea": {},
      "Trigger": {
        "Radius": 1.0,
        "DimX": 1.0,
        "DimY": 1.0,
        "DimZ": 1.0,
        "PointList": []
      },
      "EventID": 10301299,
      "BoardShowList": [
        4
      ],
      "DefaultLookAtMode": "LookPosition",
      "TagList": [],
      "SpawnConfig": {
        "OverrideSpawn": true,
        "EntitySpawnConfig": {}
      },
      "TagContainer": {}
    },
    {
      "ID": 200004,
      "PosX": 61.97825,
      "PosY": 93.93683,
      "PosZ": 102.5895,
      "Name": "Monster4",
      "RotY": 90.00003,
      "NPCMonsterID": 3002011,
      "AIConfig": {
        "AIFile": "Config/ConfigAI/Adventure/NPCMonster/WolfBro_NPCMonster/ST_Gameplay_WolfBro_NPCMonster_Master.json",
        "PathwayList": [
          {
            "UseOwnerGroup": true,
            "UseGroup": 103,
            "UseID": 3
          }
        ],
        "SlaveConfigList": []
      },
      "AIVariableSource": {},
      "ValueSource": {
        "Values": []
      },
      "CampID": 3,
      "BattleArea": {},
      "Trigger": {
        "Radius": 1.0,
        "DimX": 1.0,
        "DimY": 1.0,
        "DimZ": 1.0,
        "PointList": []
      },
      "EventID": 10301299,
      "BoardShowList": [
        4
      ],
      "TagList": [],
      "SpawnConfig": {
        "OverrideSpawn": true,
        "EntitySpawnConfig": {}
      },
      "TagContainer": {}
    },
    {
      "ID": 200005,
      "PosX": 72.033,
      "PosY": 90.984,
      "PosZ": 102.63,
      "Name": "Monster5",
      "RotY": 166.2385,
      "NPCMonsterID": 3002011,
      "AIConfig": {
        "AIFile": "Config/ConfigAI/Adventure/NPCMonster/WolfBro_NPCMonster/ST_Gameplay_WolfBro_NPCMonster_Master.json",
        "PathwayList": [],
        "SlaveConfigList": []
      },
      "AIVariableSource": {},
      "ValueSource": {
        "Values": []
      },
      "CampID": 3,
      "BattleArea": {},
      "Trigger": {
        "Radius": 1.0,
        "DimX": 1.0,
        "DimY": 1.0,
        "DimZ": 1.0,
        "PointList": []
      },
      "InitialAnimState": "SpecialStandBy1",
      "EventID": 10301299,
      "BoardShowList": [
        4
      ],
      "TagList": [],
      "SpawnConfig": {
        "OverrideSpawn": true,
        "EntitySpawnConfig": {}
      },
      "TagContainer": {}
    },
    {
      "ID": 200006,
      "PosX": 74.112,
      "PosY": 70.728,
      "PosZ": 102.58,
      "Name": "Monster6",
      "RotY": 181.6339,
      "NPCMonsterID": 3002041,
      "AIConfig": {
        "AIFile": "Config/ConfigAI/Adventure/NPCMonster/WolfBro_NPCMonster/ST_Gameplay_WolfBro_NPCMonster_Master.json",
        "PathwayList": [],
        "SlaveConfigList": []
      },
      "AIVariableSource": {},
      "ValueSource": {
        "Values": []
      },
      "CampID": 3,
      "BattleArea": {},
      "Trigger": {
        "Radius": 1.0,
        "DimX": 1.0,
        "DimY": 1.0,
        "DimZ": 1.0,
        "PointList": []
      },
      "InitialAnimState": "SpecialStandBy1",
      "EventID": 10301299,
      "BoardShowList": [
        4
      ],
      "TagList": [],
      "SpawnConfig": {
        "OverrideSpawn": true,
        "EntitySpawnConfig": {}
      },
      "TagContainer": {}
    },
    {
      "ID": 200007,
      "PosX": 72.158,
      "PosY": 69.871,
      "PosZ": 102.58,
      "Name": "Monster7",
      "RotY": 180.0,
      "NPCMonsterID": 3002041,
      "AIConfig": {
        "AIFile": "Config/ConfigAI/Adventure/NPCMonster/WolfBro_NPCMonster/ST_Gameplay_WolfBro_NPCMonster_Master.json",
        "PathwayList": [],
        "SlaveConfigList": []
      },
      "AIVariableSource": {},
      "ValueSource": {
        "Values": []
      },
      "CampID": 3,
      "BattleArea": {},
      "Trigger": {
        "Radius": 1.0,
        "DimX": 1.0,
        "DimY": 1.0,
        "DimZ": 1.0,
        "PointList": []
      },
      "InitialAnimState": "SpecialStandBy2",
      "EventID": 10301299,
      "BoardShowList": [
        4
      ],
      "TagList": [],
      "SpawnConfig": {
        "OverrideSpawn": true,
        "EntitySpawnConfig": {}
      },
      "TagContainer": {}
    },
    {
      "ID": 200008,
      "PosX": 75.83295,
      "PosY": 69.72422,
      "PosZ": 102.5792,
      "Name": "Monster8",
      "RotY": 197.1753,
      "NPCMonsterID": 3002041,
      "AIConfig": {
        "AIFile": "Config/ConfigAI/Adventure/NPCMonster/WolfBro_NPCMonster/ST_Gameplay_WolfBro_NPCMonster_Master.json",
        "PathwayList": [],
        "SlaveConfigList": []
      },
      "AIVariableSource": {
        "Values": []
      },
      "ValueSource": {
        "Values": []
      },
      "CampID": 3,
      "BattleArea": {},
      "Trigger": {
        "Radius": 1.0,
        "DimX": 1.0,
        "DimY": 1.0,
        "DimZ": 1.0,
        "PointList": []
      },
      "InitialAnimState": "SpecialStandBy2",
      "EventID": 10301299,
      "BoardShowList": [
        4
      ],
      "TagList": [],
      "SpawnConfig": {
        "OverrideSpawn": true,
        "EntitySpawnConfig": {}
      },
      "TagContainer": {
        "List": []
      }
    },
    {
      "ID": 200009,
      "PosX": 60.809,
      "PosY": 93.919,
      "PosZ": 102.601,
      "Name": "Monster9",
      "RotY": 268.2568,
      "NPCMonsterID": 3001021,
      "AIConfig": {
        "AIFile": "Config/ConfigAI/Adventure/NPCMonster/WolfBro_NPCMonster/ST_Gameplay_WolfBro_NPCMonster_Master.json",
        "PathwayList": [],
        "SlaveConfigList": []
      },
      "AIVariableSource": {},
      "ValueSource": {
        "Values": []
      },
      "CampID": 3,
      "BattleArea": {},
      "Trigger": {
        "Radius": 1.0,
        "DimX": 1.0,
        "DimY": 1.0,
        "DimZ": 1.0,
        "PointList": []
      },
      "EventID": 10301299,
      "BoardShowList": [
        4
      ],
      "DefaultLookAtMode": "LookPosition",
      "TagList": [],
      "SpawnConfig": {
        "OverrideSpawn": true,
        "EntitySpawnConfig": {}
      },
      "TagContainer": {}
    }
  ],
  "PropList": [
    {
      "ID": 300001,
      "PosX": 79.525,
      "PosY": 88.91998,
      "PosZ": 102.59,
      "Name": "Prop1",
      "RotY": 270.0,
      "RotX": 0.099992,
      "RotZ": 270.0,
      "PropID": 100,
      "IsOverrideInitLevelGraph": true,
      "InitLevelGraph": "Config/Level/Props/Chap03/InitLevelGraph_Prop_Chap03_ShowGroupMonsterVision_01.json",
      "ValueSource": {},
      "CampID": 4,
      "CustomTriggerMap": {},
      "CustomTriggerMapV2": {},
      "BridgeStateRotations": [],
      "DialogueGroups": [],
      "TalkDialogGroupIDList": [],
      "ServerInteractVerificationIDList": [],
      "TriggerValidGuest": {},
      "TagContainer": {},
      "CameraCenterEntityList": [],
      "SpawnConfig": {
        "EntitySpawnConfig": {}
      }
    }
  ],
  "NPCList": []
}