{
  "GroupGUID": "f69e387e-18ba-4655-aeb5-831e8e0b78cc",
  "GroupName": "Pose4_WolfGroup_Props",
  "LevelGraph": "Config/Level/GroupGraph/F20322001/Group_F20322001_G98.json",
  "AreaAnchorName": "LevelArea_P20322_F20322001_G98",
  "SaveDimensionFilter": {},
  "SavedValueCondition": {
    "Conditions": [],
    "Operation": "And"
  },
  "LoadSide": "Server",
  "LoadOnInitial": true,
  "ValueSource": {},
  "ConflictIDList": [],
  "IsHoyoGroup": true,
  "ConflictWhiteList": [],
  "TagContainer": {},
  "AnchorList": [
    {
      "ID": 2,
      "PosX": -70.87,
      "PosY": 122.0,
      "PosZ": 65.786,
      "Name": "Anchor2",
      "RotY": -4.1E-5
    },
    {
      "ID": 3,
      "PosX": -79.008,
      "PosY": 122.0,
      "PosZ": 65.786,
      "Name": "Anchor3",
      "RotY": -4.1E-5
    },
    {
      "ID": 1,
      "PosX": -65.078,
      "PosY": 122.0,
      "PosZ": 78.943,
      "Name": "HideBox_Entry",
      "RotY": 180.0,
      "RotZ": 180.0
    },
    {
      "ID": 4,
      "PosX": -65.039,
      "PosY": 121.122,
      "PosZ": 77.95,
      "Name": "HideBox_Lookat",
      "RotY": 180.0,
      "RotZ": 180.0
    }
  ],
  "MonsterList": [],
  "PropList": [
    {
      "ID": 300008,
      "PosX": -70.81622,
      "PosY": 121.9999,
      "PosZ": 64.469,
      "Name": "RocketMove1_1",
      "RotY": -2.9E-5,
      "RotX": 3.9E-5,
      "RotZ": 180.0,
      "PropID": 103050,
      "ValueSource": {
        "Values": [
          {
            "$type": "SharedString",
            "Key": "MoveTo",
            "Value": "LevelArea_P20322_F20322001_G98,Anchor3"
          }
        ]
      },
      "Trigger": {
        "Radius": 0.5,
        "DimX": 0.5,
        "DimY": 0.5,
        "DimZ": 0.5,
        "PointList": []
      },
      "CampID": 4,
      "State": "TeleportGate0",
      "CustomTriggerMap": {},
      "CustomTriggerMapV2": {
        "Trigger_01": {
          "Radius": 1.0,
          "DimX": 1.0,
          "DimY": 1.0,
          "DimZ": 1.0,
          "PointList": []
        },
        "Trigger_02": {
          "Radius": 4.0,
          "DimX": 1.0,
          "DimY": 1.0,
          "DimZ": 1.0,
          "PointList": []
        }
      },
      "BridgeStateRotations": [],
      "DialogueGroups": [],
      "TalkDialogGroupIDList": [],
      "ServerInteractVerificationIDList": [],
      "OverrideTriggerValidGuestConfig": true,
      "TriggerValidGuest": {
        "FakePlayer": true
      },
      "TagContainer": {},
      "CameraCenterEntityList": [],
      "SpawnConfig": {
        "EntitySpawnConfig": {}
      }
    },
    {
      "ID": 300009,
      "PosX": -78.963,
      "PosY": 122.0,
      "PosZ": 64.462,
      "Name": "RocketMove1_2",
      "RotY": -7.3E-5,
      "RotX": -1.0E-6,
      "RotZ": 180.0001,
      "PropID": 103050,
      "ValueSource": {
        "Values": [
          {
            "$type": "SharedString",
            "Key": "MoveTo",
            "Value": "LevelArea_P20322_F20322001_G98,Anchor2"
          }
        ]
      },
      "Trigger": {
        "Radius": 0.5,
        "DimX": 0.5,
        "DimY": 0.5,
        "DimZ": 0.5,
        "PointList": []
      },
      "CampID": 4,
      "State": "TeleportGate0",
      "CustomTriggerMap": {},
      "CustomTriggerMapV2": {
        "Trigger_01": {
          "Radius": 1.0,
          "DimX": 1.0,
          "DimY": 1.0,
          "DimZ": 1.0,
          "PointList": []
        },
        "Trigger_02": {
          "Radius": 4.0,
          "DimX": 1.0,
          "DimY": 1.0,
          "DimZ": 1.0,
          "PointList": []
        }
      },
      "BridgeStateRotations": [],
      "DialogueGroups": [],
      "TalkDialogGroupIDList": [],
      "ServerInteractVerificationIDList": [],
      "OverrideTriggerValidGuestConfig": true,
      "TriggerValidGuest": {
        "FakePlayer": true
      },
      "TagContainer": {},
      "CameraCenterEntityList": [],
      "SpawnConfig": {
        "EntitySpawnConfig": {}
      }
    },
    {
      "ID": 300005,
      "PosX": -80.828,
      "PosY": 121.972,
      "PosZ": 65.31,
      "Name": "Prop5",
      "RotY": 180.0,
      "RotZ": 180.0,
      "PropID": 103068,
      "ValueSource": {},
      "CampID": 4,
      "State": "Locked",
      "CustomTriggerMap": {},
      "CustomTriggerMapV2": {},
      "BridgeStateRotations": [],
      "DialogueGroups": [],
      "TalkDialogGroupIDList": [],
      "ServerInteractVerificationIDList": [],
      "TriggerValidGuest": {},
      "TagContainer": {},
      "CameraCenterEntityList": [],
      "SpawnConfig": {
        "EntitySpawnConfig": {}
      }
    },
    {
      "ID": 300007,
      "PosX": -98.177,
      "PosY": 122.0,
      "PosZ": 81.54,
      "Name": "Prop7",
      "RotY": 90.0,
      "RotZ": 180.0,
      "PropID": 103055,
      "IsOverrideInitLevelGraph": true,
      "InitLevelGraph": "Config/Level/Props/Chap03/InitLevelGraph_Prop_Chap03_FireworksBox_01.json",
      "ValueSource": {
        "Values": [
          {
            "$type": "SharedString",
            "Key": "BreakWall",
            "Value": "98,300001"
          }
        ]
      },
      "CampID": 4,
      "CustomTriggerMap": {},
      "CustomTriggerMapV2": {},
      "BridgeStateRotations": [],
      "DialogueGroups": [],
      "TalkDialogGroupIDList": [],
      "ServerInteractVerificationIDList": [],
      "TriggerValidGuest": {},
      "TagContainer": {},
      "CameraCenterEntityList": [],
      "SpawnConfig": {
        "EntitySpawnConfig": {}
      }
    },
    {
      "ID": 300010,
      "PosY": -560.0,
      "Name": "Controller",
      "RotY": 180.0,
      "RotZ": 180.0,
      "PropID": 100,
      "IsOverrideInitLevelGraph": true,
      "InitLevelGraph": "Config/Level/Maze/Chapter02/X201/Maze_Chap03_WolfBro_TeleportGate.json",
      "ValueSource": {
        "Values": [
          {
            "$type": "SharedUint",
            "Key": "Maze_CurrentGroup",
            "Value": 196
          },
          {
            "$type": "SharedString",
            "Key": "PrefabPath",
            "Value": "Props/Outputs/Chap02/Chap02_Prop_TeleportGate/TeleportGateController_P202_01.prefab"
          }
        ]
      },
      "CustomTriggerMap": {},
      "CustomTriggerMapV2": {},
      "BridgeStateRotations": [],
      "DialogueGroups": [],
      "TalkDialogGroupIDList": [],
      "ServerInteractVerificationIDList": [],
      "TriggerValidGuest": {},
      "TagContainer": {},
      "CameraCenterEntityList": [],
      "SpawnConfig": {
        "EntitySpawnConfig": {}
      }
    },
    {
      "ID": 300001,
      "PosX": -98.8058,
      "PosY": 116.0,
      "PosZ": 78.58,
      "Name": "BreakableWall",
      "RotY": 90.0,
      "PropID": 100,
      "ValueSource": {},
      "CampID": 4,
      "CustomTriggerMap": {},
      "CustomTriggerMapV2": {},
      "BridgeStateRotations": [],
      "DialogueGroups": [],
      "TalkDialogGroupIDList": [],
      "ServerInteractVerificationIDList": [],
      "StageObjectCapture": {
        "BlockAlias": "Chap03_CloseView_MAZ_P202_Mansion_C",
        "PrefabAlias": "Chap03_P202_BreakableWall_01"
      },
      "TriggerValidGuest": {},
      "TagContainer": {},
      "CameraCenterEntityList": [],
      "SpawnConfig": {
        "EntitySpawnConfig": {}
      }
    },
    {
      "ID": 300002,
      "PosX": -65.039,
      "PosY": 122.0,
      "PosZ": 77.95,
      "Name": "Hide_Box",
      "RotY": 178.5201,
      "RotX": 1.0E-5,
      "RotZ": 180.0,
      "PropID": 103043,
      "ValueSource": {
        "Values": [
          {
            "$type": "SharedString",
            "Key": "InPoint",
            "Value": "LevelArea_P20322_F20322001_G98,HideBox_Lookat"
          },
          {
            "$type": "SharedString",
            "Key": "LeavePoint",
            "Value": "LevelArea_P20322_F20322001_G98,HideBox_Entry"
          }
        ]
      },
      "CampID": 4,
      "CustomTriggerMap": {},
      "CustomTriggerMapV2": {},
      "BridgeStateRotations": [],
      "DialogueGroups": [],
      "TalkDialogGroupIDList": [],
      "ServerInteractVerificationIDList": [],
      "TriggerValidGuest": {},
      "TagContainer": {},
      "CameraCenterEntityList": [],
      "SpawnConfig": {
        "EntitySpawnConfig": {}
      }
    },
    {
      "ID": 300003,
      "PosX": -80.799,
      "PosY": 121.9929,
      "PosZ": 65.296,
      "Name": "Prop3",
      "RotY": 90.0,
      "RotZ": 180.0,
      "PropID": 100,
      "IsOverrideInitLevelGraph": true,
      "InitLevelGraph": "Config/Level/Props/Chap03/InitLevelGraph_Prop_Chap03_TriggerG_01.json.json",
      "ValueSource": {
        "Values": [
          {
            "$type": "SharedString",
            "Key": "Gid",
            "Value": "7091"
          }
        ]
      },
      "Trigger": {
        "Radius": 1.1,
        "DimX": 1.0,
        "DimY": 1.0,
        "DimZ": 1.0,
        "PointList": []
      },
      "CampID": 4,
      "CustomTriggerMap": {},
      "CustomTriggerMapV2": {},
      "BridgeStateRotations": [],
      "DialogueGroups": [],
      "TalkDialogGroupIDList": [],
      "ServerInteractVerificationIDList": [],
      "TriggerValidGuest": {},
      "TagContainer": {},
      "CameraCenterEntityList": [],
      "SpawnConfig": {
        "EntitySpawnConfig": {}
      }
    }
  ],
  "NPCList": []
}