{
  "GroupGUID": "d5e1feb4-252a-4e29-9efc-8cf6e1d8845a",
  "GroupName": "MainMission4122103_05",
  "AreaAnchorName": "LevelArea_P41221_F41221003_G34",
  "LoadSide": "Server",
  "LoadOnInitial": true,
  "ValueSource": {},
  "ConflictIDList": [],
  "TagContainer": {},
  "AnchorList": [
    {
      "ID": 1,
      "PosX": 88.56,
      "PosY": 56.19,
      "PosZ": -45.97,
      "Name": "Anchor1",
      "RotY": 105.4759
    },
    {
      "ID": 2,
      "PosX": 12.27,
      "PosY": 51.74961,
      "PosZ": -201.4,
      "Name": "Anchor2",
      "RotY": 180.0
    }
  ],
  "MonsterList": [],
  "PropList": [
    {
      "ID": 300001,
      "PosX": 78.35,
      "PosY": 60.1,
      "PosZ": -32.46,
      "Name": "Prop1",
      "RotY": 101.9815,
      "RotX": 300.1673,
      "RotZ": 7.608478,
      "PropID": 102081,
      "IsOverrideInitLevelGraph": true,
      "InitLevelGraph": "Config/Level/Maze/MazeTest/ControlDrone/Common/ControlDrone_Target.json",
      "ValueSource": {
        "Values": [
          {
            "$type": "SharedString",
            "Key": "Mission_Str",
            "Value": "Talk_412210304"
          }
        ]
      },
      "Trigger": {
        "Radius": 10.0,
        "DimX": 1.0,
        "DimY": 1.0,
        "DimZ": 1.0,
        "PointList": []
      },
      "CampID": 4,
      "CustomTriggerMap": {},
      "CustomTriggerMapV2": {},
      "BridgeStateRotations": [],
      "DialogueGroups": [],
      "TalkDialogGroupIDList": [],
      "ServerInteractVerificationIDList": [],
      "TriggerValidGuest": {},
      "TagContainer": {},
      "SpawnConfig": {
        "EntitySpawnConfig": {}
      }
    },
    {
      "ID": 300002,
      "Name": "Prop2",
      "PropID": 100,
      "IsOverrideInitLevelGraph": true,
      "InitLevelGraph": "Config/Level/Maze/MazeTest/ControlDrone/Common/ControlDrone_Main.json",
      "ValueSource": {
        "Values": [
          {
            "$type": "SharedString",
            "Key": "PuzzleBoardPath",
            "Value": "Props/Outputs/Raid/RaidControlDrone/X301/DronePuzzle_X301_02.prefab"
          },
          {
            "$type": "SharedString",
            "Key": "InitPuzzleNPC_Str"
          },
          {
            "$type": "SharedString",
            "Key": "ControllerNPC"
          },
          {
            "$type": "SharedString",
            "Key": "InitPuzzle_Str",
            "Value": "OnInit_X301_02"
          },
          {
            "$type": "SharedString",
            "Key": "Controller",
            "Value": "23,300001"
          },
          {
            "$type": "SharedString",
            "Key": "StartPuzzle_Str",
            "Value": "OnStart_X301_02"
          },
          {
            "$type": "SharedString",
            "Key": "ClosePuzzle_Str",
            "Value": "OnClose_X301_02"
          },
          {
            "$type": "SharedString",
            "Key": "InitPuzzle_Str_NoPre",
            "Value": "OnInit_NoPre_X301_02"
          },
          {
            "$type": "SharedString",
            "Key": "InitPuzzle_Str_InRaid",
            "Value": "OnInit_Inraid_X301_02"
          },
          {
            "$type": "SharedFloat",
            "Key": "IdentifyDistance",
            "Value": 25.0
          },
          {
            "$type": "SharedString",
            "Key": "CameraMode",
            "Value": "IdentifyMode"
          },
          {
            "$type": "SharedString",
            "Key": "DroneFuncBtn",
            "Value": "1"
          }
        ]
      },
      "CampID": 4,
      "CustomTriggerMap": {},
      "CustomTriggerMapV2": {},
      "BridgeStateRotations": [],
      "DialogueGroups": [],
      "TalkDialogGroupIDList": [],
      "ServerInteractVerificationIDList": [],
      "TriggerValidGuest": {},
      "TagContainer": {},
      "SpawnConfig": {
        "EntitySpawnConfig": {}
      }
    },
    {
      "ID": 300003,
      "Name": "Prop3",
      "PropID": 100,
      "IsOverrideInitLevelGraph": true,
      "InitLevelGraph": "Config/Level/Maze/MazeTest/ControlDrone/Raid/X301/Raid_X301_Performance_before.json",
      "ValueSource": {
        "Values": [
          {
            "$type": "SharedString",
            "Key": "DronePuzzleCloseStr",
            "Value": "OnClose_X301_02"
          },
          {
            "$type": "SharedString",
            "Key": "MissionFinishStr",
            "Value": "Talk_412210304"
          },
          {
            "$type": "SharedString",
            "Key": "MissionStr",
            "Value": "Talk_412210306"
          },
          {
            "$type": "SharedString",
            "Key": "SwitchAnchor",
            "Value": "LevelArea_P41221_F41221003_G34,Anchor2"
          },
          {
            "$type": "SharedString",
            "Key": "TargetProp",
            "Value": "34,300006"
          }
        ]
      },
      "CampID": 4,
      "CustomTriggerMap": {},
      "CustomTriggerMapV2": {},
      "BridgeStateRotations": [],
      "DialogueGroups": [],
      "TalkDialogGroupIDList": [],
      "ServerInteractVerificationIDList": [],
      "TriggerValidGuest": {},
      "TagContainer": {},
      "SpawnConfig": {
        "EntitySpawnConfig": {}
      }
    },
    {
      "ID": 300004,
      "PosX": 130.92,
      "PosY": 54.22,
      "PosZ": -46.52,
      "Name": "Prop4",
      "RotY": 270.0,
      "PropID": 100,
      "IsOverrideInitLevelGraph": true,
      "InitLevelGraph": "Config/Level/Maze/MazeTest/ControlDrone/Raid/Raid_ThreeStar.json",
      "ValueSource": {
        "Values": [
          {
            "$type": "SharedString",
            "Key": "TargetState",
            "Value": "34,300006"
          }
        ]
      },
      "Trigger": {
        "Radius": 25.0,
        "DimX": 10.0,
        "DimY": 5.0,
        "DimZ": 10.0,
        "PointList": []
      },
      "CampID": 4,
      "CustomTriggerMap": {},
      "CustomTriggerMapV2": {},
      "BridgeStateRotations": [],
      "DialogueGroups": [],
      "TalkDialogGroupIDList": [],
      "ServerInteractVerificationIDList": [],
      "TriggerValidGuest": {},
      "TagContainer": {},
      "SpawnConfig": {
        "EntitySpawnConfig": {}
      }
    },
    {
      "ID": 300006,
      "PosX": 130.92,
      "PosY": 54.22,
      "PosZ": -46.52,
      "Name": "Prop6",
      "RotY": 270.0,
      "Scale": {
        "x": 3.0,
        "y": 3.0,
        "z": 3.0
      },
      "PropID": 121,
      "IsOverrideInitLevelGraph": true,
      "InitLevelGraph": "Config/Level/Maze/MazeTest/ControlDrone/Common/ControlDrone_Target.json",
      "ValueSource": {
        "Values": [
          {
            "$type": "SharedString",
            "Key": "Mission_Str",
            "Value": "Talk_412210305"
          }
        ]
      },
      "CampID": 4,
      "CustomTriggerMap": {},
      "CustomTriggerMapV2": {},
      "BridgeStateRotations": [],
      "DialogueGroups": [],
      "TalkDialogGroupIDList": [],
      "ServerInteractVerificationIDList": [],
      "TriggerValidGuest": {},
      "TagContainer": {},
      "SpawnConfig": {
        "EntitySpawnConfig": {}
      }
    },
    {
      "ID": 300007,
      "PosX": 130.92,
      "PosY": 54.22,
      "PosZ": -46.52,
      "Name": "Prop7",
      "RotY": 270.0,
      "PropID": 100,
      "IsOverrideInitLevelGraph": true,
      "InitLevelGraph": "Config/Level/Maze/MazeTest/ControlDrone/Raid/X301/Raid_ThreeStar_M_Monster.json",
      "ValueSource": {
        "Values": [
          {
            "$type": "SharedString",
            "Key": "TargetState",
            "Value": "34,300006"
          }
        ]
      },
      "Trigger": {
        "Radius": 20.0,
        "DimX": 10.0,
        "DimY": 5.0,
        "DimZ": 10.0,
        "PointList": []
      },
      "CampID": 4,
      "CustomTriggerMap": {},
      "CustomTriggerMapV2": {},
      "BridgeStateRotations": [],
      "DialogueGroups": [],
      "TalkDialogGroupIDList": [],
      "ServerInteractVerificationIDList": [],
      "TriggerValidGuest": {},
      "TagContainer": {},
      "SpawnConfig": {
        "EntitySpawnConfig": {}
      }
    },
    {
      "ID": 300005,
      "PosX": 130.92,
      "PosY": 54.22,
      "PosZ": -46.52,
      "Name": "Prop5",
      "RotY": 270.0,
      "PropID": 100,
      "IsOverrideInitLevelGraph": true,
      "InitLevelGraph": "Config/Level/Maze/MazeTest/ControlDrone/Raid/Raid_Bubble.json",
      "ValueSource": {
        "Values": [
          {
            "$type": "SharedString",
            "Key": "MunicipalChatPath_Help",
            "Value": "Config/Level/MunicipalChatConfig/F41221003/MunicipalChatConfig_F41221003_0003.json"
          },
          {
            "$type": "SharedString",
            "Key": "MunicipalChatName_Help",
            "Value": "MunicipalChatConfig_F41221003_0003"
          },
          {
            "$type": "SharedString",
            "Key": "MunicipalChatPath_Thank",
            "Value": "Config/Level/MunicipalChatConfig/F41221003/MunicipalChatConfig_F41221003_0003.json"
          },
          {
            "$type": "SharedJsonConfigList",
            "Key": "MunicipalChatCharacter_Thank",
            "Value": [
              {
                "$type": "MunicipalChatEntityInfo",
                "UniqueName": "1",
                "GroupInstanceID": 400001
              },
              {
                "$type": "MunicipalChatEntityInfo",
                "UniqueName": "2",
                "GroupInstanceID": 400002
              }
            ]
          },
          {
            "$type": "SharedString",
            "Key": "MunicipalChatName_Thank",
            "Value": "MunicipalChatConfig_F41221003_0003"
          },
          {
            "$type": "SharedString",
            "Key": "TargetID",
            "Value": "34,300006"
          },
          {
            "$type": "SharedJsonConfigList",
            "Key": "MunicipalChatCharacter_Help",
            "Value": [
              {
                "$type": "MunicipalChatEntityInfo",
                "UniqueName": "1",
                "GroupInstanceID": 400001
              },
              {
                "$type": "MunicipalChatEntityInfo",
                "UniqueName": "2",
                "GroupInstanceID": 400002
              }
            ]
          }
        ]
      },
      "Trigger": {
        "Radius": 20.0,
        "DimX": 10.0,
        "DimY": 5.0,
        "DimZ": 10.0,
        "PointList": []
      },
      "CampID": 4,
      "CustomTriggerMap": {},
      "CustomTriggerMapV2": {},
      "BridgeStateRotations": [],
      "DialogueGroups": [],
      "TalkDialogGroupIDList": [],
      "ServerInteractVerificationIDList": [],
      "TriggerValidGuest": {},
      "TagContainer": {},
      "SpawnConfig": {
        "EntitySpawnConfig": {}
      }
    }
  ],
  "NPCList": [
    {
      "ID": 400001,
      "PosX": 130.49,
      "PosY": 52.8,
      "PosZ": -47.2,
      "Name": "NPC1",
      "RotY": 17.13572,
      "NPCID": 2204,
      "ValueSource": {},
      "DialogueGroups": [],
      "ServerInteractVerificationIDList": [],
      "BoardShowList": [
        8
      ],
      "TalkDialogGroupIDList": [],
      "DefaultIdleFreeStyleMotionID": 200170233,
      "InitialHiddenNodeList": [],
      "TagContainer": {},
      "SpawnConfig": {
        "EntitySpawnConfig": {}
      },
      "TriggerValidGuest": {}
    },
    {
      "ID": 400002,
      "PosX": 131.52,
      "PosY": 52.8,
      "PosZ": -45.79,
      "Name": "NPC2",
      "RotY": 223.3606,
      "NPCID": 2204,
      "DialogueGroups": [],
      "ServerInteractVerificationIDList": [],
      "BoardShowList": [
        8
      ],
      "TalkDialogGroupIDList": [],
      "DefaultIdleFreeStyleMotionID": 200170227,
      "InitialHiddenNodeList": []
    }
  ]
}