{
  "GroupGUID": "697bfae5-0086-4f3b-814f-6a60b1005cf9",
  "GroupName": "DefaultGroup",
  "AreaAnchorName": "LevelArea_P43322_F43322001_G4",
  "SaveType": "Reset",
  "SavedValueCondition": {
    "Operation": "And"
  },
  "LoadOnInitial": true,
  "ValueSource": {},
  "ConflictIDList": [],
  "IsHoyoGroup": true,
  "HoYoGroupType": "Container",
  "ConflictWhiteList": [],
  "TagContainer": {},
  "AnchorList": [],
  "MonsterList": [],
  "PropList": [],
  "NPCList": []
}