{
  "GroupGUID": "2a6c7685-a2fc-477c-8880-0eb7052fb493",
  "GroupName": "MainMission2030402_DreamPoemRaid",
  "Category": "Mission",
  "LevelGraph": "Config/Level/GroupGraph/F43322001/Group_F43322001_G24.json",
  "AreaAnchorName": "LevelArea_P43322_F43322001_G24",
  "SaveType": "Reset",
  "OwnerMainMissionID": 2030402,
  "ValueSource": {},
  "ConflictIDList": [],
  "IsHoyoGroup": true,
  "ConflictWhiteList": [],
  "TagContainer": {},
  "AnchorList": [],
  "MonsterList": [],
  "PropList": [
    {
      "ID": 300002,
      "PosX": 112.5985,
      "PosY": 22.10304,
      "PosZ": -180.9821,
      "IsDelete": true,
      "Name": "Prop2",
      "RotY": 222.1213,
      "PropID": 103109,
      "ValueSource": {},
      "Trigger": {
        "Radius": 2.0,
        "PointList": []
      },
      "CampID": 4,
      "CustomTriggerMap": {},
      "CustomTriggerMapV2": {},
      "BridgeStateRotations": [],
      "DialogueGroups": [],
      "TalkDialogGroupIDList": [],
      "ServerInteractVerificationIDList": [],
      "HideInCutScene": true,
      "HideInStory": true,
      "PerformanceHideFlags": -8,
      "Dialog": {
        "LevelGraph": "Config/Level/PropDialogue/P43322/F43322001_G24/DialogueMain_F43322001_G24_P300002.json",
        "PackList": []
      },
      "InteractIconType": "CheckIcon",
      "InteractTitle": {
        "Hash": 278713937
      },
      "TriggerValidGuest": {},
      "TagContainer": {},
      "CameraCenterEntityList": [],
      "SpawnConfig": {
        "EntitySpawnConfig": {}
      }
    }
  ],
  "NPCList": []
}