{
  "GroupGUID": "50c9ff37-f844-4736-b10b-9a4e04c1af01",
  "GroupName": "MainMission2030402_DreamPoem",
  "Category": "Mission",
  "AreaAnchorName": "LevelArea_P43322_F43322001_G17",
  "SaveType": "Reset",
  "OwnerMainMissionID": 2030402,
  "ValueSource": {},
  "ConflictIDList": [],
  "IsHoyoGroup": true,
  "HoYoGroupType": "Container",
  "ConflictWhiteList": [],
  "TagContainer": {},
  "AnchorList": [],
  "MonsterList": [],
  "PropList": [
    {
      "ID": 300001,
      "PosX": 132.5097,
      "PosY": 28.09,
      "PosZ": -179.3839,
      "Name": "Prop1",
      "RotY": 90.0,
      "PropID": 103013,
      "ValueSource": {
        "Values": [
          {
            "$type": "SharedUint",
            "Key": "FakeFramePortal",
            "Value": 2
          }
        ]
      },
      "Trigger": {
        "Radius": 1.0,
        "DimX": 1.0,
        "DimY": 1.0,
        "DimZ": 1.0,
        "PointList": []
      },
      "CampID": 4,
      "CustomTriggerMap": {},
      "CustomTriggerMapV2": {},
      "BridgeStateRotations": [],
      "DialogueGroups": [],
      "TalkDialogGroupIDList": [],
      "ServerInteractVerificationIDList": [],
      "Dialog": {
        "LevelGraph": "Config/Level/PropDialogue/P43322/F43322001_G17/DialogueMain_F43322001_G17_P300001.json",
        "PackList": []
      },
      "InteractIconType": "TriggerProp",
      "InteractTitle": {
        "Hash": 278713937
      },
      "TriggerValidGuest": {},
      "TagContainer": {},
      "CameraCenterEntityList": [],
      "SpawnConfig": {
        "EntitySpawnConfig": {}
      }
    }
  ],
  "NPCList": []
}