{
  "GroupGUID": "be8b2536-b60f-4d46-b145-b03a3fec4409",
  "GroupName": "RogueTemplate210_Area",
  "Category": "Custom",
  "AreaAnchorName": "LevelArea_P81312_F81312001_G84",
  "SaveDimensionFilter": {},
  "LoadSide": "Server",
  "ValueSource": {},
  "ConflictIDList": [],
  "IsHoyoGroup": true,
  "ConflictWhiteList": [],
  "TagContainer": {},
  "AnchorList": [],
  "MonsterList": [],
  "PropList": [
    {
      "ID": 300001,
      "PosX": -103.41,
      "PosY": -0.68,
      "PosZ": -57.89,
      "Name": "Prop1",
      "RotY": 270.0,
      "Scale": {
        "x": 0.88776,
        "y": 1.0,
        "z": 1.0
      },
      "PropID": 1030,
      "ValueSource": {},
      "CampID": 4,
      "CustomTriggerMap": {},
      "CustomTriggerMapV2": {},
      "BridgeStateRotations": [],
      "DialogueGroups": [],
      "TalkDialogGroupIDList": [],
      "ServerInteractVerificationIDList": [],
      "TriggerValidGuest": {},
      "TagContainer": {},
      "CameraCenterEntityList": [],
      "SpawnConfig": {
        "EntitySpawnConfig": {}
      }
    },
    {
      "ID": 300002,
      "PosX": -126.044,
      "PosY": 17.52127,
      "PosZ": -45.956,
      "Name": "Prop2",
      "RotY": 270.0,
      "Scale": {
        "x": 0.749008,
        "y": 1.0,
        "z": 1.0
      },
      "PropID": 1030,
      "ValueSource": {},
      "CampID": 4,
      "CustomTriggerMap": {},
      "CustomTriggerMapV2": {},
      "BridgeStateRotations": [],
      "DialogueGroups": [],
      "TalkDialogGroupIDList": [],
      "ServerInteractVerificationIDList": [],
      "TriggerValidGuest": {},
      "TagContainer": {},
      "CameraCenterEntityList": [],
      "SpawnConfig": {
        "EntitySpawnConfig": {}
      }
    },
    {
      "ID": 300003,
      "PosX": -147.2,
      "PosY": 11.48232,
      "PosZ": -67.265,
      "Name": "Prop3",
      "RotY": 180.0,
      "Scale": {
        "x": 1.893246,
        "y": 1.0,
        "z": 1.0
      },
      "PropID": 102,
      "ValueSource": {},
      "CampID": 4,
      "CustomTriggerMap": {},
      "CustomTriggerMapV2": {},
      "BridgeStateRotations": [],
      "DialogueGroups": [],
      "TalkDialogGroupIDList": [],
      "ServerInteractVerificationIDList": [],
      "TriggerValidGuest": {},
      "TagContainer": {},
      "CameraCenterEntityList": [],
      "SpawnConfig": {
        "EntitySpawnConfig": {}
      }
    }
  ],
  "NPCList": []
}