{
  "GroupGUID": "07dd1668-2fd0-4558-a783-35c7319073c4",
  "GroupName": "RogueTemplate210_BaseTripleMonster_Event",
  "Category": "Custom",
  "AreaAnchorName": "LevelArea_P81312_F81312001_G50",
  "SaveDimensionFilter": {},
  "LoadSide": "Server",
  "ValueSource": {},
  "ConflictIDList": [],
  "IsHoyoGroup": true,
  "ConflictWhiteList": [],
  "TagContainer": {},
  "AnchorList": [],
  "MonsterList": [],
  "PropList": [],
  "NPCList": [
    {
      "ID": 400001,
      "PosX": -161.643,
      "PosY": 5.510525,
      "PosZ": -138.047,
      "Name": "NPC1",
      "RotY": 74.99999,
      "NPCID": 3013,
      "LevelGraph": "Config/Level/Maze/MazeRogue/Maze_Rogue_NPC_EventPainting.json",
      "ValueSource": {},
      "DialogueGroups": [],
      "ServerInteractVerificationIDList": [],
      "BoardShowList": [],
      "TalkDialogGroupIDList": [],
      "DefaultAnimationType": "IdleState",
      "IsMapContent": true,
      "MiniMapIconType": 55,
      "InitialHiddenNodeList": [],
      "Dialog": {
        "PackList": []
      },
      "TagContainer": {},
      "CameraCenterEntityList": [],
      "SpawnConfig": {
        "EntitySpawnConfig": {}
      },
      "TriggerValidGuest": {}
    }
  ]
}