{
  "GroupGUID": "8ba28889-1bfd-4550-8872-a598f564d096",
  "GroupName": "MainMission8021124_Mission",
  "Category": "Mission",
  "LevelGraph": "Config/Level/GroupGraph/F44302004/Group_F44302004_G9.json",
  "AreaAnchorName": "LevelArea_P44302_F44302004_G9",
  "SaveType": "Reset",
  "OwnerMainMissionID": 8021124,
  "ValueSource": {},
  "ConflictIDList": [],
  "IsHoyoGroup": true,
  "ConflictWhiteList": [],
  "TagContainer": {},
  "AnchorList": [],
  "MonsterList": [],
  "PropList": [
    {
      "ID": 300001,
      "PosX": 57.28,
      "PosY": 183.6599,
      "PosZ": 529.47,
      "Name": "Prop1",
      "RotY": 270.0,
      "PropID": 100,
      "ValueSource": {},
      "CampID": 4,
      "CustomTriggerMap": {},
      "CustomTriggerMapV2": {
        "MissionTrigger": {
          "Radius": 4.0,
          "PointList": []
        }
      },
      "BridgeStateRotations": [],
      "DialogueGroups": [],
      "TalkDialogGroupIDList": [],
      "ServerInteractVerificationIDList": [],
      "TriggerValidGuest": {},
      "TagContainer": {},
      "CameraCenterEntityList": [],
      "SpawnConfig": {
        "EntitySpawnConfig": {}
      }
    }
  ],
  "NPCList": [
    {
      "ID": 400001,
      "PosX": 57.28,
      "PosY": 183.6599,
      "PosZ": 529.47,
      "Name": "NPC1",
      "RotY": 270.0,
      "NPCID": 2309,
      "ValueSource": {},
      "DialogueGroups": [],
      "ServerInteractVerificationIDList": [],
      "BoardShowList": [],
      "TalkDialogGroupIDList": [],
      "DefaultIdleFreeStyleMotionID": 200680000,
      "InitialHiddenNodeList": [],
      "TagContainer": {},
      "CameraCenterEntityList": [],
      "SpawnConfig": {
        "EntitySpawnConfig": {}
      },
      "TriggerValidGuest": {}
    }
  ]
}