{
  "GroupGUID": "b3b6ac89-3d60-4568-ada1-e6abeb9d3df4",
  "GroupName": "MainMission1032802_12",
  "Category": "Mission",
  "LevelGraph": "Config/Level/GroupGraph/F43321002/Group_F43321002_G7.json",
  "AreaAnchorName": "LevelArea_P43321_F43321002_G7",
  "SaveType": "Reset",
  "OwnerMainMissionID": 1032802,
  "ValueSource": {},
  "ConflictIDList": [],
  "IsHoyoGroup": true,
  "ConflictWhiteList": [],
  "TagContainer": {},
  "AnchorList": [],
  "MonsterList": [],
  "PropList": [
    {
      "ID": 300001,
      "PosX": 0.006706,
      "PosY": 44.797,
      "PosZ": -292.162,
      "Name": "Prop1",
      "PropID": 100,
      "ValueSource": {},
      "CampID": 4,
      "CustomTriggerMap": {},
      "CustomTriggerMapV2": {
        "MissionTrigger": {
          "Radius": 5.0,
          "DimX": 1.0,
          "DimY": 1.0,
          "DimZ": 1.0,
          "PointList": []
        }
      },
      "BridgeStateRotations": [],
      "DialogueGroups": [],
      "TalkDialogGroupIDList": [],
      "ServerInteractVerificationIDList": [],
      "TriggerValidGuest": {},
      "TagContainer": {},
      "CameraCenterEntityList": [],
      "SpawnConfig": {
        "EntitySpawnConfig": {}
      }
    }
  ],
  "NPCList": []
}