{
  "GroupGUID": "b50cb831-7e1c-445c-9dc1-f8586cdb4067",
  "GroupName": "Sound",
  "AreaAnchorName": "LevelArea_P43321_F43321002_G10",
  "SaveType": "Reset",
  "SavedValueCondition": {
    "Conditions": [],
    "Operation": "And"
  },
  "LoadOnInitial": true,
  "ValueSource": {},
  "ConflictIDList": [],
  "IsHoyoGroup": true,
  "HoYoGroupType": "Container",
  "ConflictWhiteList": [],
  "TagContainer": {
    "List": [
      {
        "Tag": "Group.Audio.Sound",
        "TagHash": 1757672304
      }
    ]
  },
  "AnchorList": [],
  "MonsterList": [],
  "PropList": [],
  "NPCList": []
}