{
  "GroupGUID": "6221c6b1-9b7c-4d60-a611-5bed7ab83631",
  "GroupName": "Sound",
  "AreaAnchorName": "LevelArea_P44305_F44305004_G72",
  "SaveType": "Reset",
  "SavedValueCondition": {
    "Conditions": [],
    "Operation": "And"
  },
  "LoadOnInitial": true,
  "ValueSource": {},
  "ConflictIDList": [],
  "IsHoyoGroup": true,
  "HoYoGroupType": "Container",
  "ConflictWhiteList": [],
  "TagContainer": {},
  "AnchorList": [],
  "MonsterList": [],
  "PropList": [],
  "NPCList": []
}