{
  "GroupGUID": "18d80800-9768-4e23-b84d-a210588a77af",
  "GroupName": "BGM",
  "AreaAnchorName": "LevelArea_P43322_F43322005_G18",
  "SaveType": "Reset",
  "SavedValueCondition": {
    "Operation": "And"
  },
  "LoadOnInitial": true,
  "ValueSource": {},
  "ConflictIDList": [],
  "IsHoyoGroup": true,
  "HoYoGroupType": "Container",
  "ConflictWhiteList": [],
  "TagContainer": {},
  "AnchorList": [],
  "MonsterList": [],
  "PropList": [
    {
      "ID": 300001,
      "PosX": -7.582,
      "PosY": 18.6921,
      "PosZ": -549.225,
      "Name": "Prop1",
      "PropID": 103121,
      "IsOverrideInitLevelGraph": true,
      "InitLevelGraph": "Config/Level/LevelInstanceGraph/F10304001/LG_Prop_F10304001_G142_300001.json",
      "ValueSource": {},
      "CampID": 4,
      "OverrideSoundRange": 20.0,
      "CustomTriggerMap": {},
      "CustomTriggerMapV2": {},
      "BridgeStateRotations": [],
      "DialogueGroups": [],
      "TalkDialogGroupIDList": [],
      "ServerInteractVerificationIDList": [],
      "TriggerValidGuest": {},
      "TagContainer": {},
      "CameraCenterEntityList": [],
      "SoundProfileOverrideID": 1,
      "SpawnConfig": {
        "EntitySpawnConfig": {}
      }
    }
  ],
  "NPCList": []
}