{
  "GroupGUID": "438fff53-0c05-4ac0-8b5a-71081b791284",
  "GroupName": "MainMission2030402_New Group",
  "Category": "Mission",
  "LevelGraph": "Config/Level/GroupGraph/F43322005/Group_F43322005_G12.json",
  "AreaAnchorName": "LevelArea_P43322_F43322005_G12",
  "SaveType": "Reset",
  "OwnerMainMissionID": 2030402,
  "ValueSource": {},
  "ConflictIDList": [],
  "IsHoyoGroup": true,
  "ConflictWhiteList": [],
  "TagContainer": {},
  "AnchorList": [],
  "MonsterList": [],
  "PropList": [
    {
      "ID": 300001,
      "PosX": 0.065248,
      "PosY": 15.20998,
      "PosZ": -416.5871,
      "Name": "Prop1",
      "PropID": 100,
      "ValueSource": {},
      "CampID": 4,
      "CustomTriggerMap": {},
      "CustomTriggerMapV2": {
        "MissionTrigger": {
          "Radius": 3.0,
          "PointList": []
        }
      },
      "BridgeStateRotations": [],
      "DialogueGroups": [],
      "TalkDialogGroupIDList": [],
      "ServerInteractVerificationIDList": [],
      "TriggerValidGuest": {},
      "TagContainer": {},
      "CameraCenterEntityList": [],
      "SpawnConfig": {
        "EntitySpawnConfig": {}
      }
    }
  ],
  "NPCList": []
}