{
  "GroupGUID": "a8bec225-2cb3-40f1-a543-861b0353d2d3",
  "GroupName": "MainMission2010703_",
  "Category": "Mission",
  "AreaAnchorName": "LevelArea_P20122_F20122001_G68",
  "SaveType": "Reset",
  "LoadCondition": {
    "Conditions": [
      {
        "Type": "SubMission",
        "ID": 201070326
      },
      {
        "Type": "SubMission",
        "ID": 201070327
      }
    ],
    "Operation": "Or"
  },
  "UnloadCondition": {
    "Conditions": [
      {
        "Type": "SubMission",
        "Phase": "Finish",
        "ID": 201070327
      }
    ]
  },
  "OwnerMainMissionID": 2010703,
  "ConflictIDList": [],
  "AnchorList": [
    {
      "ID": 1,
      "PosX": -89.95,
      "PosY": 6.051181,
      "PosZ": 100.51,
      "Name": "Anchor1",
      "RotY": 248.34
    }
  ],
  "MonsterList": [],
  "PropList": [
    {
      "ID": 300001,
      "PosX": -91.55,
      "PosY": 6.088492,
      "PosZ": 100.23,
      "Name": "Prop1",
      "RotY": 69.6,
      "PropID": 100,
      "IsOverrideInitLevelGraph": true,
      "Trigger": {
        "Shape": "Box",
        "Radius": 1.0,
        "DimX": 8.0,
        "DimY": 6.0,
        "DimZ": 6.0,
        "PointList": []
      },
      "CampID": 4,
      "CustomTriggerMap": {},
      "BridgeStateRotations": [],
      "DialogueGroups": [],
      "TalkDialogGroupIDList": [],
      "ServerInteractVerificationIDList": []
    },
    {
      "ID": 300002,
      "PosX": -92.54,
      "PosY": 6.088492,
      "PosZ": 99.86,
      "Name": "Prop2",
      "RotY": 69.6,
      "PropID": 100,
      "IsOverrideInitLevelGraph": true,
      "Trigger": {
        "Shape": "Box",
        "Radius": 1.0,
        "DimX": 8.0,
        "DimY": 6.0,
        "DimZ": 3.0,
        "PointList": []
      },
      "CampID": 4,
      "CustomTriggerMap": {},
      "BridgeStateRotations": [],
      "DialogueGroups": [],
      "TalkDialogGroupIDList": [],
      "ServerInteractVerificationIDList": []
    }
  ],
  "NPCList": [
    {
      "ID": 400001,
      "PosX": -92.18,
      "PosY": 6.16522,
      "PosZ": 98.69,
      "Name": "NPC1",
      "RotY": 55.6,
      "NPCID": 2102,
      "DialogueGroups": [],
      "ServerInteractVerificationIDList": [],
      "DefaultLookAtMode": "Closed",
      "BoardShowList": [],
      "OverrideNPCName": {
        "Hash": -270385606
      },
      "TalkDialogGroupIDList": [],
      "DefaultIdleFreeStyleMotionID": 200510000,
      "InitialHiddenNodeList": []
    },
    {
      "ID": 400002,
      "PosX": -92.98,
      "PosY": 6.22036,
      "PosZ": 100.9,
      "Name": "NPC2",
      "RotY": 77.85,
      "NPCID": 2102,
      "DialogueGroups": [],
      "ServerInteractVerificationIDList": [],
      "DefaultLookAtMode": "Closed",
      "BoardShowList": [],
      "OverrideNPCName": {
        "Hash": -270385606
      },
      "TalkDialogGroupIDList": [],
      "DefaultIdleFreeStyleMotionID": 200510000,
      "InitialHiddenNodeList": []
    },
    {
      "ID": 400003,
      "PosX": -88.931,
      "PosY": 6.26345,
      "PosZ": 105.646,
      "Name": "NPC3",
      "RotY": 203.7878,
      "NPCID": 11105,
      "DialogueGroups": [
        201070336
      ],
      "ServerInteractVerificationIDList": [],
      "DefaultLookAtMode": "Closed",
      "BoardShowList": [],
      "OverrideNPCName": {
        "Hash": -1029900491
      },
      "TalkDialogGroupIDList": [],
      "DefaultIdleFreeStyleMotionID": 100010000,
      "InitialHiddenNodeList": [],
      "Dialog": {
        "LevelGraph": "Config/Level/NPCDialogue/P20122/F20122001_G68/DialogueMain_F20122001_G68_N400003.json",
        "EnableCondition": {
          "Conditions": [
            {
              "Type": "SubMission",
              "ID": 201070336
            }
          ],
          "Operation": "Or"
        }
      }
    }
  ]
}