{
  "GroupGUID": "d9875ff1-b807-4984-a5e4-c1230caf0e57",
  "GroupName": "Sound-Reverb",
  "AreaAnchorName": "LevelArea_P43321_F43321001_G35",
  "SaveType": "Reset",
  "SavedValueCondition": {
    "Operation": "And"
  },
  "LoadOnInitial": true,
  "ValueSource": {},
  "ConflictIDList": [],
  "IsHoyoGroup": true,
  "HoYoGroupType": "Container",
  "ConflictWhiteList": [],
  "TagContainer": {},
  "AnchorList": [],
  "MonsterList": [],
  "PropList": [],
  "NPCList": []
}