{
  "GroupGUID": "5e7e6031-a18f-46cd-98bc-f011f58900cf",
  "GroupName": "Sound",
  "AreaAnchorName": "LevelArea_P43321_F43321001_G49",
  "SaveType": "Reset",
  "SavedValueCondition": {
    "Conditions": [],
    "Operation": "And"
  },
  "LoadOnInitial": true,
  "ValueSource": {},
  "ConflictIDList": [],
  "IsHoyoGroup": true,
  "HoYoGroupType": "Container",
  "ConflictWhiteList": [],
  "TagContainer": {},
  "AnchorList": [],
  "MonsterList": [],
  "PropList": [],
  "NPCList": []
}