{
  "GroupGUID": "cec07335-fe83-4193-8ec5-76d308d70759",
  "GroupName": "MainMission1032802_01",
  "Category": "Mission",
  "LevelGraph": "Config/Level/GroupGraph/F43321001/Group_F43321001_G47.json",
  "AreaAnchorName": "LevelArea_P43321_F43321001_G47",
  "SaveType": "Reset",
  "OwnerMainMissionID": 1032802,
  "ValueSource": {},
  "ConflictIDList": [],
  "IsHoyoGroup": true,
  "ConflictWhiteList": [],
  "TagContainer": {},
  "AnchorList": [],
  "MonsterList": [],
  "PropList": [],
  "NPCList": [
    {
      "ID": 400001,
      "PosX": -117.4121,
      "PosY": 11.51727,
      "PosZ": 47.882,
      "Name": "NPC1",
      "RotY": 180.0,
      "NPCID": 1312,
      "ValueSource": {},
      "DialogueGroups": [],
      "ServerInteractVerificationIDList": [],
      "BoardShowList": [],
      "TalkDialogGroupIDList": [],
      "DefaultIdleFreeStyleMotionID": 313120000,
      "InitialHiddenNodeList": [],
      "TagContainer": {},
      "CameraCenterEntityList": [],
      "SpawnConfig": {
        "OverrideSpawn": true,
        "EntitySpawnConfig": {}
      },
      "TriggerValidGuest": {}
    }
  ]
}