{
  "GroupGUID": "a859b025-111f-40fd-91b0-86e18190e5e9",
  "GroupName": "MainMission1032802_02",
  "Category": "Mission",
  "LevelGraph": "Config/Level/GroupGraph/F43321001/Group_F43321001_G48.json",
  "AreaAnchorName": "LevelArea_P43321_F43321001_G48",
  "SaveType": "Reset",
  "OwnerMainMissionID": 1032802,
  "ValueSource": {},
  "ConflictIDList": [],
  "IsHoyoGroup": true,
  "ConflictWhiteList": [],
  "TagContainer": {},
  "AnchorList": [],
  "MonsterList": [],
  "PropList": [],
  "NPCList": [
    {
      "ID": 400001,
      "PosX": -116.9155,
      "PosY": 11.52731,
      "PosZ": 4.803341,
      "Name": "NPC1",
      "RotY": 147.4446,
      "NPCID": 1312,
      "ValueSource": {},
      "DialogueGroups": [],
      "ServerInteractVerificationIDList": [],
      "BoardShowList": [],
      "TalkDialogGroupIDList": [],
      "DefaultIdleFreeStyleMotionID": 313120000,
      "InitialHiddenNodeList": [],
      "TagContainer": {},
      "CameraCenterEntityList": [],
      "SpawnConfig": {
        "OverrideSpawn": true,
        "EntitySpawnConfig": {}
      },
      "TriggerValidGuest": {}
    }
  ]
}