{
  "GroupGUID": "53b8d2fa-8446-4c54-8bfd-5437d79b299c",
  "GroupName": "DefaultGroup",
  "AreaAnchorName": "LevelArea_P43321_F43321001_G2",
  "SaveType": "Reset",
  "SavedValueCondition": {
    "Conditions": [],
    "Operation": "And"
  },
  "LoadOnInitial": true,
  "ValueSource": {},
  "ConflictIDList": [],
  "IsHoyoGroup": true,
  "HoYoGroupType": "Container",
  "ConflictWhiteList": [],
  "TagContainer": {},
  "AnchorList": [],
  "MonsterList": [],
  "PropList": [],
  "NPCList": []
}