{
  "GroupGUID": "1b30efb6-83bb-44b9-9b55-a3fc77286252",
  "GroupName": "MainMission1032802_09",
  "Category": "Mission",
  "LevelGraph": "Config/Level/GroupGraph/F43321001/Group_F43321001_G53.json",
  "AreaAnchorName": "LevelArea_P43321_F43321001_G53",
  "SaveType": "Reset",
  "OwnerMainMissionID": 1032802,
  "ValueSource": {},
  "ConflictIDList": [],
  "IsHoyoGroup": true,
  "ConflictWhiteList": [],
  "TagContainer": {},
  "AnchorList": [],
  "MonsterList": [],
  "PropList": [],
  "NPCList": []
}