{
  "GroupGUID": "bc636009-c695-457f-883b-d611a41dfcd2",
  "GroupName": "MainX3-1",
  "AreaAnchorName": "LevelArea_P40231_F40231001_G5",
  "SaveType": "Reset",
  "UnloadCondition": {
    "Conditions": [
      {
        "Phase": "Finish",
        "ID": 1021301
      }
    ]
  },
  "LoadOnInitial": true,
  "ConflictIDList": [],
  "AnchorList": [
    {
      "ID": 2,
      "PosX": 69.62,
      "PosY": 45.70216,
      "PosZ": -61.81,
      "Name": "Anchor2",
      "RotY": 55.0
    },
    {
      "ID": 1,
      "PosX": 133.25,
      "PosY": 45.70218,
      "PosZ": -89.86,
      "Name": "Anchor1",
      "RotY": 310.7
    }
  ],
  "MonsterList": [],
  "PropList": [
    {
      "ID": 300006,
      "PosX": 65.31,
      "PosY": 45.70217,
      "PosZ": -61.89,
      "Name": "Prop6",
      "RotY": 358.9,
      "PropID": 100,
      "IsOverrideInitLevelGraph": true,
      "InitLevelGraph": "Config/Level/Mission/1021301/Prop/Prop_102130104.json",
      "Trigger": {
        "Shape": "Box",
        "Radius": 1.0,
        "DimX": 4.0,
        "DimY": 1.0,
        "DimZ": 10.0,
        "PointList": []
      },
      "CampID": 4,
      "CustomTriggerMap": {},
      "BridgeStateRotations": [],
      "DialogueGroups": [],
      "TalkDialogGroupIDList": [],
      "ServerInteractVerificationIDList": []
    },
    {
      "ID": 300001,
      "PosX": 139.31,
      "PosY": 45.77654,
      "PosZ": -96.01,
      "Name": "Prop1",
      "RotY": 43.60001,
      "PropID": 100,
      "IsOverrideInitLevelGraph": true,
      "InitLevelGraph": "Config/Level/Mission/1021301/Prop/Prop_102130106.json",
      "Trigger": {
        "Shape": "Box",
        "Radius": 1.0,
        "DimX": 3.0,
        "DimY": 1.0,
        "DimZ": 5.0,
        "PointList": []
      },
      "CampID": 4,
      "CustomTriggerMap": {},
      "BridgeStateRotations": [],
      "DialogueGroups": [],
      "TalkDialogGroupIDList": [],
      "ServerInteractVerificationIDList": []
    }
  ],
  "NPCList": [
    {
      "ID": 400003,
      "PosX": 137.66,
      "PosY": 45.79932,
      "PosZ": -94.41,
      "Name": "NPC3",
      "RotY": 308.274,
      "NPCID": 2201,
      "DialogueGroups": [],
      "ServerInteractVerificationIDList": [],
      "BoardShowList": [],
      "TalkDialogGroupIDList": [],
      "DefaultIdleFreeStyleMotionID": 200230218,
      "InitialHiddenNodeList": [],
      "SpawnConfig": {
        "EntitySpawnConfig": {},
        "CaptureDistanceTolerance": 10.0
      }
    },
    {
      "ID": 400004,
      "PosX": 85.72,
      "PosY": 45.70216,
      "PosZ": -10.45,
      "Name": "NPC4",
      "RotY": 314.68,
      "NPCID": 2201,
      "DialogueGroups": [],
      "ServerInteractVerificationIDList": [],
      "BoardShowList": [],
      "TalkDialogGroupIDList": [],
      "DefaultIdleFreeStyleMotionID": 200230218,
      "InitialHiddenNodeList": []
    },
    {
      "ID": 400001,
      "PosX": 81.68,
      "PosY": 45.70215,
      "PosZ": -14.54,
      "Name": "NPC1",
      "RotY": 314.68,
      "NPCID": 2201,
      "DialogueGroups": [],
      "ServerInteractVerificationIDList": [],
      "BoardShowList": [],
      "TalkDialogGroupIDList": [],
      "DefaultIdleFreeStyleMotionID": 200230218,
      "InitialHiddenNodeList": []
    },
    {
      "ID": 400002,
      "PosX": 66.07,
      "PosY": 44.01013,
      "PosZ": -12.15,
      "Name": "NPC2",
      "RotY": 225.5,
      "NPCID": 2201,
      "DialogueGroups": [],
      "ServerInteractVerificationIDList": [],
      "BoardShowList": [],
      "TalkDialogGroupIDList": [],
      "DefaultIdleFreeStyleMotionID": 200230000,
      "InitialHiddenNodeList": []
    },
    {
      "ID": 400005,
      "PosX": 63.33,
      "PosY": 44.01013,
      "PosZ": -9.47,
      "Name": "NPC5",
      "RotY": 225.5,
      "NPCID": 2201,
      "DialogueGroups": [],
      "ServerInteractVerificationIDList": [],
      "BoardShowList": [],
      "TalkDialogGroupIDList": [],
      "DefaultIdleFreeStyleMotionID": 200230000,
      "InitialHiddenNodeList": []
    }
  ]
}