{
  "GroupGUID": "766f484e-f692-4c15-9aaa-22f7db82d013",
  "GroupName": "TakePhotos",
  "LevelGraph": "Config/Level/GroupGraph/F44305002/Group_F44305002_G18.json",
  "AreaAnchorName": "LevelArea_P44305_F44305002_G18",
  "SaveType": "Reset",
  "SavedValueCondition": {
    "Conditions": [],
    "Operation": "And"
  },
  "LoadOnInitial": true,
  "ValueSource": {},
  "ConflictIDList": [],
  "IsHoyoGroup": true,
  "ConflictWhiteList": [],
  "TagContainer": {},
  "AnchorList": [],
  "MonsterList": [],
  "PropList": [],
  "NPCList": []
}