{
  "GroupGUID": "79900735-b69f-42ca-8554-18b4e5a9b154",
  "GroupName": "MainMission8022125_03",
  "Category": "Mission",
  "LevelGraph": "Config/Level/GroupGraph/F44305002/Group_F44305002_G32.json",
  "AreaAnchorName": "LevelArea_P44305_F44305002_G32",
  "SaveType": "Reset",
  "OwnerMainMissionID": 8022125,
  "ValueSource": {},
  "ConflictIDList": [],
  "IsHoyoGroup": true,
  "ConflictWhiteList": [],
  "TagContainer": {},
  "AnchorList": [],
  "MonsterList": [],
  "PropList": [],
  "NPCList": []
}