{
  "GroupGUID": "da2c1ef6-d17d-4ce1-a1de-e97b253742d7",
  "GroupName": "1-1",
  "AreaAnchorName": "LevelArea_P44305_F44305002_G21",
  "SaveDimensionFilter": {},
  "SavedValueCondition": {
    "Conditions": [],
    "Operation": "And"
  },
  "LoadSide": "Server",
  "LoadOnInitial": true,
  "ValueSource": {},
  "ConflictIDList": [],
  "IsHoyoGroup": true,
  "HoYoGroupType": "Container",
  "ConflictWhiteList": [],
  "TagContainer": {},
  "AnchorList": [],
  "MonsterList": [],
  "PropList": [],
  "NPCList": [
    {
      "ID": 400001,
      "PosX": -58.73,
      "PosY": 54.10606,
      "PosZ": 113.557,
      "Name": "NPC1",
      "RotY": 174.5728,
      "NPCID": 3030,
      "ValueSource": {},
      "DialogueGroups": [],
      "ServerInteractVerificationIDList": [],
      "BoardShowList": [
        1
      ],
      "TalkDialogGroupIDList": [],
      "DefaultIdleFreeStyleMotionID": 900160000,
      "InitialHiddenNodeList": [],
      "Dialog": {
        "LevelGraph": "Config/Level/NPCDialogue/P44305/F44305002_G21/DialogueMain_F44305002_G21_N400001.json",
        "PackList": []
      },
      "TagContainer": {},
      "CameraCenterEntityList": [],
      "SpawnConfig": {
        "EntitySpawnConfig": {}
      },
      "TriggerValidGuest": {}
    },
    {
      "ID": 400002,
      "PosX": -56.97,
      "PosY": 54.0509,
      "PosZ": 113.43,
      "Name": "NPC2",
      "RotY": 257.5285,
      "NPCID": 2302,
      "ValueSource": {},
      "DialogueGroups": [],
      "ServerInteractVerificationIDList": [],
      "BoardShowList": [
        1
      ],
      "OverrideNPCName": {
        "Hash": -981758309
      },
      "TalkDialogGroupIDList": [],
      "DefaultIdleFreeStyleMotionID": 200380000,
      "InitialHiddenNodeList": [],
      "Dialog": {
        "LevelGraph": "Config/Level/NPCDialogue/P44305/F44305002_G21/DialogueMain_F44305002_G21_N400002.json",
        "PackList": []
      },
      "TagContainer": {},
      "CameraCenterEntityList": [],
      "SpawnConfig": {
        "EntitySpawnConfig": {}
      },
      "TriggerValidGuest": {}
    },
    {
      "ID": 400003,
      "PosX": -58.95,
      "PosY": 54.0509,
      "PosZ": 115.25,
      "Name": "NPC3",
      "RotY": 162.9056,
      "NPCID": 2303,
      "ValueSource": {},
      "DialogueGroups": [],
      "ServerInteractVerificationIDList": [],
      "BoardShowList": [
        1
      ],
      "OverrideNPCName": {
        "Hash": -1028812476
      },
      "TalkDialogGroupIDList": [],
      "DefaultIdleFreeStyleMotionID": 200310260,
      "InitialHiddenNodeList": [],
      "Dialog": {
        "LevelGraph": "Config/Level/NPCDialogue/P44305/F44305002_G21/DialogueMain_F44305002_G21_N400003.json",
        "PackList": []
      },
      "TagContainer": {},
      "CameraCenterEntityList": [],
      "SpawnConfig": {
        "EntitySpawnConfig": {}
      },
      "TriggerValidGuest": {}
    },
    {
      "ID": 400004,
      "PosX": -60.89476,
      "PosY": 54.0509,
      "PosZ": 113.3474,
      "Name": "NPC4",
      "RotY": 68.60195,
      "NPCID": 2308,
      "ValueSource": {},
      "DialogueGroups": [],
      "ServerInteractVerificationIDList": [],
      "BoardShowList": [
        1
      ],
      "OverrideNPCName": {
        "Hash": 537271465
      },
      "TalkDialogGroupIDList": [],
      "DefaultIdleFreeStyleMotionID": 200550000,
      "InitialHiddenNodeList": [],
      "Dialog": {
        "LevelGraph": "Config/Level/NPCDialogue/P44305/F44305002_G21/DialogueMain_F44305002_G21_N400004.json",
        "PackList": []
      },
      "TagContainer": {},
      "CameraCenterEntityList": [],
      "SpawnConfig": {
        "EntitySpawnConfig": {}
      },
      "TriggerValidGuest": {}
    }
  ]
}