{
  "GroupGUID": "8a82d61d-6c01-4897-a408-0be5e70588ab",
  "GroupName": "RogueTemplate210_BaseTripleMonster_Event",
  "Category": "Custom",
  "AreaAnchorName": "LevelArea_P81004_F81004001_G75",
  "SaveDimensionFilter": {},
  "LoadSide": "Server",
  "ValueSource": {},
  "ConflictIDList": [],
  "IsHoyoGroup": true,
  "ConflictWhiteList": [],
  "TagContainer": {},
  "AnchorList": [],
  "MonsterList": [],
  "PropList": [],
  "NPCList": [
    {
      "ID": 400001,
      "PosX": -53.77,
      "PosY": 411.9078,
      "PosZ": -11.02,
      "Name": "NPC1",
      "RotY": 255.0,
      "NPCID": 3013,
      "LevelGraph": "Config/Level/Maze/MazeRogue/Maze_Rogue_NPC_EventPainting.json",
      "ValueSource": {},
      "DialogueGroups": [],
      "ServerInteractVerificationIDList": [],
      "BoardShowList": [],
      "TalkDialogGroupIDList": [],
      "DefaultAnimationType": "IdleState",
      "IsMapContent": true,
      "MiniMapIconType": 55,
      "InitialHiddenNodeList": [],
      "Dialog": {
        "PackList": []
      },
      "TagContainer": {},
      "CameraCenterEntityList": [],
      "SpawnConfig": {
        "EntitySpawnConfig": {}
      },
      "TriggerValidGuest": {}
    }
  ]
}