{
  "GroupGUID": "91f00a95-bfab-4a73-9f9e-53227d700758",
  "GroupName": "RogueTemplate210_BaseTripleMonster_Event",
  "Category": "Custom",
  "AreaAnchorName": "LevelArea_P81004_F81004001_G87",
  "SaveDimensionFilter": {},
  "LoadSide": "Server",
  "ValueSource": {},
  "ConflictIDList": [],
  "IsHoyoGroup": true,
  "ConflictWhiteList": [],
  "TagContainer": {},
  "AnchorList": [],
  "MonsterList": [],
  "PropList": [],
  "NPCList": [
    {
      "ID": 400001,
      "PosX": 25.84,
      "PosY": 172.2256,
      "PosZ": 66.08,
      "Name": "NPC1",
      "RotY": 121.7183,
      "NPCID": 3013,
      "LevelGraph": "Config/Level/Maze/MazeRogue/Maze_Rogue_NPC_EventPainting.json",
      "ValueSource": {},
      "DialogueGroups": [],
      "ServerInteractVerificationIDList": [],
      "BoardShowList": [],
      "TalkDialogGroupIDList": [],
      "DefaultAnimationType": "IdleState",
      "IsMapContent": true,
      "MiniMapIconType": 55,
      "InitialHiddenNodeList": [],
      "Dialog": {
        "PackList": []
      },
      "TagContainer": {},
      "CameraCenterEntityList": [],
      "SpawnConfig": {
        "EntitySpawnConfig": {}
      },
      "TriggerValidGuest": {}
    }
  ]
}