{
  "GroupGUID": "565fe58a-0ffd-4eef-a748-67abd4294b68",
  "GroupName": "RogueTemplate210_Area",
  "Category": "Custom",
  "AreaAnchorName": "LevelArea_P81004_F81004001_G85",
  "SaveDimensionFilter": {},
  "LoadSide": "Server",
  "ValueSource": {},
  "ConflictIDList": [],
  "IsHoyoGroup": true,
  "ConflictWhiteList": [],
  "TagContainer": {},
  "AnchorList": [],
  "MonsterList": [],
  "PropList": [
    {
      "ID": 300001,
      "PosX": 34.26999,
      "PosY": 172.3038,
      "PosZ": 60.74001,
      "Name": "Prop1",
      "RotY": 140.0,
      "Scale": {
        "x": 1.481716,
        "y": 1.0,
        "z": 1.0
      },
      "PropID": 1027,
      "ValueSource": {},
      "CampID": 4,
      "CustomTriggerMap": {},
      "CustomTriggerMapV2": {},
      "BridgeStateRotations": [],
      "DialogueGroups": [],
      "TalkDialogGroupIDList": [],
      "ServerInteractVerificationIDList": [],
      "TriggerValidGuest": {},
      "TagContainer": {},
      "CameraCenterEntityList": [],
      "SpawnConfig": {
        "EntitySpawnConfig": {}
      }
    },
    {
      "ID": 300002,
      "PosX": -5.49,
      "PosY": 172.2256,
      "PosZ": 69.07,
      "Name": "Prop2",
      "RotY": 230.0,
      "Scale": {
        "x": 1.30861,
        "y": 1.0,
        "z": 1.0
      },
      "PropID": 1027,
      "ValueSource": {},
      "CampID": 4,
      "CustomTriggerMap": {},
      "CustomTriggerMapV2": {},
      "BridgeStateRotations": [],
      "DialogueGroups": [],
      "TalkDialogGroupIDList": [],
      "ServerInteractVerificationIDList": [],
      "TriggerValidGuest": {},
      "TagContainer": {},
      "CameraCenterEntityList": [],
      "SpawnConfig": {
        "EntitySpawnConfig": {}
      }
    },
    {
      "ID": 300003,
      "PosX": 13.911,
      "PosY": 172.2256,
      "PosZ": 85.649,
      "Name": "Prop3",
      "RotY": 184.3654,
      "Scale": {
        "x": 0.675412,
        "y": 1.0,
        "z": 1.0
      },
      "PropID": 1027,
      "ValueSource": {},
      "CampID": 4,
      "CustomTriggerMap": {},
      "CustomTriggerMapV2": {},
      "BridgeStateRotations": [],
      "DialogueGroups": [],
      "TalkDialogGroupIDList": [],
      "ServerInteractVerificationIDList": [],
      "TriggerValidGuest": {},
      "TagContainer": {},
      "CameraCenterEntityList": [],
      "SpawnConfig": {
        "EntitySpawnConfig": {}
      }
    },
    {
      "ID": 300004,
      "PosX": 22.474,
      "PosY": 172.2256,
      "PosZ": 64.786,
      "Name": "Prop4",
      "RotY": 228.9524,
      "Scale": {
        "x": 0.616342,
        "y": 1.0,
        "z": 1.0
      },
      "PropID": 1027,
      "ValueSource": {},
      "CampID": 4,
      "CustomTriggerMap": {},
      "CustomTriggerMapV2": {},
      "BridgeStateRotations": [],
      "DialogueGroups": [],
      "TalkDialogGroupIDList": [],
      "ServerInteractVerificationIDList": [],
      "TriggerValidGuest": {},
      "TagContainer": {},
      "CameraCenterEntityList": [],
      "SpawnConfig": {
        "EntitySpawnConfig": {}
      }
    }
  ],
  "NPCList": []
}