{
  "GroupGUID": "d96cfd02-2fcd-4545-9448-ddcbabad4dd0",
  "GroupName": "MainMission1032301_01",
  "Category": "Mission",
  "LevelGraph": "Config/Level/GroupGraph/F20311001/Group_F20311001_G431.json",
  "AreaAnchorName": "LevelArea_P20311_F20311001_G431",
  "SaveType": "Reset",
  "OwnerMainMissionID": 1032301,
  "ValueSource": {},
  "ConflictIDList": [],
  "IsHoyoGroup": true,
  "ConflictWhiteList": [],
  "TagContainer": {},
  "AnchorList": [
    {
      "ID": 1,
      "PosX": 72.18,
      "PosY": -19.5,
      "PosZ": -563.5,
      "Name": "Anchor1"
    }
  ],
  "MonsterList": [],
  "PropList": [],
  "NPCList": []
}