{
  "GroupGUID": "6de3c82b-928e-451e-b326-b44b86b34e62",
  "GroupName": "MainMission8021105_01",
  "Category": "Mission",
  "AreaAnchorName": "LevelArea_P20311_F20311001_G610",
  "SaveType": "Reset",
  "OwnerMainMissionID": 8021105,
  "ValueSource": {},
  "ConflictIDList": [
    610
  ],
  "IsHoyoGroup": true,
  "ConflictWhiteList": [],
  "TagContainer": {},
  "AnchorList": [],
  "MonsterList": [],
  "PropList": [],
  "NPCList": [
    {
      "ID": 400001,
      "PosX": -149.513,
      "PosY": 28.03189,
      "PosZ": -42.234,
      "Name": "NPC1",
      "RotY": 37.01408,
      "NPCID": 2312,
      "ValueSource": {},
      "DialogueGroups": [],
      "ServerInteractVerificationIDList": [],
      "BoardShowList": [
        128
      ],
      "OverrideNPCName": {
        "Hash": -1161704099
      },
      "TalkDialogGroupIDList": [],
      "DefaultAnimationType": "IdleState",
      "InitialHiddenNodeList": [],
      "OverrideBehaviorType": "DreamlandActor",
      "TagContainer": {},
      "CameraCenterEntityList": [],
      "SpawnConfig": {
        "OverrideSpawn": true,
        "EntitySpawnConfig": {}
      },
      "TriggerValidGuest": {}
    }
  ]
}