{
  "GroupGUID": "be9aa614-842d-4a74-bf95-f312692baaf8",
  "GroupName": "MainMission8021105_02",
  "Category": "Mission",
  "LevelGraph": "Config/Level/GroupGraph/F20311001/Group_F20311001_G615.json",
  "AreaAnchorName": "LevelArea_P20311_F20311001_G615",
  "SaveType": "Reset",
  "OwnerMainMissionID": 8021105,
  "ValueSource": {},
  "ConflictIDList": [
    615
  ],
  "IsHoyoGroup": true,
  "ConflictWhiteList": [],
  "TagContainer": {},
  "AnchorList": [],
  "MonsterList": [],
  "PropList": [
    {
      "ID": 300001,
      "PosX": -139.952,
      "PosY": 28.32489,
      "PosZ": -46.096,
      "Name": "Prop1",
      "RotY": 184.6741,
      "PropID": 111,
      "ValueSource": {},
      "CampID": 4,
      "CustomTriggerMap": {},
      "CustomTriggerMapV2": {
        "MissionTrigger": {
          "Radius": 2.0,
          "PointList": []
        }
      },
      "BridgeStateRotations": [],
      "DialogueGroups": [],
      "TalkDialogGroupIDList": [],
      "ServerInteractVerificationIDList": [],
      "TriggerValidGuest": {},
      "TagContainer": {},
      "CameraCenterEntityList": [],
      "SpawnConfig": {
        "EntitySpawnConfig": {}
      }
    }
  ],
  "NPCList": [
    {
      "ID": 400001,
      "PosX": -139.16,
      "PosY": 29.10425,
      "PosZ": -49.42,
      "IsDelete": true,
      "Name": "NPC1",
      "RotY": 249.7278,
      "NPCID": 2309,
      "ValueSource": {},
      "DialogueGroups": [],
      "ServerInteractVerificationIDList": [],
      "BoardShowList": [],
      "TalkDialogGroupIDList": [],
      "DefaultIdleFreeStyleMotionID": 200680000,
      "OverrideSeriesID": 230901,
      "InitialHiddenNodeList": [],
      "TagContainer": {},
      "CameraCenterEntityList": [],
      "SpawnConfig": {
        "EntitySpawnConfig": {}
      },
      "TriggerValidGuest": {}
    },
    {
      "ID": 400002,
      "PosX": -140.85,
      "PosY": 29.10425,
      "PosZ": -50.23,
      "IsDelete": true,
      "Name": "NPC2",
      "RotY": 69.23204,
      "NPCID": 2303,
      "ValueSource": {},
      "DialogueGroups": [],
      "ServerInteractVerificationIDList": [],
      "BoardShowList": [],
      "TalkDialogGroupIDList": [],
      "DefaultIdleFreeStyleMotionID": 200310000,
      "OverrideSeriesID": 230301,
      "InitialHiddenNodeList": [],
      "TagContainer": {},
      "CameraCenterEntityList": [],
      "SpawnConfig": {
        "EntitySpawnConfig": {}
      },
      "TriggerValidGuest": {}
    }
  ]
}