{
  "GroupGUID": "c79a7d06-fe22-4bf8-85b8-c2faef40df63",
  "GroupName": "MainMission8021106_01",
  "Category": "Mission",
  "LevelGraph": "Config/Level/GroupGraph/F20311001/Group_F20311001_G600.json",
  "AreaAnchorName": "LevelArea_P20311_F20311001_G600",
  "SaveType": "Reset",
  "OwnerMainMissionID": 8021106,
  "ValueSource": {},
  "ConflictIDList": [
    600
  ],
  "IsHoyoGroup": true,
  "ConflictWhiteList": [],
  "TagContainer": {},
  "AnchorList": [],
  "MonsterList": [],
  "PropList": [
    {
      "ID": 300001,
      "PosX": -155.686,
      "PosY": 28.03189,
      "PosZ": 0.98,
      "IsDelete": true,
      "Name": "Prop1",
      "RotY": 90.0,
      "PropID": 103031,
      "ValueSource": {
        "Values": [
          {
            "$type": "SharedUint",
            "Key": "IsAutoDoor"
          }
        ]
      },
      "CampID": 4,
      "CustomTriggerMap": {},
      "CustomTriggerMapV2": {},
      "BridgeStateRotations": [],
      "DialogueGroups": [],
      "TalkDialogGroupIDList": [],
      "ServerInteractVerificationIDList": [],
      "TriggerValidGuest": {},
      "TagContainer": {},
      "CameraCenterEntityList": [],
      "SpawnConfig": {
        "EntitySpawnConfig": {}
      }
    }
  ],
  "NPCList": [
    {
      "ID": 400001,
      "PosX": -131.96,
      "PosY": 28.03189,
      "PosZ": -20.16,
      "Name": "NPC1",
      "RotY": 75.59927,
      "NPCID": 3112,
      "ValueSource": {},
      "DialogueGroups": [],
      "ServerInteractVerificationIDList": [],
      "BoardShowList": [
        128
      ],
      "OverrideNPCName": {
        "Hash": 1201469268
      },
      "TalkDialogGroupIDList": [],
      "DefaultIdleFreeStyleMotionID": 100020000,
      "InitialHiddenNodeList": [],
      "OverrideBehaviorType": "DreamlandActor",
      "TagContainer": {},
      "CameraCenterEntityList": [],
      "SpawnConfig": {
        "EntitySpawnConfig": {}
      },
      "TriggerValidGuest": {}
    }
  ]
}