{
  "GroupGUID": "2ac89530-b0e2-4cbb-ad12-b0b25f609da3",
  "GroupName": "MainMission8021101_01",
  "Category": "Mission",
  "AreaAnchorName": "LevelArea_P20311_F20311001_G514",
  "SaveType": "Reset",
  "OwnerMainMissionID": 8021101,
  "ValueSource": {
    "Values": []
  },
  "ConflictIDList": [
    514
  ],
  "IsHoyoGroup": true,
  "ConflictWhiteList": [],
  "TagContainer": {
    "List": []
  },
  "AnchorList": [],
  "MonsterList": [],
  "PropList": [],
  "NPCList": [
    {
      "ID": 400001,
      "PosX": -135.23,
      "PosY": 28.06238,
      "PosZ": -18.307,
      "Name": "NPC1",
      "RotY": 90.0,
      "NPCID": 3112,
      "ValueSource": {},
      "DialogueGroups": [],
      "ServerInteractVerificationIDList": [],
      "BoardShowList": [],
      "TalkDialogGroupIDList": [],
      "DefaultIdleFreeStyleMotionID": 100020320,
      "InitialHiddenNodeList": [],
      "TagContainer": {},
      "CameraCenterEntityList": [],
      "SpawnConfig": {
        "EntitySpawnConfig": {}
      },
      "TriggerValidGuest": {}
    }
  ]
}