{
  "GroupGUID": "56d8d26b-534e-48c5-9a71-03fb6a0aaecb",
  "GroupName": "Bowling",
  "LevelGraph": "Config/Level/GroupGraph/F20331001/Group_F20331001_G350.json",
  "AreaAnchorName": "LevelArea_P20331_F20331001_G350",
  "SaveDimensionFilter": {},
  "SavedValueCondition": {
    "Conditions": [
      {
        "SavedValueName": "EasterC1",
        "Operation": "Equal",
        "Value": 1
      },
      {
        "SavedValueName": "EasterC1Phase",
        "Operation": "Equal"
      }
    ],
    "Operation": "And"
  },
  "LoadSide": "Server",
  "LoadOnInitial": true,
  "ValueSource": {},
  "ConflictIDList": [],
  "IsHoyoGroup": true,
  "ConflictWhiteList": [],
  "TagContainer": {},
  "AnchorList": [
    {
      "ID": 1,
      "PosX": -445.09,
      "PosY": 11.98,
      "PosZ": 807.4,
      "Name": "Anchor1",
      "RotX": 16.54529,
      "Usage": "Camera",
      "CustomParameter": {
        "$type": "LevelAnchorCameraParameter"
      }
    }
  ],
  "MonsterList": [],
  "PropList": [
    {
      "ID": 300001,
      "PosX": -445.1301,
      "PosY": 6.71664,
      "PosZ": 832.6954,
      "Name": "Prop1",
      "PropID": 100,
      "IsOverrideInitLevelGraph": true,
      "InitLevelGraph": "Config/Level/Props/Chap03/InitLevelGraph_Prop_Chap03_HitCount_01.json",
      "ValueSource": {
        "Values": [
          {
            "$type": "SharedString",
            "Key": "ShowCamera",
            "Value": "LevelArea_P20331_F20331001_G350,Anchor1"
          },
          {
            "$type": "SharedString",
            "Key": "ShowChest",
            "Value": "350,300002"
          }
        ]
      },
      "CampID": 4,
      "CustomTriggerMap": {},
      "CustomTriggerMapV2": {},
      "BridgeStateRotations": [],
      "DialogueGroups": [],
      "TalkDialogGroupIDList": [],
      "ServerInteractVerificationIDList": [],
      "TriggerValidGuest": {},
      "TagContainer": {},
      "CameraCenterEntityList": [],
      "SpawnConfig": {
        "EntitySpawnConfig": {}
      }
    },
    {
      "ID": 300002,
      "PosX": -445.0607,
      "PosY": 6.314875,
      "PosZ": 820.0204,
      "Name": "Prop2",
      "RotY": 180.0,
      "PropID": 60303,
      "ValueSource": {
        "Values": []
      },
      "CampID": 4,
      "State": "Hidden",
      "CustomTriggerMap": {},
      "CustomTriggerMapV2": {},
      "BridgeStateRotations": [],
      "ChestID": 20331671,
      "DialogueGroups": [],
      "TalkDialogGroupIDList": [],
      "ServerInteractVerificationIDList": [],
      "TriggerValidGuest": {},
      "TagContainer": {},
      "CameraCenterEntityList": [],
      "SpawnConfig": {
        "EntitySpawnConfig": {}
      }
    },
    {
      "ID": 300003,
      "PosX": -445.0483,
      "PosY": 3.403401,
      "PosZ": 738.4301,
      "Name": "Prop3",
      "PropID": 100,
      "IsOverrideInitLevelGraph": true,
      "InitLevelGraph": "Config/Level/Props/Common/InitLevelGraph_Prop_Common_ReshaHintE_01.json",
      "ValueSource": {
        "Values": [
          {
            "$type": "SharedString",
            "Key": "CheckFSV",
            "Value": "EasterC1Phase"
          },
          {
            "$type": "SharedString",
            "Key": "AreaCheckPoint",
            "Value": "350,400011"
          }
        ]
      },
      "Trigger": {
        "Radius": 1.0,
        "DimX": 1.0,
        "DimY": 1.0,
        "DimZ": 1.0,
        "PointList": []
      },
      "CampID": 4,
      "CustomTriggerMap": {},
      "CustomTriggerMapV2": {
        "InteractTrigger": {
          "Radius": 5.0,
          "PointList": []
        }
      },
      "BridgeStateRotations": [],
      "DialogueGroups": [],
      "TalkDialogGroupIDList": [],
      "ServerInteractVerificationIDList": [],
      "TriggerValidGuest": {},
      "TagContainer": {},
      "CameraCenterEntityList": [],
      "SpawnConfig": {
        "EntitySpawnConfig": {}
      }
    }
  ],
  "NPCList": [
    {
      "ID": 400001,
      "PosX": -445.1002,
      "PosY": 6.716642,
      "PosZ": 826.42,
      "Name": "NPC1",
      "RotY": 180.0,
      "NPCID": 3090,
      "LevelGraph": "Config/Level/Props/Chap03/InitLevelGraph_Prop_Chap03_NPCBeHit_01.json",
      "ValueSource": {},
      "DialogueGroups": [],
      "ServerInteractVerificationIDList": [],
      "BoardShowList": [],
      "TalkDialogGroupIDList": [],
      "DefaultIdleFreeStyleMotionID": 900180000,
      "InitialHiddenNodeList": [],
      "TagContainer": {},
      "CameraCenterEntityList": [],
      "SpawnConfig": {
        "EntitySpawnConfig": {}
      },
      "TriggerValidGuest": {}
    },
    {
      "ID": 400002,
      "PosX": -444.05,
      "PosY": 6.716642,
      "PosZ": 828.205,
      "Name": "NPC2",
      "RotY": 180.0,
      "NPCID": 3090,
      "LevelGraph": "Config/Level/Props/Chap03/InitLevelGraph_Prop_Chap03_NPCBeHit_01.json",
      "ValueSource": {},
      "DialogueGroups": [],
      "ServerInteractVerificationIDList": [],
      "BoardShowList": [],
      "TalkDialogGroupIDList": [],
      "DefaultIdleFreeStyleMotionID": 900180000,
      "InitialHiddenNodeList": [],
      "TagContainer": {},
      "CameraCenterEntityList": [],
      "SpawnConfig": {
        "EntitySpawnConfig": {}
      },
      "TriggerValidGuest": {}
    },
    {
      "ID": 400003,
      "PosX": -446.13,
      "PosY": 6.716642,
      "PosZ": 828.19,
      "Name": "NPC3",
      "RotY": 180.0,
      "NPCID": 3090,
      "LevelGraph": "Config/Level/Props/Chap03/InitLevelGraph_Prop_Chap03_NPCBeHit_01.json",
      "ValueSource": {},
      "DialogueGroups": [],
      "ServerInteractVerificationIDList": [],
      "BoardShowList": [],
      "TalkDialogGroupIDList": [],
      "DefaultIdleFreeStyleMotionID": 900180000,
      "InitialHiddenNodeList": [],
      "TagContainer": {},
      "CameraCenterEntityList": [],
      "SpawnConfig": {
        "EntitySpawnConfig": {}
      },
      "TriggerValidGuest": {}
    },
    {
      "ID": 400004,
      "PosX": -445.1002,
      "PosY": 6.716642,
      "PosZ": 830.01,
      "Name": "NPC4",
      "RotY": 180.0,
      "NPCID": 3090,
      "LevelGraph": "Config/Level/Props/Chap03/InitLevelGraph_Prop_Chap03_NPCBeHit_01.json",
      "ValueSource": {},
      "DialogueGroups": [],
      "ServerInteractVerificationIDList": [],
      "BoardShowList": [],
      "TalkDialogGroupIDList": [],
      "DefaultIdleFreeStyleMotionID": 900180000,
      "InitialHiddenNodeList": [],
      "TagContainer": {},
      "CameraCenterEntityList": [],
      "SpawnConfig": {
        "EntitySpawnConfig": {}
      },
      "TriggerValidGuest": {}
    },
    {
      "ID": 400005,
      "PosX": -442.81,
      "PosY": 6.716642,
      "PosZ": 829.99,
      "Name": "NPC5",
      "RotY": 180.0,
      "NPCID": 3090,
      "LevelGraph": "Config/Level/Props/Chap03/InitLevelGraph_Prop_Chap03_NPCBeHit_01.json",
      "ValueSource": {},
      "DialogueGroups": [],
      "ServerInteractVerificationIDList": [],
      "BoardShowList": [],
      "TalkDialogGroupIDList": [],
      "DefaultIdleFreeStyleMotionID": 900180000,
      "InitialHiddenNodeList": [],
      "TagContainer": {},
      "CameraCenterEntityList": [],
      "SpawnConfig": {
        "EntitySpawnConfig": {}
      },
      "TriggerValidGuest": {}
    },
    {
      "ID": 400006,
      "PosX": -447.38,
      "PosY": 6.716642,
      "PosZ": 829.99,
      "Name": "NPC6",
      "RotY": 180.0,
      "NPCID": 3090,
      "LevelGraph": "Config/Level/Props/Chap03/InitLevelGraph_Prop_Chap03_NPCBeHit_01.json",
      "ValueSource": {},
      "DialogueGroups": [],
      "ServerInteractVerificationIDList": [],
      "BoardShowList": [],
      "TalkDialogGroupIDList": [],
      "DefaultIdleFreeStyleMotionID": 900180000,
      "InitialHiddenNodeList": [],
      "TagContainer": {},
      "CameraCenterEntityList": [],
      "SpawnConfig": {
        "EntitySpawnConfig": {}
      },
      "TriggerValidGuest": {}
    },
    {
      "ID": 400007,
      "PosX": -446.13,
      "PosY": 6.716642,
      "PosZ": 831.54,
      "Name": "NPC7",
      "RotY": 180.0,
      "NPCID": 3090,
      "LevelGraph": "Config/Level/Props/Chap03/InitLevelGraph_Prop_Chap03_NPCBeHit_01.json",
      "ValueSource": {},
      "DialogueGroups": [],
      "ServerInteractVerificationIDList": [],
      "BoardShowList": [],
      "TalkDialogGroupIDList": [],
      "DefaultIdleFreeStyleMotionID": 900180000,
      "InitialHiddenNodeList": [],
      "TagContainer": {},
      "CameraCenterEntityList": [],
      "SpawnConfig": {
        "EntitySpawnConfig": {}
      },
      "TriggerValidGuest": {}
    },
    {
      "ID": 400008,
      "PosX": -448.71,
      "PosY": 6.716642,
      "PosZ": 831.56,
      "Name": "NPC8",
      "RotY": 180.0,
      "NPCID": 3090,
      "LevelGraph": "Config/Level/Props/Chap03/InitLevelGraph_Prop_Chap03_NPCBeHit_01.json",
      "ValueSource": {},
      "DialogueGroups": [],
      "ServerInteractVerificationIDList": [],
      "BoardShowList": [],
      "TalkDialogGroupIDList": [],
      "DefaultIdleFreeStyleMotionID": 900180000,
      "InitialHiddenNodeList": [],
      "TagContainer": {},
      "CameraCenterEntityList": [],
      "SpawnConfig": {
        "EntitySpawnConfig": {}
      },
      "TriggerValidGuest": {}
    },
    {
      "ID": 400009,
      "PosX": -441.48,
      "PosY": 6.716642,
      "PosZ": 831.6,
      "Name": "NPC9",
      "RotY": 180.0,
      "NPCID": 3090,
      "LevelGraph": "Config/Level/Props/Chap03/InitLevelGraph_Prop_Chap03_NPCBeHit_01.json",
      "ValueSource": {},
      "DialogueGroups": [],
      "ServerInteractVerificationIDList": [],
      "BoardShowList": [],
      "TalkDialogGroupIDList": [],
      "DefaultIdleFreeStyleMotionID": 900180000,
      "InitialHiddenNodeList": [],
      "TagContainer": {},
      "CameraCenterEntityList": [],
      "SpawnConfig": {
        "EntitySpawnConfig": {}
      },
      "TriggerValidGuest": {}
    },
    {
      "ID": 400010,
      "PosX": -444.04,
      "PosY": 6.716642,
      "PosZ": 831.55,
      "Name": "NPC10",
      "RotY": 180.0,
      "NPCID": 3090,
      "LevelGraph": "Config/Level/Props/Chap03/InitLevelGraph_Prop_Chap03_NPCBeHit_01.json",
      "ValueSource": {},
      "DialogueGroups": [],
      "ServerInteractVerificationIDList": [],
      "BoardShowList": [],
      "TalkDialogGroupIDList": [],
      "DefaultIdleFreeStyleMotionID": 900180000,
      "InitialHiddenNodeList": [],
      "TagContainer": {},
      "CameraCenterEntityList": [],
      "SpawnConfig": {
        "EntitySpawnConfig": {}
      },
      "TriggerValidGuest": {}
    },
    {
      "ID": 400011,
      "PosX": -447.3871,
      "PosY": 6.71664,
      "PosZ": 825.3311,
      "Name": "NPC11",
      "RotY": 143.3869,
      "NPCID": 13231,
      "ValueSource": {},
      "DialogueGroups": [],
      "ServerInteractVerificationIDList": [],
      "MappingInfoID": 10070,
      "BoardShowList": [
        1,
        4,
        64
      ],
      "OverrideNPCName": {
        "Hash": 60856718
      },
      "OverrideNPCTitle": {
        "Hash": 555793237
      },
      "TalkDialogGroupIDList": [],
      "DefaultIdleFreeStyleMotionID": 100020209,
      "IsMapContent": true,
      "MiniMapIconType": 224,
      "InitialHiddenNodeList": [],
      "Dialog": {
        "LevelGraph": "Config/Level/NPCDialogue/P20331/F20331001_G350/DialogueMain_F20331001_G350_N400011.json",
        "PackList": []
      },
      "TagContainer": {},
      "CameraCenterEntityList": [],
      "SpawnConfig": {
        "EntitySpawnConfig": {}
      },
      "TriggerValidGuest": {}
    }
  ]
}