{
  "GroupGUID": "1afd2b74-101f-486c-bea9-05226b279a3e",
  "GroupName": "MainMission8022401_31",
  "Category": "Mission",
  "LevelGraph": "Config/Level/GroupGraph/F20331001/Group_F20331001_G248.json",
  "AreaAnchorName": "LevelArea_P20331_F20331001_G248",
  "SaveType": "Reset",
  "OwnerMainMissionID": 8022401,
  "ValueSource": {},
  "ConflictIDList": [],
  "IsHoyoGroup": true,
  "ConflictWhiteList": [],
  "TagContainer": {},
  "AnchorList": [],
  "MonsterList": [],
  "PropList": [],
  "NPCList": []
}