{
  "GroupGUID": "84f58007-bd60-4211-b140-dc77a27d34c2",
  "GroupName": "Default_Chest_Special",
  "AreaAnchorName": "LevelArea_P20331_F20331001_G329",
  "SaveDimensionFilter": {},
  "SavedValueCondition": {
    "Conditions": [],
    "Operation": "And"
  },
  "LoadSide": "Server",
  "LoadOnInitial": true,
  "ValueSource": {},
  "ConflictIDList": [],
  "IsHoyoGroup": true,
  "HoYoGroupType": "Container",
  "ConflictWhiteList": [],
  "TagContainer": {},
  "AnchorList": [],
  "MonsterList": [],
  "PropList": [
    {
      "ID": 300001,
      "PosX": 377.747,
      "PosY": 48.835,
      "PosZ": 430.433,
      "Name": "Chest_01",
      "RotY": 90.0,
      "RotX": 346.4817,
      "RotZ": 2.0E-6,
      "PropID": 60301,
      "ValueSource": {
        "Values": []
      },
      "Trigger": {
        "Radius": 0.8,
        "DimX": 1.0,
        "DimY": 1.0,
        "DimZ": 1.0,
        "Offset": {
          "z": 0.45
        },
        "PointList": []
      },
      "CampID": 4,
      "State": "ChestClosed",
      "CustomTriggerMap": {},
      "CustomTriggerMapV2": {
        "InteractTrigger": {
          "Radius": 0.8,
          "Offset": {
            "z": 0.45
          },
          "PointList": []
        }
      },
      "BridgeStateRotations": [],
      "ChestID": 20331621,
      "DialogueGroups": [],
      "TalkDialogGroupIDList": [],
      "ServerInteractVerificationIDList": [],
      "OverrideTriggerValidGuestConfig": true,
      "TriggerValidGuest": {
        "FakePlayer": true
      },
      "TagContainer": {},
      "CameraCenterEntityList": [],
      "SpawnConfig": {
        "EntitySpawnConfig": {}
      }
    },
    {
      "ID": 300002,
      "PosX": 333.8726,
      "PosY": 31.72002,
      "PosZ": 414.0494,
      "Name": "Chest_02",
      "PropID": 60301,
      "ValueSource": {
        "Values": []
      },
      "Trigger": {
        "Radius": 1.5,
        "DimX": 1.0,
        "DimY": 1.0,
        "DimZ": 1.0,
        "PointList": []
      },
      "CampID": 4,
      "State": "ChestClosed",
      "CustomTriggerMap": {},
      "CustomTriggerMapV2": {},
      "BridgeStateRotations": [],
      "ChestID": 20331624,
      "DialogueGroups": [],
      "TalkDialogGroupIDList": [],
      "ServerInteractVerificationIDList": [],
      "OverrideTriggerValidGuestConfig": true,
      "TriggerValidGuest": {
        "FakePlayer": true
      },
      "TagContainer": {},
      "CameraCenterEntityList": [],
      "SpawnConfig": {
        "EntitySpawnConfig": {}
      }
    },
    {
      "ID": 300003,
      "PosX": 330.721,
      "PosY": 32.779,
      "PosZ": 406.741,
      "Name": "Chest_03",
      "RotZ": 347.4439,
      "PropID": 60301,
      "ValueSource": {
        "Values": []
      },
      "Trigger": {
        "Radius": 1.0,
        "DimX": 1.0,
        "DimY": 1.0,
        "DimZ": 1.0,
        "Offset": {
          "y": 0.6
        },
        "PointList": []
      },
      "CampID": 4,
      "State": "ChestClosed",
      "CustomTriggerMap": {},
      "CustomTriggerMapV2": {
        "InteractTrigger": {
          "Radius": 1.0,
          "Offset": {
            "y": 0.6
          },
          "PointList": []
        }
      },
      "BridgeStateRotations": [],
      "ChestID": 20331625,
      "DialogueGroups": [],
      "TalkDialogGroupIDList": [],
      "ServerInteractVerificationIDList": [],
      "OverrideTriggerValidGuestConfig": true,
      "TriggerValidGuest": {
        "FakePlayer": true
      },
      "TagContainer": {},
      "CameraCenterEntityList": [],
      "SpawnConfig": {
        "EntitySpawnConfig": {}
      }
    },
    {
      "ID": 300004,
      "PosX": 355.0628,
      "PosY": 31.72002,
      "PosZ": 409.2979,
      "Name": "Ches",
      "RotY": 270.0,
      "PropID": 60303,
      "ValueSource": {
        "Values": []
      },
      "Trigger": {
        "Radius": 1.5,
        "DimX": 1.0,
        "DimY": 1.0,
        "DimZ": 1.0,
        "PointList": []
      },
      "CampID": 4,
      "State": "ChestClosed",
      "CustomTriggerMap": {},
      "CustomTriggerMapV2": {
        "InteractTrigger": {
          "Radius": 1.5,
          "Offset": {
            "z": 0.9
          },
          "PointList": []
        }
      },
      "BridgeStateRotations": [],
      "ChestID": 20331627,
      "DialogueGroups": [],
      "TalkDialogGroupIDList": [],
      "ServerInteractVerificationIDList": [],
      "OverrideTriggerValidGuestConfig": true,
      "TriggerValidGuest": {
        "FakePlayer": true
      },
      "TagContainer": {},
      "CameraCenterEntityList": [],
      "SpawnConfig": {
        "EntitySpawnConfig": {}
      }
    }
  ],
  "NPCList": []
}