{
  "GroupGUID": "9c4fe237-9828-489b-8bb3-5605a3b35579",
  "GroupName": "MainMission1032701_01",
  "Category": "Mission",
  "LevelGraph": "Config/Level/GroupGraph/F20331001/Group_F20331001_G43.json",
  "AreaAnchorName": "LevelArea_P20331_F20331001_G43",
  "SaveType": "Reset",
  "OwnerMainMissionID": 1032701,
  "ValueSource": {},
  "ConflictIDList": [],
  "IsHoyoGroup": true,
  "StreamingTemplateType": "None",
  "ConflictWhiteList": [],
  "TagContainer": {},
  "AnchorList": [],
  "MonsterList": [],
  "PropList": [],
  "NPCList": []
}