{
  "GroupGUID": "aa3e4069-7ac2-4493-bb3c-7cf55932fb4a",
  "GroupName": "OrigamiBird_Normal",
  "LevelGraph": "Config/Level/GroupTemplateGraph/Puzzle/OrigamiBird/OrigamiBird_Normal.json",
  "AreaAnchorName": "LevelArea_P20331_F20331001_G183",
  "SaveDimensionFilter": {},
  "SavedValueCondition": {
    "Conditions": [],
    "Operation": "And"
  },
  "IsPendedUnload": true,
  "LoadSide": "Server",
  "ValueSource": {
    "Values": [
      {
        "$type": "SharedString",
        "Key": "TriggerPerformance",
        "Value": "414032108"
      }
    ]
  },
  "ConflictIDList": [],
  "IsHoyoGroup": true,
  "ConflictWhiteList": [],
  "TagContainer": {},
  "AnchorList": [],
  "MonsterList": [],
  "PropList": [
    {
      "ID": 300001,
      "PosX": -267.041,
      "PosY": -109.8052,
      "PosZ": 459.1701,
      "Name": "Prop1",
      "RotY": 76.85644,
      "RotX": 359.5351,
      "RotZ": 304.1896,
      "Scale": {
        "x": 0.5,
        "y": 0.5,
        "z": 0.5
      },
      "PropID": 103026,
      "ValueSource": {
        "Values": [
          {
            "$type": "SharedString",
            "Key": "OverrideButtonText",
            "Value": "MazeText_Maze_OrigamiBird_Normal_PullOut"
          },
          {
            "$type": "SharedString",
            "Key": "OverrideButtonIcon",
            "Value": "SpriteOutput/TalkIcon/PickUpIcon.png"
          },
          {
            "$type": "SharedUint",
            "Key": "DefaultIsOverrideButton"
          }
        ]
      },
      "CampID": 4,
      "State": "EventClose",
      "EventID": 20331708,
      "CustomTriggerMap": {},
      "CustomTriggerMapV2": {
        "InteractTrigger": {
          "Radius": 4.0,
          "DimX": 2.0,
          "DimY": 2.0,
          "DimZ": 2.0,
          "PointList": []
        }
      },
      "BridgeStateRotations": [],
      "DialogueGroups": [],
      "TalkDialogGroupIDList": [],
      "ServerInteractVerificationIDList": [],
      "TriggerValidGuest": {},
      "TagContainer": {},
      "CameraCenterEntityList": [],
      "SpawnConfig": {
        "EntitySpawnConfig": {}
      }
    },
    {
      "ID": 300002,
      "PosX": -267.2433,
      "PosY": -111.0255,
      "PosZ": 459.2067,
      "Name": "Prop2",
      "PropID": 211,
      "IsOverrideInitLevelGraph": true,
      "ValueSource": {
        "Values": []
      },
      "CampID": 4,
      "State": "Open",
      "CustomTriggerMap": {},
      "CustomTriggerMapV2": {
        "InteractTrigger": {
          "Radius": 15.0,
          "PointList": []
        }
      },
      "BridgeStateRotations": [],
      "MappingInfoID": 10055,
      "DialogueGroups": [],
      "TalkDialogGroupIDList": [],
      "ServerInteractVerificationIDList": [],
      "OverrideMapIconType": 158,
      "OverrideMapStateIcons": [
        {
          "IconID": 158
        }
      ],
      "TriggerValidGuest": {},
      "TagContainer": {},
      "CameraCenterEntityList": [],
      "SpawnConfig": {
        "EntitySpawnConfig": {}
      }
    }
  ],
  "NPCList": [
    {
      "ID": 400001,
      "PosX": -266.7019,
      "PosY": -109.889,
      "PosZ": 459.4387,
      "Name": "NPC1",
      "RotY": 130.8326,
      "NPCID": 3029,
      "ValueSource": {
        "Values": []
      },
      "CampID": 1,
      "StaticNPC": true,
      "DialogueGroups": [],
      "ServerInteractVerificationIDList": [],
      "BoardShowList": [
        2,
        4,
        8
      ],
      "TalkDialogGroupIDList": [],
      "DefaultAnimationType": "IdleState",
      "DefaultIdleFreeStyleMotionID": 900090266,
      "InitialHiddenNodeList": [],
      "TagContainer": {},
      "CameraCenterEntityList": [],
      "SpawnConfig": {
        "EntitySpawnConfig": {},
        "CaptureDistanceTolerance": 10.0
      },
      "IsClientOnly": true,
      "TriggerValidGuest": {}
    }
  ]
}