{
  "GroupGUID": "faa78c7f-f925-4fc3-8e34-dae360983f49",
  "GroupName": "MainMission8022401_New Group",
  "Category": "Mission",
  "LevelGraph": "Config/Level/GroupGraph/F20331001/Group_F20331001_G354.json",
  "AreaAnchorName": "LevelArea_P20331_F20331001_G354",
  "SaveType": "Reset",
  "OwnerMainMissionID": 8022401,
  "ValueSource": {},
  "ConflictIDList": [],
  "IsHoyoGroup": true,
  "ConflictWhiteList": [],
  "TagContainer": {},
  "AnchorList": [],
  "MonsterList": [],
  "PropList": [],
  "NPCList": []
}