{
  "GroupGUID": "65b82e99-a3b6-4d3f-8517-5c18c27ea8f1",
  "GroupName": "MainMission1032702_02",
  "Category": "Mission",
  "LevelGraph": "Config/Level/GroupGraph/F20331001/Group_F20331001_G48.json",
  "AreaAnchorName": "LevelArea_P20331_F20331001_G48",
  "SaveType": "Reset",
  "OwnerMainMissionID": 1032702,
  "ValueSource": {
    "Values": [
      {
        "$type": "SharedString",
        "Key": "Camera",
        "Value": "LevelArea_P20331_F20331001_G48,Anchor1"
      }
    ]
  },
  "ConflictIDList": [],
  "IsHoyoGroup": true,
  "ConflictWhiteList": [],
  "TagContainer": {},
  "AnchorList": [
    {
      "ID": 1,
      "PosX": -451.238,
      "PosY": -117.252,
      "PosZ": 420.967,
      "Name": "Anchor1",
      "RotY": 22.0,
      "Usage": "Camera",
      "CustomParameter": {
        "$type": "LevelAnchorCameraParameter"
      }
    }
  ],
  "MonsterList": [],
  "PropList": [],
  "NPCList": [
    {
      "ID": 400001,
      "PosX": -452.66,
      "PosY": -118.7227,
      "PosZ": 420.767,
      "Name": "NPC1",
      "RotY": 135.5971,
      "NPCID": 13227,
      "ValueSource": {},
      "DialogueGroups": [],
      "ServerInteractVerificationIDList": [],
      "BoardShowList": [],
      "OverrideNPCName": {
        "Hash": 95915319
      },
      "TalkDialogGroupIDList": [],
      "DefaultIdleFreeStyleMotionID": 100020000,
      "InitialHiddenNodeList": [],
      "Dialog": {
        "LevelGraph": "Config/Level/NPCDialogue/P20331/F20331001_G48/DialogueMain_F20331001_G48_N400001.json",
        "PackList": []
      },
      "TagContainer": {},
      "CameraCenterEntityList": [],
      "SpawnConfig": {
        "OverrideSpawn": true,
        "EntitySpawnConfig": {}
      },
      "TriggerValidGuest": {}
    }
  ]
}