{
  "GroupGUID": "cdce1c95-a206-48cc-a8d0-c12aab338b84",
  "GroupName": "MainMission1032703_28",
  "Category": "Mission",
  "LevelGraph": "Config/Level/GroupGraph/F20331001/Group_F20331001_G155.json",
  "AreaAnchorName": "LevelArea_P20331_F20331001_G155",
  "SaveDimensionFilter": {},
  "LoadSide": "Server",
  "OwnerMainMissionID": 1032703,
  "ValueSource": {},
  "ConflictIDList": [],
  "IsHoyoGroup": true,
  "ConflictWhiteList": [],
  "TagContainer": {},
  "AnchorList": [
    {
      "ID": 1,
      "PosX": 446.649,
      "PosY": -20.393,
      "PosZ": 858.788,
      "Name": "Anchor1",
      "RotY": 112.2487,
      "RotX": 7.91664,
      "RotZ": 0.791715,
      "Usage": "Camera",
      "CustomParameter": {
        "$type": "LevelAnchorCameraParameter"
      }
    },
    {
      "ID": 2,
      "PosX": 448.0386,
      "PosY": -22.0487,
      "PosZ": 858.4979,
      "Name": "Anchor2",
      "RotY": 119.4145,
      "Usage": "Actor"
    }
  ],
  "MonsterList": [],
  "PropList": [],
  "NPCList": [
    {
      "ID": 400001,
      "PosX": 451.8157,
      "PosY": -22.07826,
      "PosZ": 855.5558,
      "Name": "NPC1",
      "RotY": 65.20413,
      "NPCID": 2306,
      "LevelGraph": "Config/Level/Maze/MazeTest/Test_Resha_MonsterTail.json",
      "ValueSource": {},
      "DialogueGroups": [],
      "ServerInteractVerificationIDList": [],
      "BoardShowList": [],
      "TalkDialogGroupIDList": [],
      "DefaultIdleFreeStyleMotionID": 200410000,
      "InitialHiddenNodeList": [],
      "TagContainer": {},
      "CameraCenterEntityList": [],
      "SpawnConfig": {
        "EntitySpawnConfig": {}
      },
      "TriggerValidGuest": {}
    },
    {
      "ID": 400002,
      "PosX": 450.367,
      "PosY": -22.0585,
      "PosZ": 858.845,
      "Name": "NPC2",
      "RotY": 158.1355,
      "NPCID": 3030,
      "ValueSource": {},
      "DialogueGroups": [],
      "ServerInteractVerificationIDList": [],
      "DefaultLookAtMode": "Closed",
      "BoardShowList": [],
      "TalkDialogGroupIDList": [],
      "DefaultIdleFreeStyleMotionID": 900160000,
      "InitialHiddenNodeList": [],
      "TagContainer": {},
      "CameraCenterEntityList": [],
      "SpawnConfig": {
        "EntitySpawnConfig": {}
      },
      "TriggerValidGuest": {}
    }
  ]
}