{
  "GroupGUID": "60e59e50-a6a7-4a37-91ec-a5fb0524ec1d",
  "GroupName": "Tpl_OrigamiBird_Normal",
  "LevelGraph": "Config/Level/GroupTemplateGraph/Puzzle/OrigamiBird/OrigamiBird_ThreeTimesALL.json",
  "AreaAnchorName": "LevelArea_P20331_F20331001_G189",
  "SaveDimensionFilter": {},
  "SavedValueCondition": {
    "Conditions": [],
    "Operation": "And"
  },
  "IsPendedUnload": true,
  "LoadSide": "Server",
  "ValueSource": {
    "Values": [
      {
        "$type": "SharedString",
        "Key": "TriggerPerformance",
        "Value": "414032114"
      }
    ]
  },
  "ConflictIDList": [],
  "IsHoyoGroup": true,
  "ConflictWhiteList": [],
  "TagContainer": {},
  "AnchorList": [],
  "MonsterList": [],
  "PropList": [
    {
      "ID": 300001,
      "PosX": -435.5685,
      "PosY": 5.629,
      "PosZ": 821.033,
      "Name": "Prop1",
      "RotY": 339.3218,
      "RotX": -1.0E-6,
      "RotZ": 350.0153,
      "Scale": {
        "x": 0.5,
        "y": 0.5,
        "z": 0.5
      },
      "PropID": 103026,
      "ValueSource": {
        "Values": [
          {
            "$type": "SharedString",
            "Key": "OverrideButtonText",
            "Value": "MazeText_Maze_OrigamiBird_Normal_PullOut"
          },
          {
            "$type": "SharedString",
            "Key": "OverrideButtonIcon",
            "Value": "SpriteOutput/TalkIcon/PickUpIcon.png"
          },
          {
            "$type": "SharedUint",
            "Key": "DefaultIsOverrideButton"
          }
        ]
      },
      "CampID": 4,
      "State": "EventClose",
      "CustomTriggerMap": {},
      "CustomTriggerMapV2": {
        "InteractTrigger": {
          "Radius": 4.0,
          "DimX": 2.0,
          "DimY": 2.0,
          "DimZ": 2.0,
          "PointList": []
        }
      },
      "BridgeStateRotations": [],
      "DialogueGroups": [],
      "TalkDialogGroupIDList": [],
      "ServerInteractVerificationIDList": [],
      "TriggerValidGuest": {},
      "TagContainer": {},
      "CameraCenterEntityList": [],
      "SpawnConfig": {
        "EntitySpawnConfig": {}
      }
    },
    {
      "ID": 300002,
      "PosX": -435.5365,
      "PosY": 5.603,
      "PosZ": 821.051,
      "Name": "Prop2",
      "RotY": 159.3218,
      "Scale": {
        "x": 0.8,
        "y": 0.8,
        "z": 0.8
      },
      "PropID": 103026,
      "ValueSource": {
        "Values": [
          {
            "$type": "SharedString",
            "Key": "OverrideButtonText",
            "Value": "MazeText_Maze_OrigamiBird_Normal_PullOut"
          },
          {
            "$type": "SharedString",
            "Key": "OverrideButtonIcon",
            "Value": "SpriteOutput/TalkIcon/PickUpIcon.png"
          },
          {
            "$type": "SharedUint",
            "Key": "DefaultIsOverrideButton"
          }
        ]
      },
      "CampID": 4,
      "State": "EventClose",
      "CustomTriggerMap": {},
      "CustomTriggerMapV2": {
        "InteractTrigger": {
          "Radius": 3.0,
          "PointList": []
        }
      },
      "BridgeStateRotations": [],
      "DialogueGroups": [],
      "TalkDialogGroupIDList": [],
      "ServerInteractVerificationIDList": [],
      "TriggerValidGuest": {},
      "TagContainer": {},
      "CameraCenterEntityList": [],
      "SpawnConfig": {
        "EntitySpawnConfig": {}
      }
    },
    {
      "ID": 300003,
      "PosX": -435.5598,
      "PosY": 5.622308,
      "PosZ": 821.0434,
      "Name": "Prop3",
      "RotY": 163.1222,
      "RotX": -6.0E-6,
      "RotZ": 320.8818,
      "Scale": {
        "x": 0.5,
        "y": 0.5,
        "z": 0.5
      },
      "PropID": 103026,
      "ValueSource": {
        "Values": [
          {
            "$type": "SharedString",
            "Key": "OverrideButtonText",
            "Value": "MazeText_Maze_OrigamiBird_Normal_PullOut"
          },
          {
            "$type": "SharedString",
            "Key": "OverrideButtonIcon",
            "Value": "SpriteOutput/TalkIcon/PickUpIcon.png"
          },
          {
            "$type": "SharedUint",
            "Key": "DefaultIsOverrideButton"
          }
        ]
      },
      "CampID": 4,
      "State": "EventClose",
      "CustomTriggerMap": {},
      "CustomTriggerMapV2": {
        "InteractTrigger": {
          "Radius": 4.0,
          "DimX": 2.0,
          "DimY": 2.0,
          "DimZ": 2.0,
          "PointList": []
        }
      },
      "BridgeStateRotations": [],
      "DialogueGroups": [],
      "TalkDialogGroupIDList": [],
      "ServerInteractVerificationIDList": [],
      "TriggerValidGuest": {},
      "TagContainer": {},
      "CameraCenterEntityList": [],
      "SpawnConfig": {
        "EntitySpawnConfig": {}
      }
    },
    {
      "ID": 300004,
      "PosX": -433.4854,
      "PosY": 6.374634,
      "PosZ": 825.817,
      "Name": "Prop4",
      "RotX": 334.0599,
      "Scale": {},
      "PropID": 103026,
      "ValueSource": {
        "Values": []
      },
      "CampID": 4,
      "State": "EventClose",
      "EventID": 20331714,
      "CustomTriggerMap": {},
      "CustomTriggerMapV2": {
        "InteractTrigger": {
          "DimX": 2.0,
          "DimY": 2.0,
          "DimZ": 2.0,
          "PointList": []
        }
      },
      "BridgeStateRotations": [],
      "DialogueGroups": [],
      "TalkDialogGroupIDList": [],
      "ServerInteractVerificationIDList": [],
      "TriggerValidGuest": {},
      "TagContainer": {},
      "CameraCenterEntityList": [],
      "SpawnConfig": {
        "EntitySpawnConfig": {}
      }
    },
    {
      "ID": 300005,
      "PosX": -434.5169,
      "PosY": 4.780978,
      "PosZ": 820.1968,
      "Name": "Prop5",
      "PropID": 211,
      "IsOverrideInitLevelGraph": true,
      "ValueSource": {
        "Values": []
      },
      "CampID": 4,
      "State": "Open",
      "CustomTriggerMap": {},
      "CustomTriggerMapV2": {
        "InteractTrigger": {
          "Radius": 15.0,
          "PointList": []
        }
      },
      "BridgeStateRotations": [],
      "MappingInfoID": 10055,
      "DialogueGroups": [],
      "TalkDialogGroupIDList": [],
      "ServerInteractVerificationIDList": [],
      "OverrideMapIconType": 158,
      "OverrideMapStateIcons": [
        {
          "IconID": 158
        }
      ],
      "TriggerValidGuest": {},
      "TagContainer": {},
      "CameraCenterEntityList": [],
      "SpawnConfig": {
        "EntitySpawnConfig": {}
      }
    }
  ],
  "NPCList": [
    {
      "ID": 400001,
      "PosX": -434.5149,
      "PosY": 5.737001,
      "PosZ": 820.4767,
      "Name": "NPC1",
      "RotY": 134.3122,
      "NPCID": 3029,
      "ValueSource": {
        "Values": []
      },
      "CampID": 1,
      "StaticNPC": true,
      "DialogueGroups": [],
      "ServerInteractVerificationIDList": [],
      "BoardShowList": [
        2,
        4,
        8
      ],
      "TalkDialogGroupIDList": [],
      "DefaultAnimationType": "IdleState",
      "DefaultIdleFreeStyleMotionID": 900090266,
      "InitialHiddenNodeList": [],
      "TagContainer": {},
      "CameraCenterEntityList": [],
      "SpawnConfig": {
        "EntitySpawnConfig": {},
        "CaptureDistanceTolerance": 10.0
      },
      "IsClientOnly": true,
      "TriggerValidGuest": {}
    }
  ]
}