{
  "GroupGUID": "2a59e9aa-24ed-4f34-a355-e045594a8ba0",
  "GroupName": "MainMission8022402_New Group",
  "Category": "Mission",
  "LevelGraph": "Config/Level/GroupGraph/F20331001/Group_F20331001_G297.json",
  "AreaAnchorName": "LevelArea_P20331_F20331001_G297",
  "SaveType": "Reset",
  "OwnerMainMissionID": 8022402,
  "ValueSource": {},
  "ConflictIDList": [],
  "IsHoyoGroup": true,
  "ConflictWhiteList": [],
  "TagContainer": {},
  "AnchorList": [],
  "MonsterList": [],
  "PropList": [],
  "NPCList": []
}