{
  "GroupGUID": "3bc3460d-f2ef-4f9a-9dcc-fb3e27fcf3b0",
  "GroupName": "ClockToy",
  "LevelGraph": "Config/Level/GroupGraph/F20331001/Group_F20331001_G152.json",
  "AreaAnchorName": "LevelArea_P20331_F20331001_G152",
  "SaveDimensionFilter": {},
  "SavedValueCondition": {
    "Conditions": [],
    "Operation": "And"
  },
  "LoadSide": "Server",
  "LoadOnInitial": true,
  "ValueSource": {},
  "ConflictIDList": [],
  "IsHoyoGroup": true,
  "ConflictWhiteList": [],
  "TagContainer": {},
  "AnchorList": [],
  "MonsterList": [],
  "PropList": [
    {
      "ID": 300001,
      "PosX": 283.06,
      "PosY": 49.23377,
      "PosZ": 803.075,
      "Name": "Prop1",
      "RotY": 180.0,
      "PropID": 103211,
      "IsOverrideInitLevelGraph": true,
      "InitLevelGraph": "Config/Level/Props/Chap03/InitLevelGraph_Prop_Chap03_ClockToyBoxResha_01.json",
      "ValueSource": {
        "Values": [
          {
            "$type": "SharedString",
            "Key": "PuzzlePrefabRef_F",
            "Value": "Gameplays/ClockBox/ClockBoxPuzzles/ClockBox_Difficult_F_01.prefab"
          },
          {
            "$type": "SharedString",
            "Key": "PuzzleArea",
            "Value": "ClockBoxPuzzleBG"
          },
          {
            "$type": "SharedString",
            "Key": "ControlledPawnKey",
            "Value": "37,400001"
          },
          {
            "$type": "SharedString",
            "Key": "PerformanceID_01",
            "Value": "703020113"
          },
          {
            "$type": "SharedString",
            "Key": "PerformanceID_02",
            "Value": "703020114"
          },
          {
            "$type": "SharedString",
            "Key": "PuzzlePrefabRef_S",
            "Value": "Gameplays/ClockBox/ClockBoxPuzzles/ClockBox_Difficult_F_02.prefab"
          }
        ]
      },
      "CampID": 4,
      "CustomTriggerMap": {},
      "CustomTriggerMapV2": {
        "Trigger_01": {
          "Radius": 5.0,
          "DimX": 1.0,
          "DimY": 1.0,
          "DimZ": 1.0,
          "PointList": []
        },
        "InteractTrigger": {
          "Radius": 5.0,
          "DimX": 1.0,
          "DimY": 1.0,
          "DimZ": 1.0,
          "PointList": []
        }
      },
      "BridgeStateRotations": [],
      "DialogueGroups": [],
      "TalkDialogGroupIDList": [],
      "ServerInteractVerificationIDList": [],
      "TriggerValidGuest": {},
      "TagContainer": {},
      "CameraCenterEntityList": [],
      "SpawnConfig": {
        "EntitySpawnConfig": {}
      }
    }
  ],
  "NPCList": [
    {
      "ID": 400001,
      "IsDelete": true,
      "Name": "ClockKid",
      "NPCID": 3102,
      "ValueSource": {},
      "DialogueGroups": [],
      "ServerInteractVerificationIDList": [],
      "BoardShowList": [],
      "TalkDialogGroupIDList": [],
      "DefaultIdleFreeStyleMotionID": 900160000,
      "InitialHiddenNodeList": [],
      "TagContainer": {},
      "CameraCenterEntityList": [],
      "SpawnConfig": {
        "EntitySpawnConfig": {},
        "CaptureDistanceTolerance": 10.0
      },
      "TriggerValidGuest": {}
    }
  ]
}