{
  "GroupGUID": "a70ecee8-1899-4fbc-85ea-b0ac465c1841",
  "GroupName": "MainMission8022401_A22",
  "Category": "Mission",
  "LevelGraph": "Config/Level/GroupGraph/F20331001/Group_F20331001_G402.json",
  "AreaAnchorName": "LevelArea_P20331_F20331001_G402",
  "SaveType": "Reset",
  "OwnerMainMissionID": 8022401,
  "ValueSource": {
    "Values": [
      {
        "$type": "SharedString",
        "Key": "Camera",
        "Value": "LevelArea_P20331_F20331001_G402,Anchor1"
      },
      {
        "$type": "SharedString",
        "Key": "FaceTo",
        "Value": "402,300001"
      }
    ]
  },
  "ConflictIDList": [],
  "IsHoyoGroup": true,
  "ConflictWhiteList": [],
  "TagContainer": {},
  "AnchorList": [
    {
      "ID": 1,
      "PosX": -278.676,
      "PosY": -114.482,
      "PosZ": 435.678,
      "Name": "Anchor1",
      "RotY": 339.6142,
      "Usage": "Camera",
      "CustomParameter": {
        "$type": "LevelAnchorCameraParameter"
      }
    },
    {
      "ID": 2,
      "PosX": -427.464,
      "PosY": -116.5042,
      "PosZ": 445.622,
      "Name": "Anchor2",
      "RotY": 22.0,
      "Usage": "Actor"
    }
  ],
  "MonsterList": [],
  "PropList": [
    {
      "ID": 300001,
      "PosX": -282.39,
      "PosY": -114.9753,
      "PosZ": 448.37,
      "Name": "Prop1",
      "RotY": 339.6142,
      "PropID": 100,
      "ValueSource": {},
      "CampID": 4,
      "CustomTriggerMap": {},
      "CustomTriggerMapV2": {},
      "BridgeStateRotations": [],
      "DialogueGroups": [],
      "TalkDialogGroupIDList": [],
      "ServerInteractVerificationIDList": [],
      "TriggerValidGuest": {},
      "TagContainer": {},
      "CameraCenterEntityList": [],
      "SpawnConfig": {
        "EntitySpawnConfig": {}
      }
    }
  ],
  "NPCList": []
}