{
  "GroupGUID": "d9ceed61-5257-47a1-b67e-8fd76a68fe81",
  "GroupName": "MainMission8022401_New Group",
  "Category": "Mission",
  "AreaAnchorName": "LevelArea_P20331_F20331001_G383",
  "SaveType": "Reset",
  "OwnerMainMissionID": 8022401,
  "ValueSource": {},
  "ConflictIDList": [],
  "IsHoyoGroup": true,
  "HoYoGroupType": "Container",
  "ConflictWhiteList": [],
  "TagContainer": {},
  "AnchorList": [
    {
      "ID": 1,
      "PosX": -277.2,
      "PosY": 3.280837,
      "PosZ": 738.4037,
      "Name": "Anchor1"
    }
  ],
  "MonsterList": [],
  "PropList": [
    {
      "ID": 300001,
      "PosX": -0.274,
      "PosY": 2.367729,
      "PosZ": 113.614,
      "Name": "Prop1",
      "PropID": 111,
      "ValueSource": {},
      "Trigger": {
        "Radius": 2.0,
        "DimX": 1.0,
        "DimY": 1.0,
        "DimZ": 1.0,
        "PointList": []
      },
      "CampID": 4,
      "OverrideHintRange": 15.0,
      "CustomTriggerMap": {},
      "CustomTriggerMapV2": {},
      "BridgeStateRotations": [],
      "DialogueGroups": [],
      "TalkDialogGroupIDList": [],
      "ServerInteractVerificationIDList": [],
      "Dialog": {
        "LevelGraph": "Config/Level/PropDialogue/P20331/F20331001_G383/DialogueMain_F20331001_G383_P300001.json",
        "PackList": []
      },
      "TriggerValidGuest": {},
      "TagContainer": {},
      "CameraCenterEntityList": [],
      "SpawnConfig": {
        "EntitySpawnConfig": {}
      }
    }
  ],
  "NPCList": []
}