{
  "GroupGUID": "dc6d97ff-db9b-44dc-af2c-bb5a22d3e964",
  "GroupName": "JigsawPuzzle_P301_Normal_02_BirdAndTreasure_Complete",
  "LevelGraph": "Config/Level/GroupGraph/F20331001/Group_F20331001_G321.json",
  "AreaAnchorName": "LevelArea_P20331_F20331001_G321",
  "SaveDimensionFilter": {},
  "SavedValueCondition": {
    "Conditions": [],
    "Operation": "And"
  },
  "LoadSide": "Server",
  "LoadOnInitial": true,
  "GroupStateList": [
    {
      "DstState": 13
    },
    {
      "DstState": 12
    },
    {
      "DstState": 11
    },
    {
      "DstState": 10
    },
    {
      "SrcState": 10,
      "DstState": 20
    },
    {
      "SrcState": 13,
      "DstState": 12
    },
    {
      "SrcState": 12,
      "DstState": 11
    },
    {
      "SrcState": 11,
      "DstState": 10
    }
  ],
  "ValueSource": {},
  "ConflictIDList": [],
  "IsHoyoGroup": true,
  "ConflictWhiteList": [],
  "TagContainer": {},
  "AnchorList": [
    {
      "ID": 1,
      "PosX": 273.0661,
      "PosY": 50.05254,
      "PosZ": 790.1198,
      "Name": "SnapCamera",
      "RotY": 38.09462,
      "RotX": 350.0,
      "RotZ": -3.0E-6,
      "Usage": "Camera",
      "CustomParameter": {
        "$type": "LevelAnchorCameraParameter",
        "fov": 40.0
      }
    },
    {
      "ID": 2,
      "PosX": 273.0661,
      "PosY": 50.05254,
      "PosZ": 790.1198,
      "Name": "GameplayCamera",
      "RotY": 38.09462,
      "RotX": 350.0,
      "RotZ": -3.0E-6,
      "Usage": "Camera",
      "CustomParameter": {
        "$type": "LevelAnchorCameraParameter",
        "fov": 40.0
      }
    },
    {
      "ID": 3,
      "Name": "Anchor3"
    },
    {
      "ID": 4,
      "PosX": 273.3258,
      "PosY": 50.05254,
      "PosZ": 789.9161,
      "Name": "GameplayCamera2",
      "RotY": 38.09462,
      "RotX": 350.0,
      "RotZ": -3.0E-6,
      "Usage": "Camera",
      "CustomParameter": {
        "$type": "LevelAnchorCameraParameter",
        "fov": 50.0
      }
    }
  ],
  "MonsterList": [],
  "PropList": [
    {
      "ID": 300001,
      "PosX": 275.08,
      "PosY": 48.72188,
      "PosZ": 792.7,
      "Name": "JigsawSir",
      "RotY": 218.0946,
      "PropID": 103012,
      "IsOverrideInitLevelGraph": true,
      "InitLevelGraph": "Config/Level/Props/Chap03/InitLevelGraph_Prop_Chap03_JigsawPuzzle_JigsawSir_02.json",
      "ValueSource": {
        "Values": [
          {
            "$type": "SharedString",
            "Key": "PuzzleBoardPath",
            "Value": "Gameplays/JigsawPuzzle/JigsawPuzzle_P301_Normal_02_BirdAndTreasure_Complete.prefab"
          },
          {
            "$type": "SharedString",
            "Key": "PuzzleCameraAnchor",
            "Value": "LevelArea_P20331_F20331001_G321,GameplayCamera"
          },
          {
            "$type": "SharedString",
            "Key": "JigsawResult_String",
            "Value": "JigsawPuzzle_Complete"
          },
          {
            "$type": "SharedString",
            "Key": "SnapCamera",
            "Value": "LevelArea_P20331_F20331001_G321,SnapCamera"
          },
          {
            "$type": "SharedFloat",
            "Key": "IsH"
          },
          {
            "$type": "SharedString",
            "Key": "PoseType",
            "Value": "V3_0M7_N10"
          },
          {
            "$type": "SharedString",
            "Key": "PuzzleCameraAnchor2",
            "Value": "LevelArea_P20331_F20331001_G321,GameplayCamera2"
          },
          {
            "$type": "SharedFloat",
            "Key": "AutoInit"
          },
          {
            "$type": "SharedString",
            "Key": "LookAtBirdAnchor",
            "Value": "LevelArea_P20331_F20331001_G186,Anchor1"
          }
        ]
      },
      "CampID": 4,
      "State": "TriggerEnable",
      "CustomTriggerMap": {},
      "CustomTriggerMapV2": {},
      "BridgeStateRotations": [],
      "MappingInfoID": 10061,
      "DialogueGroups": [],
      "TalkDialogGroupIDList": [],
      "ServerInteractVerificationIDList": [],
      "OverrideMapStateIcons": [
        {
          "State": "TriggerDisable",
          "IconID": 89
        },
        {
          "State": "TriggerEnable",
          "IconID": 89
        },
        {
          "State": "Locked",
          "IconID": 89
        },
        {
          "State": "Open",
          "IconID": 89
        }
      ],
      "TriggerValidGuest": {},
      "TagContainer": {},
      "CameraCenterEntityList": [],
      "SpawnConfig": {
        "EntitySpawnConfig": {}
      }
    },
    {
      "ID": 300002,
      "PosX": 275.08,
      "PosY": 48.72188,
      "PosZ": 792.7,
      "Name": "JigsawPiece1",
      "PropID": 103109,
      "ValueSource": {
        "Values": [
          {
            "$type": "SharedString",
            "Key": "ListenTriggerCustomString",
            "Value": "Mission_777_1"
          },
          {
            "$type": "SharedFloat",
            "Key": "ControlByMission"
          },
          {
            "$type": "SharedFloat",
            "Key": "EffIndex",
            "Value": 1.0
          }
        ]
      },
      "CampID": 4,
      "CustomTriggerMap": {},
      "CustomTriggerMapV2": {},
      "BridgeStateRotations": [],
      "DialogueGroups": [],
      "TalkDialogGroupIDList": [],
      "ServerInteractVerificationIDList": [],
      "TriggerValidGuest": {},
      "TagContainer": {},
      "CameraCenterEntityList": [],
      "SpawnConfig": {
        "EntitySpawnConfig": {}
      }
    },
    {
      "ID": 300003,
      "PosX": 275.08,
      "PosY": 48.72188,
      "PosZ": 792.7,
      "Name": "JigsawPiece2",
      "PropID": 103109,
      "ValueSource": {
        "Values": [
          {
            "$type": "SharedString",
            "Key": "ListenTriggerCustomString",
            "Value": "Mission_777_2"
          },
          {
            "$type": "SharedFloat",
            "Key": "ControlByMission"
          },
          {
            "$type": "SharedFloat",
            "Key": "EffIndex",
            "Value": 2.0
          }
        ]
      },
      "CampID": 4,
      "CustomTriggerMap": {},
      "CustomTriggerMapV2": {},
      "BridgeStateRotations": [],
      "DialogueGroups": [],
      "TalkDialogGroupIDList": [],
      "ServerInteractVerificationIDList": [],
      "TriggerValidGuest": {},
      "TagContainer": {},
      "CameraCenterEntityList": [],
      "SpawnConfig": {
        "EntitySpawnConfig": {}
      }
    },
    {
      "ID": 300004,
      "PosX": 275.08,
      "PosY": 48.72188,
      "PosZ": 792.7,
      "Name": "JigsawPiece3",
      "PropID": 103109,
      "ValueSource": {
        "Values": [
          {
            "$type": "SharedString",
            "Key": "ListenTriggerCustomString",
            "Value": "Mission_id_piece"
          },
          {
            "$type": "SharedFloat",
            "Key": "ControlByMission"
          },
          {
            "$type": "SharedFloat",
            "Key": "EffIndex",
            "Value": 3.0
          }
        ]
      },
      "CampID": 4,
      "CustomTriggerMap": {},
      "CustomTriggerMapV2": {},
      "BridgeStateRotations": [],
      "DialogueGroups": [],
      "TalkDialogGroupIDList": [],
      "ServerInteractVerificationIDList": [],
      "TriggerValidGuest": {},
      "TagContainer": {},
      "CameraCenterEntityList": [],
      "SpawnConfig": {
        "EntitySpawnConfig": {}
      }
    },
    {
      "ID": 300006,
      "PosX": 275.08,
      "PosY": 48.72188,
      "PosZ": 792.7,
      "Name": "JigsawResult_Controller",
      "RotY": 180.0,
      "PropID": 100,
      "IsOverrideInitLevelGraph": true,
      "InitLevelGraph": "Config/Level/Props/Chap03/InitLevelGraph_Prop_Chap03_JigsawPuzzle_TreasureAppearSFXTrigger.json",
      "ValueSource": {
        "Values": [
          {
            "$type": "SharedString",
            "Key": "TargetProp",
            "Value": "321,300007"
          },
          {
            "$type": "SharedString",
            "Key": "GameplayProp",
            "Value": "321,300001"
          },
          {
            "$type": "SharedFloat",
            "Key": "DelayAppearTime",
            "Value": 2.0
          }
        ]
      },
      "CampID": 4,
      "CustomTriggerMap": {},
      "CustomTriggerMapV2": {},
      "BridgeStateRotations": [],
      "DialogueGroups": [],
      "TalkDialogGroupIDList": [],
      "ServerInteractVerificationIDList": [],
      "TriggerValidGuest": {},
      "TagContainer": {},
      "CameraCenterEntityList": [],
      "SpawnConfig": {
        "EntitySpawnConfig": {}
      }
    },
    {
      "ID": 300007,
      "PosX": 280.0919,
      "PosY": 49.10093,
      "PosZ": 799.4116,
      "Name": "JigsawResult_TreasureBox",
      "RotY": 249.1637,
      "PropID": 60302,
      "ValueSource": {},
      "CampID": 4,
      "State": "Hidden",
      "CustomTriggerMap": {},
      "CustomTriggerMapV2": {},
      "BridgeStateRotations": [],
      "ChestID": 20331662,
      "DialogueGroups": [],
      "TalkDialogGroupIDList": [],
      "ServerInteractVerificationIDList": [],
      "TriggerValidGuest": {},
      "TagContainer": {},
      "CameraCenterEntityList": [],
      "SpawnConfig": {
        "EntitySpawnConfig": {}
      }
    },
    {
      "ID": 300008,
      "PosX": 280.0919,
      "PosY": 49.10093,
      "PosZ": 799.4116,
      "Name": "TreasureIcon",
      "RotY": 249.1637,
      "PropID": 211,
      "IsOverrideInitLevelGraph": true,
      "InitLevelGraph": "Config/Level/Maze/Chapter03/JigsawPuzzle/Maze_Prop_JigsawPuzzleTreasureGameplayIcon.json",
      "ValueSource": {
        "Values": [
          {
            "$type": "SharedString",
            "Key": "Chest",
            "Value": "321,300007"
          }
        ]
      },
      "CampID": 4,
      "CustomTriggerMap": {},
      "CustomTriggerMapV2": {},
      "BridgeStateRotations": [],
      "MappingInfoID": 10061,
      "DialogueGroups": [],
      "TalkDialogGroupIDList": [],
      "ServerInteractVerificationIDList": [],
      "TriggerValidGuest": {},
      "TagContainer": {},
      "CameraCenterEntityList": [],
      "SpawnConfig": {
        "EntitySpawnConfig": {}
      }
    }
  ],
  "NPCList": []
}