{
  "GroupGUID": "f05c5ebe-b0c6-4939-bb72-76b6d0876170",
  "GroupName": "MainMission8022401_25",
  "Category": "Mission",
  "LevelGraph": "Config/Level/GroupGraph/F20331001/Group_F20331001_G261.json",
  "AreaAnchorName": "LevelArea_P20331_F20331001_G261",
  "SaveType": "Reset",
  "OwnerMainMissionID": 8022401,
  "ValueSource": {},
  "ConflictIDList": [],
  "IsHoyoGroup": true,
  "ConflictWhiteList": [],
  "TagContainer": {},
  "AnchorList": [],
  "MonsterList": [],
  "PropList": [],
  "NPCList": []
}