{
  "GroupGUID": "3ae941b9-f0a6-49c4-b428-ed755fd17027",
  "GroupName": "MainMission8022402_New Group",
  "Category": "Mission",
  "LevelGraph": "Config/Level/GroupGraph/F20331001/Group_F20331001_G294.json",
  "AreaAnchorName": "LevelArea_P20331_F20331001_G294",
  "SaveType": "Reset",
  "OwnerMainMissionID": 8022402,
  "ValueSource": {},
  "ConflictIDList": [],
  "IsHoyoGroup": true,
  "ConflictWhiteList": [],
  "TagContainer": {},
  "AnchorList": [],
  "MonsterList": [],
  "PropList": [],
  "NPCList": []
}