{
  "GroupGUID": "08dec846-753b-4db9-b541-3163b3a7e647",
  "GroupName": "MainMission1032801_07",
  "Category": "Mission",
  "LevelGraph": "Config/Level/GroupGraph/F20331001/Group_F20331001_G125.json",
  "AreaAnchorName": "LevelArea_P20331_F20331001_G125",
  "SaveType": "Reset",
  "OwnerMainMissionID": 1032801,
  "ValueSource": {},
  "ConflictIDList": [],
  "IsHoyoGroup": true,
  "ConflictWhiteList": [],
  "TagContainer": {},
  "AnchorList": [
    {
      "ID": 1,
      "PosX": 232.6016,
      "PosY": -27.98033,
      "PosZ": 260.9,
      "Name": "Anchor1",
      "Usage": "Actor"
    }
  ],
  "MonsterList": [],
  "PropList": [
    {
      "ID": 300001,
      "PosX": 213.44,
      "PosY": -21.34,
      "PosZ": 286.61,
      "Name": "Prop1",
      "RotY": 300.0,
      "RotX": 335.0,
      "Scale": {
        "x": 6.0,
        "y": 6.0,
        "z": 6.0
      },
      "PropID": 103074,
      "ValueSource": {
        "Values": [
          {
            "$type": "SharedUint",
            "Key": "SDFTextID",
            "Value": 206579802
          }
        ]
      },
      "CampID": 4,
      "State": "Open",
      "CustomTriggerMap": {},
      "CustomTriggerMapV2": {},
      "BridgeStateRotations": [],
      "DialogueGroups": [],
      "TalkDialogGroupIDList": [],
      "ServerInteractVerificationIDList": [],
      "TriggerValidGuest": {},
      "TagContainer": {},
      "CameraCenterEntityList": [],
      "SpawnConfig": {
        "EntitySpawnConfig": {}
      }
    },
    {
      "ID": 300002,
      "PosX": 258.03,
      "PosY": -21.76,
      "PosZ": 276.31,
      "Name": "Prop2",
      "RotY": 60.0,
      "RotX": 340.0,
      "RotZ": 1.0E-6,
      "Scale": {
        "x": 6.0,
        "y": 6.0,
        "z": 6.0
      },
      "PropID": 103074,
      "ValueSource": {
        "Values": [
          {
            "$type": "SharedUint",
            "Key": "SDFTextID",
            "Value": 206579804
          }
        ]
      },
      "CampID": 4,
      "State": "Open",
      "CustomTriggerMap": {},
      "CustomTriggerMapV2": {},
      "BridgeStateRotations": [],
      "DialogueGroups": [],
      "TalkDialogGroupIDList": [],
      "ServerInteractVerificationIDList": [],
      "TriggerValidGuest": {},
      "TagContainer": {},
      "CameraCenterEntityList": [],
      "SpawnConfig": {
        "EntitySpawnConfig": {}
      }
    }
  ],
  "NPCList": []
}