{
  "GroupGUID": "df3b2b2e-46f1-42bc-a70e-677a00b19b12",
  "GroupName": "MainMission8021505_New Group",
  "Category": "Mission",
  "AreaAnchorName": "LevelArea_P20331_F20331001_G337",
  "SaveType": "Reset",
  "OwnerMainMissionID": 8021505,
  "ValueSource": {},
  "ConflictIDList": [],
  "IsHoyoGroup": true,
  "HoYoGroupType": "Container",
  "ConflictWhiteList": [],
  "TagContainer": {},
  "AnchorList": [],
  "MonsterList": [],
  "PropList": [],
  "NPCList": [
    {
      "ID": 400001,
      "PosX": -456.6099,
      "PosY": 4.780979,
      "PosZ": 815.1541,
      "Name": "NPC1",
      "RotY": 116.1744,
      "NPCID": 13333,
      "ValueSource": {},
      "DialogueGroups": [],
      "ServerInteractVerificationIDList": [],
      "MappingInfoID": 10069,
      "BoardShowList": [
        1,
        64,
        4
      ],
      "OverrideNPCName": {
        "Hash": -1908511749
      },
      "OverrideNPCTitle": {
        "Hash": 986452365
      },
      "TalkDialogGroupIDList": [],
      "DefaultIdleFreeStyleMotionID": 100040000,
      "OverrideSeriesID": 4294967295,
      "IsMapContent": true,
      "MiniMapIconType": 224,
      "InitialHiddenNodeList": [],
      "Dialog": {
        "LevelGraph": "Config/Level/NPCDialogue/P20331/F20331001_G337/DialogueMain_F20331001_G337_N400001.json",
        "PackList": []
      },
      "TagContainer": {},
      "CameraCenterEntityList": [],
      "SpawnConfig": {
        "EntitySpawnConfig": {}
      },
      "TriggerValidGuest": {}
    }
  ]
}