{
  "GroupGUID": "4fedf9af-bdf7-4dd2-aed6-a03f16595bee",
  "GroupName": "MainMission8022402_99",
  "Category": "Mission",
  "LevelGraph": "Config/Level/GroupGraph/F20331001/Group_F20331001_G384.json",
  "AreaAnchorName": "LevelArea_P20331_F20331001_G384",
  "SaveType": "Reset",
  "OwnerMainMissionID": 8022402,
  "ValueSource": {},
  "ConflictIDList": [],
  "IsHoyoGroup": true,
  "ConflictWhiteList": [],
  "TagContainer": {},
  "AnchorList": [],
  "MonsterList": [],
  "PropList": [],
  "NPCList": []
}