{
  "GroupGUID": "4facf474-1fce-4c6b-a621-07776e8cdb83",
  "GroupName": "New Group",
  "Category": "Atmosphere",
  "AreaAnchorName": "LevelArea_P20331_F20331001_G357",
  "SaveType": "Reset",
  "AtmosphereCondition": {
    "Conditions": [
      {
        "$type": "LevelGroupMissionSavedValueCondition",
        "MainMissionID": 8022402,
        "MissionSavedValue": {
          "Index": 1,
          "ValidValueParamList": [
            1,
            2,
            0
          ]
        },
        "Operation": "Equal",
        "Value": 1
      }
    ]
  },
  "IsPendedLoad": true,
  "LoadOnInitial": true,
  "ValueSource": {},
  "ConflictIDList": [],
  "IsHoyoGroup": true,
  "ConflictWhiteList": [],
  "TagContainer": {},
  "AnchorList": [],
  "MonsterList": [],
  "PropList": [],
  "NPCList": [
    {
      "ID": 400001,
      "PosX": 233.0532,
      "PosY": -27.89954,
      "PosZ": 277.9832,
      "Name": "NPC1",
      "RotY": 180.0,
      "NPCID": 2320,
      "ValueSource": {},
      "DialogueGroups": [],
      "ServerInteractVerificationIDList": [],
      "BoardShowList": [],
      "OverrideNPCName": {
        "Hash": -311003899
      },
      "TalkDialogGroupIDList": [],
      "InitialHiddenNodeList": [],
      "Dialog": {
        "LevelGraph": "Config/Level/NPCDialogue/P20331/F20331001_G357/DialogueMain_F20331001_G357_N400001.json",
        "PackList": []
      },
      "TagContainer": {},
      "CameraCenterEntityList": [],
      "SpawnConfig": {
        "EntitySpawnConfig": {}
      },
      "TriggerValidGuest": {}
    }
  ]
}