{
  "GroupGUID": "5c17eab5-bf1c-446c-ab5a-9bee7d46a290",
  "GroupName": "MainMission8022402_16",
  "Category": "Mission",
  "LevelGraph": "Config/Level/GroupGraph/F20331001/Group_F20331001_G374.json",
  "AreaAnchorName": "LevelArea_P20331_F20331001_G374",
  "SaveType": "Reset",
  "OwnerMainMissionID": 8022402,
  "ValueSource": {
    "Values": [
      {
        "$type": "SharedString",
        "Key": "Camera",
        "Value": "LevelArea_P20331_F20331001_G374,Anchor1"
      },
      {
        "$type": "SharedString",
        "Key": "LookAt",
        "Value": "374,300001"
      }
    ]
  },
  "ConflictIDList": [],
  "IsHoyoGroup": true,
  "ConflictWhiteList": [],
  "TagContainer": {},
  "AnchorList": [
    {
      "ID": 1,
      "PosX": -277.41,
      "PosY": 9.036,
      "PosZ": 836.1,
      "Name": "Anchor1",
      "Usage": "Camera",
      "CustomParameter": {
        "$type": "LevelAnchorCameraParameter"
      }
    }
  ],
  "MonsterList": [],
  "PropList": [
    {
      "ID": 300001,
      "PosX": -277.37,
      "PosY": 6.374623,
      "PosZ": 841.52,
      "Name": "Prop1",
      "PropID": 100,
      "ValueSource": {},
      "CampID": 4,
      "CustomTriggerMap": {},
      "CustomTriggerMapV2": {},
      "BridgeStateRotations": [],
      "DialogueGroups": [],
      "TalkDialogGroupIDList": [],
      "ServerInteractVerificationIDList": [],
      "TriggerValidGuest": {},
      "TagContainer": {},
      "CameraCenterEntityList": [],
      "SpawnConfig": {
        "EntitySpawnConfig": {}
      }
    }
  ],
  "NPCList": []
}