{
  "GroupGUID": "ecb1edc0-366a-4ed7-8d00-f1c352268988",
  "GroupName": "MainMission8022402_New Group",
  "Category": "Mission",
  "AreaAnchorName": "LevelArea_P20331_F20331001_G291",
  "SaveType": "Reset",
  "OwnerMainMissionID": 8022402,
  "ValueSource": {},
  "ConflictIDList": [],
  "IsHoyoGroup": true,
  "ConflictWhiteList": [],
  "TagContainer": {},
  "AnchorList": [
    {
      "ID": 1,
      "PosX": 0.17,
      "PosY": 0.506832,
      "PosZ": -17.39,
      "Name": "Anchor1",
      "RotY": 94.59809
    }
  ],
  "MonsterList": [],
  "PropList": [
    {
      "ID": 300001,
      "PosX": 231.452,
      "PosY": -27.336,
      "PosZ": 269.161,
      "Name": "Prop1",
      "Scale": {
        "x": 0.5,
        "y": 0.3,
        "z": 0.5
      },
      "PropID": 103036,
      "IsOverrideInitLevelGraph": true,
      "ValueSource": {},
      "Trigger": {
        "Radius": 3.0,
        "DimX": 1.0,
        "DimY": 1.0,
        "DimZ": 1.0,
        "PointList": []
      },
      "CampID": 4,
      "OverrideHintRange": 15.0,
      "CustomTriggerMap": {},
      "CustomTriggerMapV2": {},
      "BridgeStateRotations": [],
      "DialogueGroups": [],
      "TalkDialogGroupIDList": [],
      "ServerInteractVerificationIDList": [],
      "Dialog": {
        "LevelGraph": "Config/Level/PropDialogue/P20331/F20331001_G291/DialogueMain_F20331001_G291_P300001.json",
        "PackList": [],
        "EnableCondition": {
          "Conditions": [
            {
              "Type": "SubMission",
              "ID": 802240222
            }
          ]
        }
      },
      "InteractIconType": "CheckIcon",
      "InteractTitle": {
        "Hash": 459250549
      },
      "OverrideBoardShowList": [],
      "TriggerValidGuest": {},
      "TagContainer": {},
      "CameraCenterEntityList": [],
      "SpawnConfig": {
        "EntitySpawnConfig": {}
      }
    }
  ],
  "NPCList": []
}