{
  "GroupGUID": "1b14dab6-fd32-4d8d-9460-a6395cd4f3b8",
  "GroupName": "Room_B3_MPF",
  "LevelGraph": "Config/Level/GroupGraph/F20331001/Group_F20331001_G13.json",
  "AreaAnchorName": "LevelArea_P20331_F20331001_G13",
  "SaveDimensionFilter": {},
  "SavedValueCondition": {
    "Conditions": [],
    "Operation": "And"
  },
  "LoadSide": "Server",
  "LoadOnInitial": true,
  "ValueSource": {},
  "ConflictIDList": [],
  "IsHoyoGroup": true,
  "StreamingTemplateType": "None",
  "ConflictWhiteList": [],
  "TagContainer": {},
  "AnchorList": [
    {
      "ID": 1,
      "PosX": 402.9,
      "PosY": -15.6,
      "PosZ": 820.8,
      "Name": "pos1"
    },
    {
      "ID": 2,
      "PosX": 402.9,
      "PosY": -15.6,
      "PosZ": 842.6,
      "Name": "pos2"
    },
    {
      "ID": 3,
      "PosX": 338.16,
      "PosY": 56.45,
      "PosZ": 779.99,
      "Name": "LookAtPlatformCam",
      "RotY": 49.81807,
      "RotX": 39.28561,
      "RotZ": -1.0E-6,
      "Usage": "Camera",
      "CustomParameter": {
        "$type": "LevelAnchorCameraParameter"
      }
    },
    {
      "ID": 4,
      "PosX": 390.4,
      "PosY": 8.0,
      "PosZ": 810.6,
      "Name": "LookAtPlatformCam2",
      "RotY": 31.79433,
      "RotX": 39.93573,
      "Usage": "Camera",
      "CustomParameter": {
        "$type": "LevelAnchorCameraParameter"
      }
    },
    {
      "ID": 5,
      "PosX": 425.395,
      "PosY": 5.103313,
      "PosZ": 817.4611,
      "Name": "switch01cam",
      "RotY": 309.4652,
      "RotX": 42.38717,
      "RotZ": 1.6E-5,
      "Usage": "Camera",
      "CustomParameter": {
        "$type": "LevelAnchorCameraParameter",
        "fov": 45.0
      }
    }
  ],
  "MonsterList": [],
  "PropList": [
    {
      "ID": 300001,
      "PosX": 402.9,
      "PosY": -15.6,
      "PosZ": 842.6,
      "Name": "Prop1",
      "PropID": 103205,
      "ValueSource": {
        "Values": [
          {
            "$type": "SharedString",
            "Key": "TargetAnchor1",
            "Value": "LevelArea_P20331_F20331001_G13,pos1"
          },
          {
            "$type": "SharedString",
            "Key": "TargetAnchor2",
            "Value": "LevelArea_P20331_F20331001_G13,pos2"
          },
          {
            "$type": "SharedUint",
            "Key": "OnAnchor1ConnectorGroup",
            "Value": 32
          },
          {
            "$type": "SharedUint",
            "Key": "OnAnchor2ConnectorGroup",
            "Value": 34
          },
          {
            "$type": "SharedUint",
            "Key": "IsMovingPlatform",
            "Value": 2
          }
        ]
      },
      "CampID": 4,
      "CustomTriggerMap": {},
      "CustomTriggerMapV2": {},
      "BridgeStateRotations": [],
      "DialogueGroups": [],
      "TalkDialogGroupIDList": [],
      "ServerInteractVerificationIDList": [],
      "OverrideMapStateIcons": [
        {
          "State": "Open",
          "IconID": 193,
          "AnchorKey": "LevelArea_P20331_F20331001_G13,pos2"
        },
        {
          "IconID": 193,
          "AnchorKey": "LevelArea_P20331_F20331001_G13,pos1"
        }
      ],
      "TriggerValidGuest": {},
      "TagContainer": {},
      "CameraCenterEntityList": [],
      "SpawnConfig": {
        "EntitySpawnConfig": {}
      }
    },
    {
      "ID": 300002,
      "PosX": 417.05,
      "PosY": -18.86533,
      "PosZ": 837.543,
      "Name": "switch01",
      "RotY": 2.0E-6,
      "PropID": 103078,
      "ValueSource": {
        "Values": [
          {
            "$type": "SharedString",
            "Key": "OnInteractTriggerCustomString",
            "Value": "TriggerRoomB3MPF"
          },
          {
            "$type": "SharedString",
            "Key": "MPFVirtualCamera",
            "Value": "LevelArea_P20331_F20331001_G13,switch01cam"
          },
          {
            "$type": "SharedFloat",
            "Key": "DirForClose",
            "Value": 2.0
          },
          {
            "$type": "SharedFloat",
            "Key": "DirForOpen",
            "Value": 4.0
          },
          {
            "$type": "SharedString",
            "Key": "MPFProp",
            "Value": "13,300001"
          },
          {
            "$type": "SharedString",
            "Key": "LookAtAnchor",
            "Value": "LevelArea_P20331_F20331001_G13,switch01cam"
          },
          {
            "$type": "SharedString",
            "Key": "LookAtAnchor_Iso",
            "Value": "LevelArea_P20331_F20331001_G13,LookAtPlatformCam2"
          },
          {
            "$type": "SharedFloat",
            "Key": "UsePerspCam",
            "Value": 1.0
          },
          {
            "$type": "SharedString",
            "Key": "CaseFollowCamera",
            "Value": "LevelArea_P20331_F20331001_G11,Cam01_followcam"
          }
        ]
      },
      "CampID": 4,
      "CustomTriggerMap": {},
      "CustomTriggerMapV2": {},
      "BridgeStateRotations": [],
      "DialogueGroups": [],
      "TalkDialogGroupIDList": [],
      "ServerInteractVerificationIDList": [],
      "TriggerValidGuest": {},
      "TagContainer": {},
      "CameraCenterEntityList": [],
      "SpawnConfig": {
        "EntitySpawnConfig": {}
      }
    },
    {
      "ID": 300003,
      "PosX": 413.7,
      "PosY": -25.57826,
      "PosZ": 859.1,
      "Name": "switch02",
      "RotY": 270.0001,
      "PropID": 103078,
      "ValueSource": {
        "Values": [
          {
            "$type": "SharedString",
            "Key": "OnInteractTriggerCustomString",
            "Value": "TriggerRoomB3MPF"
          },
          {
            "$type": "SharedFloat",
            "Key": "DirForClose",
            "Value": 4.0
          },
          {
            "$type": "SharedFloat",
            "Key": "DirForOpen",
            "Value": 2.0
          },
          {
            "$type": "SharedString",
            "Key": "MPFProp",
            "Value": "13,300001"
          },
          {
            "$type": "SharedString",
            "Key": "LookAtAnchor",
            "Value": "LevelArea_P20331_F20331001_G13,LookAtPlatformCam"
          },
          {
            "$type": "SharedString",
            "Key": "LookAtAnchor_Iso",
            "Value": "LevelArea_P20331_F20331001_G13,LookAtPlatformCam"
          },
          {
            "$type": "SharedString",
            "Key": "CaseFollowCamera",
            "Value": "LevelArea_P20331_F20331001_G11,Cam01_followcam"
          }
        ]
      },
      "CampID": 4,
      "CustomTriggerMap": {},
      "CustomTriggerMapV2": {},
      "BridgeStateRotations": [],
      "DialogueGroups": [],
      "TalkDialogGroupIDList": [],
      "ServerInteractVerificationIDList": [],
      "TriggerValidGuest": {},
      "TagContainer": {},
      "CameraCenterEntityList": [],
      "SpawnConfig": {
        "EntitySpawnConfig": {}
      }
    },
    {
      "ID": 300006,
      "PosX": 405.357,
      "PosY": -16.087,
      "PosZ": 823.7,
      "Name": "Anchor1_Iso_Eff_01",
      "RotY": 90.0,
      "PropID": 103085,
      "ValueSource": {
        "Values": [
          {
            "$type": "SharedString",
            "Key": "GroupEventStringForEmit",
            "Value": "EffectEmit_OnAnchor1_Case1"
          }
        ]
      },
      "CampID": 4,
      "CustomTriggerMap": {},
      "CustomTriggerMapV2": {},
      "BridgeStateRotations": [],
      "DialogueGroups": [],
      "TalkDialogGroupIDList": [],
      "ServerInteractVerificationIDList": [],
      "TriggerValidGuest": {},
      "TagContainer": {},
      "CameraCenterEntityList": [],
      "SpawnConfig": {
        "EntitySpawnConfig": {}
      }
    },
    {
      "ID": 300004,
      "PosX": 412.111,
      "PosY": -25.429,
      "PosZ": 856.2,
      "Name": "Anchor2_Iso_Eff_01",
      "PropID": 103085,
      "ValueSource": {
        "Values": [
          {
            "$type": "SharedString",
            "Key": "GroupEventStringForEmit",
            "Value": "EffectEmit_OnAnchor2_Case1"
          }
        ]
      },
      "CampID": 4,
      "CustomTriggerMap": {},
      "CustomTriggerMapV2": {},
      "BridgeStateRotations": [],
      "DialogueGroups": [],
      "TalkDialogGroupIDList": [],
      "ServerInteractVerificationIDList": [],
      "TriggerValidGuest": {},
      "TagContainer": {},
      "CameraCenterEntityList": [],
      "SpawnConfig": {
        "EntitySpawnConfig": {}
      }
    },
    {
      "ID": 300005,
      "PosX": 405.86,
      "PosY": -16.076,
      "PosZ": 839.96,
      "Name": "Anchor2_Iso_Eff_02",
      "RotY": 90.0,
      "PropID": 103085,
      "ValueSource": {
        "Values": [
          {
            "$type": "SharedString",
            "Key": "GroupEventStringForEmit",
            "Value": "EffectEmit_OnAnchor2_Case1"
          }
        ]
      },
      "CampID": 4,
      "CustomTriggerMap": {},
      "CustomTriggerMapV2": {},
      "BridgeStateRotations": [],
      "DialogueGroups": [],
      "TalkDialogGroupIDList": [],
      "ServerInteractVerificationIDList": [],
      "TriggerValidGuest": {},
      "TagContainer": {},
      "CameraCenterEntityList": [],
      "SpawnConfig": {
        "EntitySpawnConfig": {}
      }
    },
    {
      "ID": 300007,
      "PosX": 402.64,
      "PosY": -15.77,
      "PosZ": 828.16,
      "Name": "TraclSohm_Eff_01",
      "RotY": 180.0,
      "Scale": {
        "x": 1.0,
        "y": 1.0,
        "z": 2.191644
      },
      "PropID": 103092,
      "ValueSource": {
        "Values": [
          {
            "$type": "SharedString",
            "Key": "GroupEventStringForOpen",
            "Value": "EffectOpen_OnAnchor1_Case1"
          },
          {
            "$type": "SharedString",
            "Key": "GroupEventStringForClose",
            "Value": "EffectClose_OnAnchor"
          }
        ]
      },
      "CampID": 4,
      "CustomTriggerMap": {},
      "CustomTriggerMapV2": {},
      "BridgeStateRotations": [],
      "DialogueGroups": [],
      "TalkDialogGroupIDList": [],
      "ServerInteractVerificationIDList": [],
      "TriggerValidGuest": {},
      "TagContainer": {},
      "CameraCenterEntityList": [],
      "SpawnConfig": {
        "EntitySpawnConfig": {}
      }
    },
    {
      "ID": 300008,
      "PosX": 402.64,
      "PosY": -15.77,
      "PosZ": 828.16,
      "Name": "TraclSohm_Eff_02",
      "Scale": {
        "x": 1.0,
        "y": 1.0,
        "z": 2.191644
      },
      "PropID": 103092,
      "ValueSource": {
        "Values": [
          {
            "$type": "SharedString",
            "Key": "GroupEventStringForOpen",
            "Value": "EffectOpen_OnAnchor2_Case1"
          },
          {
            "$type": "SharedString",
            "Key": "GroupEventStringForClose",
            "Value": "EffectClose_OnAnchor"
          }
        ]
      },
      "CampID": 4,
      "CustomTriggerMap": {},
      "CustomTriggerMapV2": {},
      "BridgeStateRotations": [],
      "DialogueGroups": [],
      "TalkDialogGroupIDList": [],
      "ServerInteractVerificationIDList": [],
      "TriggerValidGuest": {},
      "TagContainer": {},
      "CameraCenterEntityList": [],
      "SpawnConfig": {
        "EntitySpawnConfig": {}
      }
    },
    {
      "ID": 300009,
      "PosX": 405.357,
      "PosY": -16.087,
      "PosZ": 823.7,
      "Name": "Cam02_Anchor1_Iso_Eff_01",
      "RotY": 90.0,
      "PropID": 103085,
      "ValueSource": {
        "Values": [
          {
            "$type": "SharedString",
            "Key": "GroupEventStringForEmit",
            "Value": "EffectEmit_OnAnchor1_Case2"
          }
        ]
      },
      "CampID": 4,
      "CustomTriggerMap": {},
      "CustomTriggerMapV2": {},
      "BridgeStateRotations": [],
      "DialogueGroups": [],
      "TalkDialogGroupIDList": [],
      "ServerInteractVerificationIDList": [],
      "TriggerValidGuest": {},
      "TagContainer": {},
      "CameraCenterEntityList": [],
      "SpawnConfig": {
        "EntitySpawnConfig": {}
      }
    },
    {
      "ID": 300010,
      "PosX": 405.86,
      "PosY": -16.076,
      "PosZ": 839.96,
      "Name": "Cam02_Anchor2_Iso_Eff_02",
      "RotY": 90.0,
      "PropID": 103085,
      "ValueSource": {
        "Values": [
          {
            "$type": "SharedString",
            "Key": "GroupEventStringForEmit",
            "Value": "EffectEmit_OnAnchor2_Case2"
          }
        ]
      },
      "CampID": 4,
      "CustomTriggerMap": {},
      "CustomTriggerMapV2": {},
      "BridgeStateRotations": [],
      "DialogueGroups": [],
      "TalkDialogGroupIDList": [],
      "ServerInteractVerificationIDList": [],
      "TriggerValidGuest": {},
      "TagContainer": {},
      "CameraCenterEntityList": [],
      "SpawnConfig": {
        "EntitySpawnConfig": {}
      }
    },
    {
      "ID": 300011,
      "PosX": 402.64,
      "PosY": -15.77,
      "PosZ": 828.16,
      "Name": "Cam02_TraclSohm_Eff_01",
      "RotY": 180.0,
      "Scale": {
        "x": 1.0,
        "y": 1.0,
        "z": 1.55
      },
      "PropID": 103092,
      "ValueSource": {
        "Values": [
          {
            "$type": "SharedString",
            "Key": "GroupEventStringForOpen",
            "Value": "EffectOpen_OnAnchor1_Case2"
          },
          {
            "$type": "SharedString",
            "Key": "GroupEventStringForClose",
            "Value": "EffectClose_OnAnchor"
          }
        ]
      },
      "CampID": 4,
      "CustomTriggerMap": {},
      "CustomTriggerMapV2": {},
      "BridgeStateRotations": [],
      "DialogueGroups": [],
      "TalkDialogGroupIDList": [],
      "ServerInteractVerificationIDList": [],
      "TriggerValidGuest": {},
      "TagContainer": {},
      "CameraCenterEntityList": [],
      "SpawnConfig": {
        "EntitySpawnConfig": {}
      }
    },
    {
      "ID": 300012,
      "PosX": 402.64,
      "PosY": -15.77,
      "PosZ": 828.16,
      "Name": "Cam02_TraclSohm_Eff_02",
      "Scale": {
        "x": 1.0,
        "y": 1.0,
        "z": 1.55
      },
      "PropID": 103092,
      "ValueSource": {
        "Values": [
          {
            "$type": "SharedString",
            "Key": "GroupEventStringForOpen",
            "Value": "EffectOpen_OnAnchor2_Case2"
          },
          {
            "$type": "SharedString",
            "Key": "GroupEventStringForClose",
            "Value": "EffectClose_OnAnchor"
          }
        ]
      },
      "CampID": 4,
      "CustomTriggerMap": {},
      "CustomTriggerMapV2": {},
      "BridgeStateRotations": [],
      "DialogueGroups": [],
      "TalkDialogGroupIDList": [],
      "ServerInteractVerificationIDList": [],
      "TriggerValidGuest": {},
      "TagContainer": {},
      "CameraCenterEntityList": [],
      "SpawnConfig": {
        "EntitySpawnConfig": {}
      }
    },
    {
      "ID": 300013,
      "PosX": 402.89,
      "PosY": -15.98,
      "PosZ": 814.82,
      "Name": "Cam02_Anchor1_Iso_Eff_special",
      "PropID": 103085,
      "ValueSource": {
        "Values": [
          {
            "$type": "SharedString",
            "Key": "GroupEventStringForEmit",
            "Value": "EffectEmit_OnAnchor1_Special_Case2"
          }
        ]
      },
      "CampID": 4,
      "CustomTriggerMap": {},
      "CustomTriggerMapV2": {},
      "BridgeStateRotations": [],
      "DialogueGroups": [],
      "TalkDialogGroupIDList": [],
      "ServerInteractVerificationIDList": [],
      "TriggerValidGuest": {},
      "TagContainer": {},
      "CameraCenterEntityList": [],
      "SpawnConfig": {
        "EntitySpawnConfig": {}
      }
    }
  ],
  "NPCList": []
}