{
  "GroupGUID": "a11a1b67-566b-4a5b-817e-cf15a3df4825",
  "GroupName": "Tpl_OrigamiBird_Normal",
  "LevelGraph": "Config/Level/GroupTemplateGraph/Puzzle/OrigamiBird/OrigamiBird_ThreeTimesALL.json",
  "AreaAnchorName": "LevelArea_P20331_F20331001_G176",
  "SaveDimensionFilter": {},
  "SavedValueCondition": {
    "Conditions": [],
    "Operation": "And"
  },
  "IsPendedUnload": true,
  "LoadSide": "Server",
  "ValueSource": {
    "Values": [
      {
        "$type": "SharedString",
        "Key": "TriggerPerformance",
        "Value": "414032101"
      }
    ]
  },
  "ConflictIDList": [],
  "IsHoyoGroup": true,
  "ConflictWhiteList": [],
  "TagContainer": {},
  "AnchorList": [],
  "MonsterList": [],
  "PropList": [
    {
      "ID": 300001,
      "PosX": 31.084,
      "PosY": 2.8869,
      "PosZ": -8.208,
      "Name": "Prop1",
      "RotY": 67.24743,
      "RotX": 3.0E-6,
      "RotZ": -1.0E-6,
      "Scale": {
        "x": 0.8,
        "y": 0.8,
        "z": 0.8
      },
      "PropID": 103026,
      "ValueSource": {
        "Values": [
          {
            "$type": "SharedString",
            "Key": "OverrideButtonText",
            "Value": "MazeText_Maze_OrigamiBird_Normal_PullOut"
          },
          {
            "$type": "SharedString",
            "Key": "OverrideButtonIcon",
            "Value": "SpriteOutput/TalkIcon/PickUpIcon.png"
          },
          {
            "$type": "SharedUint",
            "Key": "DefaultIsOverrideButton"
          }
        ]
      },
      "CampID": 4,
      "State": "EventClose",
      "CustomTriggerMap": {},
      "CustomTriggerMapV2": {
        "InteractTrigger": {
          "Radius": 4.0,
          "DimX": 2.0,
          "DimY": 2.0,
          "DimZ": 2.0,
          "PointList": []
        }
      },
      "BridgeStateRotations": [],
      "DialogueGroups": [],
      "TalkDialogGroupIDList": [],
      "ServerInteractVerificationIDList": [],
      "TriggerValidGuest": {},
      "TagContainer": {},
      "CameraCenterEntityList": [],
      "SpawnConfig": {
        "EntitySpawnConfig": {}
      }
    },
    {
      "ID": 300002,
      "PosX": 31.303,
      "PosY": 2.456,
      "PosZ": -8.724,
      "Name": "Prop2",
      "RotY": 68.38712,
      "RotX": 357.4678,
      "RotZ": 272.9076,
      "Scale": {
        "x": 0.8,
        "y": 0.8,
        "z": 0.8
      },
      "PropID": 103026,
      "ValueSource": {
        "Values": [
          {
            "$type": "SharedString",
            "Key": "OverrideButtonText",
            "Value": "MazeText_Maze_OrigamiBird_Normal_PullOut"
          },
          {
            "$type": "SharedString",
            "Key": "OverrideButtonIcon",
            "Value": "SpriteOutput/TalkIcon/PickUpIcon.png"
          },
          {
            "$type": "SharedUint",
            "Key": "DefaultIsOverrideButton"
          }
        ]
      },
      "CampID": 4,
      "State": "EventClose",
      "CustomTriggerMap": {},
      "CustomTriggerMapV2": {
        "InteractTrigger": {
          "Radius": 4.0,
          "PointList": []
        }
      },
      "BridgeStateRotations": [],
      "DialogueGroups": [],
      "TalkDialogGroupIDList": [],
      "ServerInteractVerificationIDList": [],
      "TriggerValidGuest": {},
      "TagContainer": {},
      "CameraCenterEntityList": [],
      "SpawnConfig": {
        "EntitySpawnConfig": {}
      }
    },
    {
      "ID": 300003,
      "PosX": 30.874,
      "PosY": 2.328,
      "PosZ": -7.707,
      "Name": "Prop3",
      "RotY": 67.24742,
      "RotX": 5.0E-6,
      "RotZ": 89.5374,
      "Scale": {
        "x": 0.8,
        "y": 0.8,
        "z": 0.8
      },
      "PropID": 103026,
      "ValueSource": {
        "Values": [
          {
            "$type": "SharedString",
            "Key": "OverrideButtonText",
            "Value": "MazeText_Maze_OrigamiBird_Normal_PullOut"
          },
          {
            "$type": "SharedString",
            "Key": "OverrideButtonIcon",
            "Value": "SpriteOutput/TalkIcon/PickUpIcon.png"
          },
          {
            "$type": "SharedUint",
            "Key": "DefaultIsOverrideButton"
          }
        ]
      },
      "CampID": 4,
      "State": "EventClose",
      "CustomTriggerMap": {},
      "CustomTriggerMapV2": {
        "InteractTrigger": {
          "Radius": 4.0,
          "DimX": 2.0,
          "DimY": 2.0,
          "DimZ": 2.0,
          "PointList": []
        }
      },
      "BridgeStateRotations": [],
      "DialogueGroups": [],
      "TalkDialogGroupIDList": [],
      "ServerInteractVerificationIDList": [],
      "TriggerValidGuest": {},
      "TagContainer": {},
      "CameraCenterEntityList": [],
      "SpawnConfig": {
        "EntitySpawnConfig": {}
      }
    },
    {
      "ID": 300004,
      "PosX": 35.215,
      "PosY": 1.647382,
      "PosZ": -3.916,
      "Name": "Prop4",
      "RotX": 334.0599,
      "Scale": {},
      "PropID": 103026,
      "ValueSource": {
        "Values": []
      },
      "CampID": 4,
      "State": "EventClose",
      "EventID": 20331701,
      "CustomTriggerMap": {},
      "CustomTriggerMapV2": {
        "InteractTrigger": {
          "DimX": 2.0,
          "DimY": 2.0,
          "DimZ": 2.0,
          "PointList": []
        }
      },
      "BridgeStateRotations": [],
      "DialogueGroups": [],
      "TalkDialogGroupIDList": [],
      "ServerInteractVerificationIDList": [],
      "TriggerValidGuest": {},
      "TagContainer": {},
      "CameraCenterEntityList": [],
      "SpawnConfig": {
        "EntitySpawnConfig": {}
      }
    },
    {
      "ID": 300005,
      "PosX": 29.2568,
      "PosY": 1.704433,
      "PosZ": -9.018951,
      "Name": "Prop5",
      "PropID": 211,
      "IsOverrideInitLevelGraph": true,
      "ValueSource": {
        "Values": []
      },
      "CampID": 4,
      "State": "Open",
      "CustomTriggerMap": {},
      "CustomTriggerMapV2": {
        "InteractTrigger": {
          "Radius": 15.0,
          "PointList": []
        }
      },
      "BridgeStateRotations": [],
      "MappingInfoID": 10055,
      "DialogueGroups": [],
      "TalkDialogGroupIDList": [],
      "ServerInteractVerificationIDList": [],
      "OverrideMapIconType": 158,
      "OverrideMapStateIcons": [
        {
          "IconID": 158
        }
      ],
      "TriggerValidGuest": {},
      "TagContainer": {},
      "CameraCenterEntityList": [],
      "SpawnConfig": {
        "EntitySpawnConfig": {}
      }
    }
  ],
  "NPCList": [
    {
      "ID": 400001,
      "PosX": 31.084,
      "PosY": 2.899767,
      "PosZ": -8.208,
      "Name": "NPC1",
      "RotY": 270.0,
      "NPCID": 3029,
      "ValueSource": {
        "Values": []
      },
      "CampID": 1,
      "StaticNPC": true,
      "DialogueGroups": [],
      "ServerInteractVerificationIDList": [],
      "BoardShowList": [
        2,
        4,
        8
      ],
      "TalkDialogGroupIDList": [],
      "DefaultAnimationType": "IdleState",
      "DefaultIdleFreeStyleMotionID": 900090266,
      "InitialHiddenNodeList": [],
      "TagContainer": {},
      "CameraCenterEntityList": [],
      "SpawnConfig": {
        "EntitySpawnConfig": {},
        "CaptureDistanceTolerance": 10.0
      },
      "IsClientOnly": true,
      "TriggerValidGuest": {}
    }
  ]
}