{
  "GroupGUID": "5bf1ea84-82fb-4193-8956-a112f161caea",
  "GroupName": "MainMission8021505_New Group",
  "Category": "Mission",
  "LevelGraph": "Config/Level/GroupGraph/F20331001/Group_F20331001_G335.json",
  "AreaAnchorName": "LevelArea_P20331_F20331001_G335",
  "SaveType": "Reset",
  "OwnerMainMissionID": 8021505,
  "ValueSource": {},
  "ConflictIDList": [],
  "IsHoyoGroup": true,
  "ConflictWhiteList": [],
  "TagContainer": {},
  "AnchorList": [
    {
      "ID": 1,
      "PosX": -440.4326,
      "PosY": -111.0186,
      "PosZ": 501.5652,
      "Name": "Anchor1",
      "RotY": 321.7904,
      "Usage": "Actor"
    }
  ],
  "MonsterList": [],
  "PropList": [],
  "NPCList": [
    {
      "ID": 400001,
      "PosX": -440.8181,
      "PosY": -111.0186,
      "PosZ": 502.5822,
      "Name": "NPC1",
      "RotY": 158.5205,
      "NPCID": 13333,
      "ValueSource": {},
      "DialogueGroups": [],
      "ServerInteractVerificationIDList": [],
      "BoardShowList": [],
      "TalkDialogGroupIDList": [],
      "DefaultIdleFreeStyleMotionID": 100040000,
      "OverrideSeriesID": 4294967295,
      "InitialHiddenNodeList": [],
      "TagContainer": {},
      "CameraCenterEntityList": [],
      "SpawnConfig": {
        "EntitySpawnConfig": {}
      },
      "TriggerValidGuest": {}
    }
  ]
}