{
  "GroupGUID": "d7690445-11b4-4a7b-a862-12d63edf4d87",
  "GroupName": "Sound",
  "AreaAnchorName": "LevelArea_P20331_F20331001_G309",
  "SaveType": "Reset",
  "SavedValueCondition": {
    "Conditions": [],
    "Operation": "And"
  },
  "LoadOnInitial": true,
  "ValueSource": {},
  "ConflictIDList": [],
  "IsHoyoGroup": true,
  "HoYoGroupType": "Container",
  "ConflictWhiteList": [],
  "TagContainer": {
    "List": [
      {
        "Tag": "Group.Audio.Sound",
        "TagHash": 1757672304
      }
    ]
  },
  "AnchorList": [],
  "MonsterList": [],
  "PropList": [],
  "NPCList": []
}