{
  "GroupGUID": "5e5a6e2d-a1a3-443a-8849-d48a3d521621",
  "GroupName": "MainMission8021121_NPC2",
  "Category": "Mission",
  "LevelGraph": "Config/Level/GroupGraph/F44302001/Group_F44302001_G16.json",
  "AreaAnchorName": "LevelArea_P44302_F44302001_G16",
  "SaveType": "Reset",
  "OwnerMainMissionID": 8021121,
  "ValueSource": {},
  "ConflictIDList": [],
  "IsHoyoGroup": true,
  "ConflictWhiteList": [],
  "TagContainer": {},
  "AnchorList": [],
  "MonsterList": [],
  "PropList": [
    {
      "ID": 300001,
      "PosX": 95.65,
      "PosY": 98.0,
      "PosZ": 81.89,
      "Name": "Prop1",
      "RotY": 270.1,
      "PropID": 100,
      "ValueSource": {},
      "CampID": 4,
      "CustomTriggerMap": {},
      "CustomTriggerMapV2": {
        "MissionTrigger": {
          "Radius": 2.0,
          "PointList": []
        }
      },
      "BridgeStateRotations": [],
      "DialogueGroups": [],
      "TalkDialogGroupIDList": [],
      "ServerInteractVerificationIDList": [],
      "TriggerValidGuest": {},
      "TagContainer": {},
      "CameraCenterEntityList": [],
      "SpawnConfig": {
        "EntitySpawnConfig": {}
      }
    },
    {
      "ID": 300002,
      "PosX": 93.62,
      "PosY": 99.42,
      "PosZ": 90.34,
      "Name": "Prop2",
      "RotY": 180.0,
      "PropID": 103074,
      "ValueSource": {
        "Values": [
          {
            "$type": "SharedUint",
            "Key": "SDFTextID",
            "Value": 1604222008
          },
          {
            "$type": "SharedUint",
            "Key": "AnimatorParam",
            "Value": 12
          }
        ]
      },
      "CampID": 4,
      "State": "Open",
      "CustomTriggerMap": {},
      "CustomTriggerMapV2": {},
      "BridgeStateRotations": [],
      "DialogueGroups": [],
      "TalkDialogGroupIDList": [],
      "ServerInteractVerificationIDList": [],
      "TriggerValidGuest": {},
      "TagContainer": {},
      "CameraCenterEntityList": [],
      "SpawnConfig": {
        "EntitySpawnConfig": {}
      }
    }
  ],
  "NPCList": [
    {
      "ID": 400001,
      "PosX": 95.65,
      "PosY": 98.0,
      "PosZ": 81.89,
      "Name": "NPC1",
      "RotY": 270.1,
      "NPCID": 2307,
      "ValueSource": {},
      "DialogueGroups": [],
      "ServerInteractVerificationIDList": [],
      "BoardShowList": [],
      "TalkDialogGroupIDList": [],
      "DefaultIdleFreeStyleMotionID": 200570000,
      "InitialHiddenNodeList": [],
      "TagContainer": {},
      "CameraCenterEntityList": [],
      "SpawnConfig": {
        "EntitySpawnConfig": {}
      },
      "TriggerValidGuest": {}
    }
  ]
}