{
  "GroupGUID": "0868c741-af8b-46c8-956a-64f37d32f9f2",
  "GroupName": "MainMission8021121_NPC3",
  "Category": "Mission",
  "LevelGraph": "Config/Level/GroupGraph/F44302001/Group_F44302001_G18.json",
  "AreaAnchorName": "LevelArea_P44302_F44302001_G18",
  "SaveType": "Reset",
  "IsPendedUnload": true,
  "OwnerMainMissionID": 8021121,
  "ValueSource": {},
  "ConflictIDList": [],
  "IsHoyoGroup": true,
  "ConflictWhiteList": [],
  "TagContainer": {},
  "AnchorList": [],
  "MonsterList": [],
  "PropList": [
    {
      "ID": 300001,
      "PosX": 60.21,
      "PosY": 118.9,
      "PosZ": 114.58,
      "Name": "Prop1",
      "RotY": 90.0,
      "RotX": 1.0E-5,
      "RotZ": 270.0,
      "PropID": 100,
      "ValueSource": {},
      "CampID": 4,
      "CustomTriggerMap": {},
      "CustomTriggerMapV2": {
        "MissionTrigger": {
          "Radius": 3.0,
          "PointList": []
        }
      },
      "BridgeStateRotations": [],
      "DialogueGroups": [],
      "TalkDialogGroupIDList": [],
      "ServerInteractVerificationIDList": [],
      "TriggerValidGuest": {},
      "TagContainer": {},
      "CameraCenterEntityList": [],
      "SpawnConfig": {
        "EntitySpawnConfig": {}
      }
    },
    {
      "ID": 300002,
      "PosX": 79.563,
      "PosY": 120.85,
      "PosZ": 113.15,
      "Name": "Prop2",
      "RotY": 270.0,
      "RotX": -5.1E-5,
      "RotZ": 90.0,
      "PropID": 103074,
      "ValueSource": {
        "Values": [
          {
            "$type": "SharedUint",
            "Key": "SDFTextID",
            "Value": 1604222010
          },
          {
            "$type": "SharedUint",
            "Key": "AnimatorParam",
            "Value": 10
          }
        ]
      },
      "CampID": 4,
      "State": "Open",
      "CustomTriggerMap": {},
      "CustomTriggerMapV2": {},
      "BridgeStateRotations": [],
      "DialogueGroups": [],
      "TalkDialogGroupIDList": [],
      "ServerInteractVerificationIDList": [],
      "TriggerValidGuest": {},
      "TagContainer": {},
      "CameraCenterEntityList": [],
      "SpawnConfig": {
        "EntitySpawnConfig": {}
      }
    }
  ],
  "NPCList": [
    {
      "ID": 400001,
      "PosX": 60.21,
      "PosY": 118.9,
      "PosZ": 114.58,
      "Name": "NPC1",
      "RotY": 90.00001,
      "NPCID": 2307,
      "ValueSource": {},
      "DialogueGroups": [],
      "ServerInteractVerificationIDList": [],
      "BoardShowList": [],
      "TalkDialogGroupIDList": [],
      "DefaultIdleFreeStyleMotionID": 200570000,
      "InitialHiddenNodeList": [],
      "TagContainer": {},
      "CameraCenterEntityList": [],
      "SpawnConfig": {
        "EntitySpawnConfig": {}
      },
      "TriggerValidGuest": {}
    }
  ]
}