{
  "GroupGUID": "a3b7eee4-3ac4-4627-a854-26531c2f385d",
  "GroupName": "MainMission",
  "AreaAnchorName": "LevelArea_P40231_F40231003_G17",
  "SaveType": "Reset",
  "LoadCondition": {
    "Conditions": [
      {
        "Type": "SubMission",
        "ID": 102140102
      }
    ]
  },
  "UnloadCondition": {
    "Conditions": [
      {
        "Type": "SubMission",
        "Phase": "Finish",
        "ID": 102140102
      }
    ]
  },
  "ConflictIDList": [],
  "AnchorList": [
    {
      "ID": 1,
      "PosX": -132.01,
      "PosY": 14.44232,
      "PosZ": 4.880518,
      "Name": "Anchor1",
      "RotY": 269.6565,
      "RotX": 11.10397,
      "RotZ": 359.9651,
      "Usage": "Camera"
    },
    {
      "ID": 2,
      "PosX": -115.8986,
      "PosY": 14.01739,
      "PosZ": 5.264564,
      "Name": "Anchor2",
      "RotY": 269.3776,
      "RotX": 17.05233,
      "RotZ": -0.002124,
      "Usage": "Camera"
    }
  ],
  "MonsterList": [],
  "PropList": [
    {
      "ID": 300001,
      "PosX": -143.87,
      "PosY": 11.90033,
      "PosZ": 4.81,
      "Name": "Prop1",
      "PropID": 100,
      "IsOverrideInitLevelGraph": true,
      "Trigger": {
        "Shape": "Box",
        "Radius": 16.0,
        "DimX": 50.0,
        "DimY": 1.0,
        "DimZ": 13.0,
        "PointList": []
      },
      "CampID": 4,
      "CustomTriggerMap": {},
      "BridgeStateRotations": [],
      "DialogueGroups": [],
      "TalkDialogGroupIDList": [],
      "ServerInteractVerificationIDList": []
    },
    {
      "ID": 300002,
      "PosX": -121.13,
      "PosY": 11.90033,
      "PosZ": 4.78,
      "Name": "Prop2",
      "PropID": 100,
      "IsOverrideInitLevelGraph": true,
      "Trigger": {
        "Shape": "Box",
        "Radius": 16.0,
        "DimX": 10.0,
        "DimY": 1.0,
        "DimZ": 10.0,
        "PointList": []
      },
      "CampID": 4,
      "CustomTriggerMap": {},
      "BridgeStateRotations": [],
      "DialogueGroups": [],
      "TalkDialogGroupIDList": [],
      "ServerInteractVerificationIDList": []
    }
  ],
  "NPCList": [
    {
      "ID": 400001,
      "PosX": -137.95,
      "PosY": 11.90033,
      "PosZ": 4.9,
      "IsDelete": true,
      "Name": "NPC1",
      "RotY": 276.8004,
      "NPCID": 1992,
      "DialogueGroups": [],
      "ServerInteractVerificationIDList": [],
      "BoardShowList": [],
      "TalkDialogGroupIDList": [],
      "DefaultIdleFreeStyleMotionID": 380020000,
      "InitialHiddenNodeList": []
    },
    {
      "ID": 400002,
      "PosX": -140.1,
      "PosY": 11.83937,
      "PosZ": 3.98,
      "Name": "NPC2",
      "RotY": 290.5819,
      "NPCID": 1990,
      "LevelGraph": "Config/Level/NPC/F40231003_G17/NPC_F40231003_G17_N400002.json",
      "DialogueGroups": [],
      "ServerInteractVerificationIDList": [],
      "BoardShowList": [],
      "TalkDialogGroupIDList": [],
      "DefaultAnimationType": "IdleState",
      "InitialHiddenNodeList": []
    },
    {
      "ID": 400003,
      "PosX": -138.82,
      "PosY": 11.83937,
      "PosZ": 2.6,
      "Name": "NPC3",
      "RotY": 280.8369,
      "NPCID": 1207,
      "DialogueGroups": [],
      "ServerInteractVerificationIDList": [],
      "BoardShowList": [],
      "TalkDialogGroupIDList": [],
      "DefaultIdleFreeStyleMotionID": 312080231,
      "InitialHiddenNodeList": []
    },
    {
      "ID": 400004,
      "PosX": -139.59,
      "PosY": 11.83938,
      "PosZ": 6.51,
      "Name": "NPC4",
      "RotY": 245.2772,
      "NPCID": 1004,
      "DialogueGroups": [],
      "ServerInteractVerificationIDList": [],
      "BoardShowList": [],
      "TalkDialogGroupIDList": [],
      "DefaultIdleFreeStyleMotionID": 310040000,
      "InitialHiddenNodeList": []
    },
    {
      "ID": 400005,
      "PosX": -144.125,
      "PosY": 11.83937,
      "PosZ": 2.731,
      "Name": "NPC5",
      "RotY": 74.1558,
      "NPCID": 2001,
      "DialogueGroups": [],
      "ServerInteractVerificationIDList": [],
      "BoardShowList": [],
      "TalkDialogGroupIDList": [],
      "DefaultIdleFreeStyleMotionID": 200040227,
      "InitialHiddenNodeList": []
    },
    {
      "ID": 400006,
      "PosX": -144.17,
      "PosY": 11.83938,
      "PosZ": 6.84,
      "Name": "NPC6",
      "RotY": 117.9288,
      "NPCID": 2001,
      "DialogueGroups": [],
      "ServerInteractVerificationIDList": [],
      "BoardShowList": [],
      "TalkDialogGroupIDList": [],
      "DefaultIdleFreeStyleMotionID": 200040227,
      "InitialHiddenNodeList": []
    },
    {
      "ID": 400007,
      "PosX": -144.59,
      "PosY": 11.83937,
      "PosZ": 4.679927,
      "Name": "NPC7",
      "RotY": 88.30357,
      "NPCID": 2003,
      "DialogueGroups": [],
      "ServerInteractVerificationIDList": [],
      "BoardShowList": [],
      "TalkDialogGroupIDList": [],
      "DefaultIdleFreeStyleMotionID": 200020000,
      "InitialHiddenNodeList": []
    },
    {
      "ID": 400008,
      "PosX": -137.93,
      "PosY": 11.83937,
      "PosZ": 5.27,
      "Name": "NPC8",
      "RotY": 261.994,
      "NPCID": 1001,
      "DialogueGroups": [],
      "ServerInteractVerificationIDList": [],
      "BoardShowList": [],
      "TalkDialogGroupIDList": [],
      "DefaultIdleFreeStyleMotionID": 310010256,
      "InitialHiddenNodeList": []
    },
    {
      "ID": 400009,
      "PosX": -37.92,
      "PosY": 1.515755,
      "PosZ": -0.02,
      "Name": "NPC9",
      "RotY": 261.8705,
      "NPCID": 2201,
      "DialogueGroups": [],
      "ServerInteractVerificationIDList": [],
      "BoardShowList": [],
      "TalkDialogGroupIDList": [],
      "DefaultIdleFreeStyleMotionID": 200230000,
      "InitialHiddenNodeList": []
    },
    {
      "ID": 400010,
      "PosX": -28.14,
      "PosY": 1.462214,
      "PosZ": 20.3,
      "Name": "NPC10",
      "RotY": 188.0943,
      "NPCID": 2201,
      "DialogueGroups": [],
      "ServerInteractVerificationIDList": [],
      "BoardShowList": [],
      "TalkDialogGroupIDList": [],
      "DefaultIdleFreeStyleMotionID": 200230000,
      "InitialHiddenNodeList": []
    },
    {
      "ID": 400011,
      "PosX": -120.09,
      "PosY": 11.83937,
      "PosZ": 5.98,
      "Name": "NPC11",
      "RotY": 274.3955,
      "NPCID": 1205,
      "DialogueGroups": [],
      "ServerInteractVerificationIDList": [],
      "DefaultLookAtMode": "Closed",
      "BoardShowList": [],
      "TalkDialogGroupIDList": [],
      "DefaultIdleFreeStyleMotionID": 312040000,
      "InitialHiddenNodeList": []
    },
    {
      "ID": 400012,
      "PosX": -120.5346,
      "PosY": 11.83937,
      "PosZ": 4.449474,
      "Name": "NPC12",
      "RotY": 271.2326,
      "NPCID": 1213,
      "DialogueGroups": [],
      "ServerInteractVerificationIDList": [],
      "DefaultLookAtMode": "Closed",
      "BoardShowList": [],
      "TalkDialogGroupIDList": [],
      "DefaultAnimationType": "IdleState",
      "DefaultIdleFreeStyleMotionID": 312130000,
      "InitialHiddenNodeList": []
    }
  ]
}