{
  "GroupGUID": "0dfeb0e2-fc09-43c5-ae6b-51f5cc4ff370",
  "GroupName": "PinBall_2",
  "AreaAnchorName": "LevelArea_P43322_F43322002_G4",
  "SavedValueCondition": {
    "Conditions": [],
    "Operation": "And"
  },
  "LoadSide": "Server",
  "LoadOnInitial": true,
  "ValueSource": {},
  "ConflictIDList": [],
  "IsHoyoGroup": true,
  "ConflictWhiteList": [],
  "TagContainer": {},
  "AnchorList": [
    {
      "ID": 1,
      "PosX": 18.787,
      "PosY": 79.617,
      "PosZ": 76.304,
      "Name": "PinBallCam_Setting",
      "RotY": 247.314,
      "RotX": 57.45308,
      "RotZ": 0.006246,
      "Usage": "Camera",
      "CustomParameter": {
        "$type": "LevelAnchorCameraParameter",
        "fov": 60.0
      }
    },
    {
      "ID": 2,
      "PosX": 5.907,
      "PosY": 52.06,
      "PosZ": 93.507,
      "Name": "PinballCam_Start_Station_1",
      "RotY": 192.304,
      "RotX": 343.8781,
      "RotZ": 0.002805,
      "Usage": "Camera",
      "CustomParameter": {
        "$type": "LevelAnchorCameraParameter"
      }
    },
    {
      "ID": 3,
      "PosX": -5.61,
      "PosY": 47.08,
      "PosZ": 37.637,
      "Name": "PinballCam_Start_Station_2",
      "RotY": 357.3162,
      "RotX": 348.9521,
      "RotZ": 0.0022,
      "Usage": "Camera",
      "CustomParameter": {
        "$type": "LevelAnchorCameraParameter"
      }
    },
    {
      "ID": 4,
      "PosX": 2.28,
      "PosY": 51.61,
      "PosZ": 93.36,
      "Name": "Anchor4",
      "RotY": 347.5192
    },
    {
      "ID": 5,
      "PosX": -5.378,
      "PosY": 46.318,
      "PosZ": 39.409,
      "Name": "Anchor5",
      "RotY": 356.9726
    },
    {
      "ID": 6,
      "PosX": -30.93204,
      "PosY": 70.90401,
      "PosZ": 58.20435,
      "Name": "ShootingCam",
      "RotY": 68.99553,
      "RotX": 46.44513,
      "RotZ": 0.002803,
      "Usage": "LookAtCamera",
      "LookAtCameraTemplate": "Level/Common_Adventure/Camera_Module/PinballPuzzleCam01.prefab"
    }
  ],
  "MonsterList": [],
  "PropList": [
    {
      "ID": 300001,
      "PosX": 16.71047,
      "PosY": 55.33289,
      "PosZ": 86.50106,
      "Name": "PinballController",
      "RotY": 180.974,
      "RotX": 7.160379,
      "RotZ": 358.5603,
      "PropID": 103008,
      "ValueSource": {
        "Values": [
          {
            "$type": "SharedString",
            "Key": "VcamAnchor",
            "Value": "LevelArea_P43322_F43322002_G4,PinBallCam_Setting"
          },
          {
            "$type": "SharedString",
            "Key": "PinBallPuzzleConfigPrefab",
            "Value": "Props/Outputs/Chap03/Chap03_PuzzlePrefab_Pinball/Chap03_PuzzlePrefab_Pinball_20321001_02.prefab"
          }
        ]
      },
      "CampID": 4,
      "CustomTriggerMap": {},
      "CustomTriggerMapV2": {},
      "BridgeStateRotations": [],
      "DialogueGroups": [],
      "TalkDialogGroupIDList": [],
      "ServerInteractVerificationIDList": [],
      "TriggerValidGuest": {},
      "TagContainer": {},
      "CameraCenterEntityList": [],
      "SpawnConfig": {
        "EntitySpawnConfig": {}
      }
    },
    {
      "ID": 300002,
      "PosX": 3.849996,
      "PosY": 51.91,
      "PosZ": 86.76,
      "Name": "Station_1",
      "PropID": 103005,
      "ValueSource": {
        "Values": [
          {
            "$type": "SharedString",
            "Key": "PinballPuzzleController",
            "Value": ",300001"
          }
        ]
      },
      "Trigger": {
        "Radius": 6.0,
        "PointList": []
      },
      "CampID": 4,
      "State": "Open",
      "CustomTriggerMap": {},
      "CustomTriggerMapV2": {},
      "BridgeStateRotations": [],
      "DialogueGroups": [],
      "TalkDialogGroupIDList": [],
      "ServerInteractVerificationIDList": [],
      "TriggerValidGuest": {},
      "TagContainer": {},
      "CameraCenterEntityList": [],
      "SpawnConfig": {
        "EntitySpawnConfig": {}
      }
    },
    {
      "ID": 300003,
      "PosX": -5.447025,
      "PosY": 46.35001,
      "PosZ": 44.38301,
      "Name": "Station_2",
      "PropID": 103005,
      "ValueSource": {
        "Values": [
          {
            "$type": "SharedString",
            "Key": "PinballPuzzleController",
            "Value": ",300001"
          }
        ]
      },
      "Trigger": {
        "Radius": 6.0,
        "PointList": []
      },
      "CampID": 4,
      "State": "Open",
      "CustomTriggerMap": {},
      "CustomTriggerMapV2": {},
      "BridgeStateRotations": [],
      "DialogueGroups": [],
      "TalkDialogGroupIDList": [],
      "ServerInteractVerificationIDList": [],
      "TriggerValidGuest": {},
      "TagContainer": {},
      "CameraCenterEntityList": [],
      "SpawnConfig": {
        "EntitySpawnConfig": {}
      }
    },
    {
      "ID": 300006,
      "PosX": 3.271297,
      "PosY": 50.7352,
      "PosZ": 52.72031,
      "Name": "Plate_1",
      "RotY": 271.1535,
      "RotX": 1.428498,
      "RotZ": 7.162614,
      "PropID": 103006,
      "ValueSource": {},
      "CampID": 4,
      "State": "BridgeState1",
      "CustomTriggerMap": {},
      "CustomTriggerMapV2": {},
      "BridgeStateRotations": [],
      "DialogueGroups": [],
      "TalkDialogGroupIDList": [],
      "ServerInteractVerificationIDList": [],
      "TriggerValidGuest": {},
      "TagContainer": {},
      "CameraCenterEntityList": [],
      "SpawnConfig": {
        "EntitySpawnConfig": {}
      }
    },
    {
      "ID": 300007,
      "PosX": -13.58665,
      "PosY": 52.44597,
      "PosZ": 70.0854,
      "Name": "Plate_2",
      "RotY": 0.973979,
      "RotX": 352.8396,
      "RotZ": 1.439727,
      "PropID": 103006,
      "ValueSource": {},
      "State": "BridgeState1",
      "CustomTriggerMap": {},
      "CustomTriggerMapV2": {},
      "BridgeStateRotations": [],
      "DialogueGroups": [],
      "TalkDialogGroupIDList": [],
      "ServerInteractVerificationIDList": [],
      "TriggerValidGuest": {},
      "TagContainer": {},
      "CameraCenterEntityList": [],
      "SpawnConfig": {
        "EntitySpawnConfig": {}
      }
    },
    {
      "ID": 300004,
      "PosX": 16.34878,
      "PosY": 52.65981,
      "PosZ": 65.22625,
      "Name": "Plate_3",
      "RotY": 271.1535,
      "RotX": 1.428498,
      "RotZ": 7.162614,
      "PropID": 103006,
      "ValueSource": {},
      "CampID": 4,
      "State": "BridgeState1",
      "CustomTriggerMap": {},
      "CustomTriggerMapV2": {},
      "BridgeStateRotations": [],
      "DialogueGroups": [],
      "TalkDialogGroupIDList": [],
      "ServerInteractVerificationIDList": [],
      "TriggerValidGuest": {},
      "TagContainer": {},
      "CameraCenterEntityList": [],
      "SpawnConfig": {
        "EntitySpawnConfig": {}
      }
    },
    {
      "ID": 300005,
      "PosX": 3.705321,
      "PosY": 53.94289,
      "PosZ": 78.25008,
      "Name": "Plate_4",
      "RotY": 0.973979,
      "RotX": 352.8396,
      "RotZ": 1.439727,
      "PropID": 103006,
      "ValueSource": {},
      "State": "BridgeState1",
      "CustomTriggerMap": {},
      "CustomTriggerMapV2": {},
      "BridgeStateRotations": [],
      "DialogueGroups": [],
      "TalkDialogGroupIDList": [],
      "ServerInteractVerificationIDList": [],
      "TriggerValidGuest": {},
      "TagContainer": {},
      "CameraCenterEntityList": [],
      "SpawnConfig": {
        "EntitySpawnConfig": {}
      }
    },
    {
      "ID": 300008,
      "PosX": -18.09048,
      "PosY": 50.7352,
      "PosZ": 57.40683,
      "Name": "Plate_5",
      "RotY": 271.1535,
      "RotX": 1.428498,
      "RotZ": 7.162614,
      "PropID": 103006,
      "ValueSource": {},
      "CampID": 4,
      "State": "BridgeState1",
      "CustomTriggerMap": {},
      "CustomTriggerMapV2": {},
      "BridgeStateRotations": [],
      "DialogueGroups": [],
      "TalkDialogGroupIDList": [],
      "ServerInteractVerificationIDList": [],
      "TriggerValidGuest": {},
      "TagContainer": {},
      "CameraCenterEntityList": [],
      "SpawnConfig": {
        "EntitySpawnConfig": {}
      }
    }
  ],
  "NPCList": []
}