{
  "GroupGUID": "4aa34208-86cc-4dee-847a-5a04d5e06adc",
  "GroupName": "MainMission4240306_02",
  "Category": "Mission",
  "LevelGraph": "Config/Level/GroupGraph/F10305001/Group_F10305001_G69.json",
  "AreaAnchorName": "LevelArea_P10305_F10305001_G69",
  "SaveType": "Reset",
  "OwnerMainMissionID": 4240306,
  "ValueSource": {},
  "ConflictIDList": [],
  "IsHoyoGroup": true,
  "ConflictWhiteList": [],
  "TagContainer": {},
  "AnchorList": [
    {
      "ID": 1,
      "PosX": -17.02263,
      "PosY": 7.530001,
      "PosZ": -435.4877,
      "IsDelete": true,
      "Name": "Anchor1",
      "RotY": 272.6228
    },
    {
      "ID": 2,
      "PosX": -16.236,
      "PosY": 7.540001,
      "PosZ": -436.004,
      "Name": "Anchor2",
      "RotY": 269.4935
    }
  ],
  "MonsterList": [],
  "PropList": [
    {
      "ID": 300001,
      "PosX": -20.618,
      "PosY": 7.548,
      "PosZ": -436.173,
      "Name": "Prop1",
      "RotY": 269.756,
      "PropID": 111,
      "ValueSource": {},
      "Trigger": {
        "Shape": "Box",
        "Radius": 8.0,
        "DimX": 8.0,
        "DimY": 3.0,
        "DimZ": 3.0,
        "Offset": {
          "y": 1.0
        },
        "PointList": []
      },
      "CampID": 4,
      "CustomTriggerMap": {},
      "CustomTriggerMapV2": {},
      "BridgeStateRotations": [],
      "DialogueGroups": [],
      "TalkDialogGroupIDList": [],
      "ServerInteractVerificationIDList": [],
      "PerformanceHideFlags": 6,
      "TriggerValidGuest": {},
      "TagContainer": {},
      "CameraCenterEntityList": [],
      "SpawnConfig": {
        "EntitySpawnConfig": {}
      }
    },
    {
      "ID": 300002,
      "PosX": -5.682,
      "PosY": 5.249,
      "PosZ": -435.864,
      "Name": "Prop2",
      "RotY": 359.6145,
      "RotX": 359.9485,
      "RotZ": 357.8833,
      "PropID": 100,
      "IsOverrideInitLevelGraph": true,
      "InitLevelGraph": "Config/Level/LevelInstanceGraph/F10305001/LG_Prop_F10305001_G69_300002.json",
      "ValueSource": {},
      "Trigger": {
        "Shape": "Box",
        "Radius": 1.0,
        "DimX": 2.0,
        "DimY": 3.0,
        "DimZ": 7.0,
        "Offset": {
          "y": 1.0
        },
        "PointList": []
      },
      "CampID": 4,
      "CustomTriggerMap": {},
      "CustomTriggerMapV2": {},
      "BridgeStateRotations": [],
      "DialogueGroups": [],
      "TalkDialogGroupIDList": [],
      "ServerInteractVerificationIDList": [],
      "TriggerValidGuest": {},
      "TagContainer": {},
      "CameraCenterEntityList": [],
      "SpawnConfig": {
        "EntitySpawnConfig": {}
      }
    }
  ],
  "NPCList": [
    {
      "ID": 400001,
      "PosX": -24.126,
      "PosY": 7.529998,
      "PosZ": -433.589,
      "Name": "NPC1",
      "NPCID": 2213,
      "ValueSource": {},
      "DialogueGroups": [],
      "ServerInteractVerificationIDList": [],
      "BoardShowList": [],
      "TalkDialogGroupIDList": [],
      "DefaultIdleFreeStyleMotionID": 200520000,
      "InitialHiddenNodeList": [],
      "TagContainer": {},
      "CameraCenterEntityList": [],
      "SpawnConfig": {
        "EntitySpawnConfig": {}
      },
      "TriggerValidGuest": {}
    },
    {
      "ID": 400002,
      "PosX": -25.322,
      "PosY": 7.529996,
      "PosZ": -433.498,
      "Name": "NPC2",
      "RotY": 94.85027,
      "NPCID": 2214,
      "ValueSource": {},
      "DialogueGroups": [],
      "ServerInteractVerificationIDList": [],
      "BoardShowList": [],
      "TalkDialogGroupIDList": [],
      "DefaultIdleFreeStyleMotionID": 200530000,
      "InitialHiddenNodeList": [],
      "TagContainer": {},
      "CameraCenterEntityList": [],
      "SpawnConfig": {
        "EntitySpawnConfig": {}
      },
      "TriggerValidGuest": {}
    }
  ]
}