{
  "GroupGUID": "84e047a9-99c4-489e-92fd-a3bdf97f107e",
  "GroupName": "NPC",
  "Category": "Atmosphere",
  "AreaAnchorName": "LevelArea_P10305_F10305001_G52",
  "SaveType": "Reset",
  "AtmosphereCondition": {
    "Conditions": [
      {
        "$type": "LevelGroupSubMissionCompleteCondition",
        "SubMissionID": 434010103
      }
    ]
  },
  "IsPendedLoad": true,
  "LoadOnInitial": true,
  "ValueSource": {},
  "ConflictIDList": [],
  "IsHoyoGroup": true,
  "HoYoGroupType": "Container",
  "ConflictWhiteList": [],
  "TagContainer": {},
  "AnchorList": [],
  "MonsterList": [],
  "PropList": [],
  "NPCList": [
    {
      "ID": 400001,
      "PosX": -18.74198,
      "PosY": 1.530003,
      "PosZ": -396.9741,
      "Name": "NPC1",
      "RotY": 96.57962,
      "NPCID": 13301,
      "ValueSource": {},
      "DialogueGroups": [],
      "ServerInteractVerificationIDList": [],
      "BoardShowList": [
        1,
        64
      ],
      "TalkDialogGroupIDList": [],
      "DefaultIdleFreeStyleMotionID": 100040237,
      "InitialHiddenNodeList": [],
      "Dialog": {
        "LevelGraph": "Config/Level/NPCDialogue/P10305/F10305001_G52/DialogueMain_F10305001_G52_N400001.json",
        "PackList": [
          {
            "Name": "Common",
            "LevelGraph": "Config/Level/NPCDialogue/P10305/F10305001_G52/DialoguePack_Common_F10305001_G52_N400001.json"
          }
        ]
      },
      "TagContainer": {},
      "CameraCenterEntityList": [],
      "SpawnConfig": {
        "EntitySpawnConfig": {}
      },
      "TriggerValidGuest": {}
    }
  ]
}