{
  "GroupGUID": "5a2de445-19d0-4852-95c4-cbc0658896c3",
  "GroupName": "Contents",
  "Category": "Custom",
  "AreaAnchorName": "LevelArea_P30123_F30123001_G6",
  "SaveType": "Temporary",
  "SaveDimensionFilter": {},
  "LoadSide": "Server",
  "ValueSource": {},
  "ConflictIDList": [],
  "IsHoyoGroup": true,
  "ConflictWhiteList": [],
  "TagContainer": {},
  "AnchorList": [
    {
      "ID": 1,
      "PosX": -0.033905,
      "PosY": 4.614647,
      "PosZ": 261.7123,
      "Name": "Anchor1"
    }
  ],
  "MonsterList": [
    {
      "ID": 200001,
      "PosX": -0.033905,
      "PosY": 4.677124,
      "PosZ": 281.7123,
      "Name": "Monster1",
      "RotY": 180.0,
      "NPCMonsterID": 1002040,
      "AIConfig": {
        "AIFile": "Config/ConfigAI/Adventure/NPCMonster/ST_NPCMonster_Master_Dummy.json",
        "PathwayList": [],
        "SlaveConfigList": []
      },
      "AIVariableSource": {},
      "ValueSource": {},
      "CampID": 3,
      "BattleArea": {
        "GroupID": 2,
        "ID": 2
      },
      "EventID": 99999011,
      "BoardShowList": [
        4
      ],
      "TagList": [],
      "SpawnConfig": {
        "EntitySpawnConfig": {}
      },
      "TagContainer": {}
    }
  ],
  "PropList": [],
  "NPCList": []
}