{
  "GroupGUID": "e5a14c77-bdac-418c-b60c-9e0c53e850c7",
  "GroupName": "RogueTemplate210_Area",
  "Category": "Custom",
  "AreaAnchorName": "LevelArea_P81223_F81223001_G40",
  "SaveDimensionFilter": {},
  "LoadSide": "Server",
  "ValueSource": {},
  "ConflictIDList": [],
  "IsHoyoGroup": true,
  "ConflictWhiteList": [],
  "TagContainer": {},
  "AnchorList": [],
  "MonsterList": [],
  "PropList": [
    {
      "ID": 300001,
      "PosX": -86.43401,
      "PosY": 7.324576,
      "PosZ": -57.808,
      "Name": "Prop1",
      "RotY": 336.5176,
      "Scale": {
        "x": 0.902628,
        "y": 1.0,
        "z": 1.0
      },
      "PropID": 1029,
      "ValueSource": {},
      "CampID": 4,
      "CustomTriggerMap": {},
      "CustomTriggerMapV2": {},
      "BridgeStateRotations": [],
      "DialogueGroups": [],
      "TalkDialogGroupIDList": [],
      "ServerInteractVerificationIDList": [],
      "TriggerValidGuest": {},
      "TagContainer": {},
      "CameraCenterEntityList": [],
      "SpawnConfig": {
        "EntitySpawnConfig": {}
      }
    },
    {
      "ID": 300002,
      "PosX": -104.971,
      "PosY": -3.608279,
      "PosZ": -17.294,
      "Name": "Prop2",
      "RotY": 336.5176,
      "Scale": {
        "x": 0.66254,
        "y": 1.0,
        "z": 1.0
      },
      "PropID": 1029,
      "ValueSource": {},
      "CampID": 4,
      "CustomTriggerMap": {},
      "CustomTriggerMapV2": {},
      "BridgeStateRotations": [],
      "DialogueGroups": [],
      "TalkDialogGroupIDList": [],
      "ServerInteractVerificationIDList": [],
      "TriggerValidGuest": {},
      "TagContainer": {},
      "CameraCenterEntityList": [],
      "SpawnConfig": {
        "EntitySpawnConfig": {}
      }
    }
  ],
  "NPCList": []
}