{
  "GroupGUID": "33f467b4-4ee6-47ee-9a4f-c4cdc051886a",
  "GroupName": "RogueTemplate210_BaseTripleMonster_SubMonster_Right",
  "Category": "Custom",
  "LevelGraph": "Config/Level/GroupTemplateGraph/03_Rogue/RogueTemplate210/RogueTemplate210_BaseTripleMonster_SubMonster_Right.json",
  "AreaAnchorName": "LevelArea_P81223_F81223001_G59",
  "SaveDimensionFilter": {},
  "LoadSide": "Server",
  "ValueSource": {},
  "ConflictIDList": [],
  "IsHoyoGroup": true,
  "ConflictWhiteList": [],
  "TagContainer": {},
  "AnchorList": [],
  "MonsterList": [
    {
      "ID": 200001,
      "PosX": 50.19632,
      "PosY": -5.060225,
      "PosZ": -37.12425,
      "Name": "Monster1",
      "RotY": 213.316,
      "NPCMonsterID": 1002040,
      "AIConfig": {
        "PathwayList": [],
        "SlaveConfigList": []
      },
      "AIVariableSource": {},
      "ValueSource": {},
      "CampID": 3,
      "BattleArea": {
        "GroupID": 2,
        "ID": 1
      },
      "EventID": 99999011,
      "BoardShowList": [
        4
      ],
      "DefaultLookAtMode": "Closed",
      "TagList": [],
      "SpawnConfig": {
        "EntitySpawnConfig": {}
      },
      "TagContainer": {}
    }
  ],
  "PropList": [
    {
      "ID": 300001,
      "PosX": 50.19632,
      "PosY": -5.060227,
      "PosZ": -37.12425,
      "Name": "Buff",
      "RotY": 213.316,
      "PropID": 100,
      "IsOverrideInitLevelGraph": true,
      "InitLevelGraph": "Config/Level/Maze/MazeRogue/Maze_Rogue_Prop_TriggerBuffSelect.json",
      "ValueSource": {},
      "Trigger": {
        "Radius": 2.0,
        "DimX": 1.0,
        "DimY": 1.0,
        "DimZ": 1.0,
        "PointList": []
      },
      "CampID": 4,
      "CustomTriggerMap": {},
      "CustomTriggerMapV2": {},
      "BridgeStateRotations": [],
      "DialogueGroups": [],
      "TalkDialogGroupIDList": [],
      "ServerInteractVerificationIDList": [],
      "TriggerValidGuest": {},
      "TagContainer": {},
      "CameraCenterEntityList": [],
      "SpawnConfig": {
        "EntitySpawnConfig": {}
      }
    }
  ],
  "NPCList": []
}