{
  "GroupGUID": "463cf394-32de-4620-92b6-dda7142af8a7",
  "GroupName": "MainMission_102040303",
  "AreaAnchorName": "LevelArea_P20213_F20213001_G48",
  "SaveType": "Reset",
  "LoadOnInitial": true,
  "AnchorList": [],
  "MonsterList": [],
  "PropList": [
    {
      "ID": 300001,
      "PosX": 1.65,
      "PosY": 2.245811,
      "PosZ": 69.15,
      "Name": "Prop1",
      "RotY": 89.76688,
      "Scale": {
        "x": 3.3247,
        "y": 1.0,
        "z": 1.0
      },
      "PropID": 100,
      "IsOverrideInitLevelGraph": true,
      "Trigger": {
        "Shape": "Box",
        "Radius": 1.0,
        "DimX": 5.0,
        "DimY": 1.0,
        "DimZ": 1.0
      },
      "CampID": 4,
      "CustomTriggerMap": {},
      "BridgeStateRotations": [],
      "DialogueGroups": [],
      "TalkDialogGroupIDList": [],
      "ServerInteractVerificationIDList": []
    }
  ],
  "NPCList": [
    {
      "ID": 400001,
      "PosX": 28.92,
      "PosY": 2.245788,
      "PosZ": 71.3,
      "Name": "NPC1",
      "RotY": 269.2508,
      "NPCID": 2201,
      "DialogueGroups": [],
      "ServerInteractVerificationIDList": [],
      "BoardShowList": [],
      "OverrideNPCName": {
        "Hash": 1799539754
      },
      "TalkDialogGroupIDList": [],
      "DefaultIdleFreeStyleMotionID": 200230000,
      "BornType": "Permanent",
      "Dialog": {
        "LevelGraph": "Config/Level/NPCDialogue/P20213/F20213001_G48/DialogueMain_F20213001_G48_N400001.json",
        "PackList": []
      }
    },
    {
      "ID": 400002,
      "PosX": 31.22,
      "PosY": 2.245788,
      "PosZ": 73.85,
      "Name": "NPC2",
      "RotY": 269.2508,
      "NPCID": 2201,
      "DialogueGroups": [],
      "ServerInteractVerificationIDList": [],
      "BoardShowList": [],
      "TalkDialogGroupIDList": [],
      "DefaultIdleFreeStyleMotionID": 200230201,
      "BornType": "Permanent"
    },
    {
      "ID": 400003,
      "PosX": 31.22,
      "PosY": 2.245788,
      "PosZ": 68.92,
      "Name": "NPC3",
      "RotY": 269.2508,
      "NPCID": 2201,
      "DialogueGroups": [],
      "ServerInteractVerificationIDList": [],
      "BoardShowList": [],
      "TalkDialogGroupIDList": [],
      "DefaultIdleFreeStyleMotionID": 200230201,
      "BornType": "Permanent"
    }
  ]
}