{
  "GroupGUID": "669e81ba-b192-4818-9cdf-c64a2ff6d7d4",
  "GroupName": "Shelter Group",
  "AreaAnchorName": "LevelArea_P20222_F20222001_G174",
  "SaveType": "Reset",
  "LoadCondition": {
    "Conditions": [
      {
        "Phase": "Finish",
        "ID": 1021101
      }
    ]
  },
  "ConflictIDList": [],
  "AnchorList": [],
  "MonsterList": [],
  "PropList": [],
  "NPCList": [
    {
      "ID": 400001,
      "PosX": -104.85,
      "PosY": 51.94149,
      "PosZ": 46.18,
      "Name": "NPC1",
      "RotY": 233.8324,
      "NPCID": 2201,
      "DialogueGroups": [],
      "ServerInteractVerificationIDList": [],
      "BoardShowList": [],
      "TalkDialogGroupIDList": [],
      "DefaultIdleFreeStyleMotionID": 200230000,
      "InitialHiddenNodeList": []
    },
    {
      "ID": 400002,
      "PosX": -104.76,
      "PosY": 51.94149,
      "PosZ": 39.07,
      "Name": "NPC2",
      "RotY": 294.617,
      "NPCID": 2201,
      "DialogueGroups": [],
      "ServerInteractVerificationIDList": [],
      "BoardShowList": [],
      "TalkDialogGroupIDList": [],
      "DefaultIdleFreeStyleMotionID": 200230000,
      "InitialHiddenNodeList": []
    }
  ]
}