{
  "GroupGUID": "da79fe21-cc37-4b4a-96a9-54094db92c4d",
  "GroupName": "MainMission1020301_",
  "ConfigPrefabPath": "Level/Mission/1020301/1020301_temp.prefab",
  "AreaAnchorName": "LevelArea_P10201_F10201001_G55",
  "SaveType": "Reset",
  "LoadCondition": {
    "Conditions": [
      {
        "Type": "SubMission",
        "ID": 102030101
      },
      {
        "Type": "SubMission",
        "Phase": "Finish",
        "ID": 102030101
      }
    ],
    "Operation": "Or"
  },
  "UnloadCondition": {
    "Conditions": [
      {
        "Type": "SubMission",
        "Phase": "Finish",
        "ID": 102030127
      }
    ]
  },
  "ConflictIDList": [],
  "AnchorList": [
    {
      "ID": 1,
      "PosX": 14.09,
      "PosY": 1.0E-5,
      "PosZ": -7.124851,
      "Name": "Anchor1",
      "RotY": 284.4
    },
    {
      "ID": 2,
      "PosX": 14.94,
      "PosY": 6.132405,
      "PosZ": -29.49948,
      "Name": "Anchor2",
      "RotY": 281.8
    }
  ],
  "MonsterList": [],
  "PropList": [
    {
      "ID": 300006,
      "PosX": 25.636,
      "PosY": 0.136356,
      "PosZ": -12.378,
      "Name": "Prop6",
      "RotY": 270.0,
      "Scale": {
        "x": 1.2,
        "y": 1.0,
        "z": 1.0
      },
      "PropID": 102,
      "IsOverrideInitLevelGraph": true,
      "CampID": 4,
      "CustomTriggerMap": {},
      "BridgeStateRotations": [],
      "DialogueGroups": [],
      "TalkDialogGroupIDList": [],
      "ServerInteractVerificationIDList": []
    },
    {
      "ID": 300007,
      "PosX": 5.073,
      "PosY": -5.0E-6,
      "PosZ": -12.28,
      "Name": "Prop7",
      "RotY": 90.0,
      "PropID": 102,
      "IsOverrideInitLevelGraph": true,
      "CampID": 4,
      "CustomTriggerMap": {},
      "BridgeStateRotations": [],
      "DialogueGroups": [],
      "TalkDialogGroupIDList": [],
      "ServerInteractVerificationIDList": []
    },
    {
      "ID": 300008,
      "PosX": 26.77,
      "PosY": 0.544035,
      "PosZ": -12.48,
      "Name": "Prop8",
      "PropID": 100,
      "IsOverrideInitLevelGraph": true,
      "InitLevelGraph": "Config/Level/Mission/1020301/Prop/Prop_102030191.json",
      "Trigger": {
        "Shape": "Box",
        "Radius": 1.0,
        "DimX": 3.0,
        "DimY": 2.0,
        "DimZ": 5.0,
        "PointList": []
      },
      "CampID": 4,
      "CustomTriggerMap": {},
      "BridgeStateRotations": [],
      "DialogueGroups": [],
      "TalkDialogGroupIDList": [],
      "ServerInteractVerificationIDList": []
    },
    {
      "ID": 300009,
      "PosX": 34.491,
      "PosY": 3.107448,
      "PosZ": -12.52,
      "Name": "Prop9",
      "PropID": 100,
      "IsOverrideInitLevelGraph": true,
      "Trigger": {
        "Shape": "Box",
        "Radius": 1.0,
        "DimX": 3.0,
        "DimY": 1.0,
        "DimZ": 5.0,
        "PointList": []
      },
      "CampID": 4,
      "CustomTriggerMap": {},
      "BridgeStateRotations": [],
      "DialogueGroups": [],
      "TalkDialogGroupIDList": [],
      "ServerInteractVerificationIDList": []
    },
    {
      "ID": 300010,
      "PosX": 3.993,
      "PosY": 0.324495,
      "PosZ": -12.5,
      "Name": "Prop10",
      "PropID": 100,
      "IsOverrideInitLevelGraph": true,
      "Trigger": {
        "Shape": "Box",
        "Radius": 1.0,
        "DimX": 3.0,
        "DimY": 2.0,
        "DimZ": 5.0,
        "PointList": []
      },
      "CampID": 4,
      "CustomTriggerMap": {},
      "BridgeStateRotations": [],
      "DialogueGroups": [],
      "TalkDialogGroupIDList": [],
      "ServerInteractVerificationIDList": []
    },
    {
      "ID": 300011,
      "PosX": -3.88,
      "PosY": 3.034467,
      "PosZ": -12.681,
      "Name": "Prop11",
      "PropID": 100,
      "IsOverrideInitLevelGraph": true,
      "InitLevelGraph": "Config/Level/Mission/1020301/Prop/Prop_102030187.json",
      "Trigger": {
        "Shape": "Box",
        "Radius": 1.0,
        "DimX": 3.0,
        "DimY": 1.0,
        "DimZ": 5.0,
        "PointList": []
      },
      "CampID": 4,
      "CustomTriggerMap": {},
      "BridgeStateRotations": [],
      "DialogueGroups": [],
      "TalkDialogGroupIDList": [],
      "ServerInteractVerificationIDList": []
    }
  ],
  "NPCList": [
    {
      "ID": 400016,
      "PosX": 6.08,
      "PosY": 0.024995,
      "PosZ": -13.81,
      "Name": "NPC16",
      "RotY": 45.5,
      "NPCID": 2201,
      "DialogueGroups": [],
      "ServerInteractVerificationIDList": [],
      "DefaultLookAtMode": "Closed",
      "BoardShowList": [
        8
      ],
      "TalkDialogGroupIDList": [],
      "DefaultIdleFreeStyleMotionID": 200230000,
      "BornType": "Permanent",
      "InitialHiddenNodeList": []
    },
    {
      "ID": 400017,
      "PosX": 24.89,
      "PosY": -4.0E-6,
      "PosZ": -12.72,
      "Name": "NPC17",
      "RotY": 318.69,
      "NPCID": 2201,
      "DialogueGroups": [],
      "ServerInteractVerificationIDList": [],
      "DefaultLookAtMode": "Closed",
      "BoardShowList": [
        8
      ],
      "TalkDialogGroupIDList": [],
      "DefaultIdleFreeStyleMotionID": 200230000,
      "BornType": "Permanent",
      "InitialHiddenNodeList": []
    },
    {
      "ID": 400018,
      "PosX": 24.92,
      "PosY": -4.0E-6,
      "PosZ": -11.11,
      "Name": "NPC18",
      "RotY": 180.8,
      "NPCID": 12204,
      "DialogueGroups": [],
      "ServerInteractVerificationIDList": [],
      "DefaultLookAtMode": "Closed",
      "BoardShowList": [
        8
      ],
      "TalkDialogGroupIDList": [],
      "DefaultIdleFreeStyleMotionID": 100020209,
      "BornType": "Permanent",
      "InitialHiddenNodeList": []
    },
    {
      "ID": 400019,
      "PosX": 23.603,
      "PosY": 6.0E-6,
      "PosZ": -10.971,
      "Name": "NPC19",
      "RotY": 139.05,
      "NPCID": 12107,
      "DialogueGroups": [],
      "ServerInteractVerificationIDList": [],
      "DefaultLookAtMode": "Closed",
      "BoardShowList": [
        8
      ],
      "TalkDialogGroupIDList": [],
      "DefaultIdleFreeStyleMotionID": 100010295,
      "OverrideSeriesID": 4294967295,
      "BornType": "Permanent",
      "InitialHiddenNodeList": []
    },
    {
      "ID": 400020,
      "PosX": 7.512,
      "PosY": 0.024995,
      "PosZ": -12.006,
      "IsDelete": true,
      "Name": "NPC20",
      "RotY": 221.4,
      "NPCID": 2201,
      "DialogueGroups": [],
      "ServerInteractVerificationIDList": [],
      "DefaultLookAtMode": "Closed",
      "BoardShowList": [
        8
      ],
      "TalkDialogGroupIDList": [],
      "DefaultIdleFreeStyleMotionID": 200230000,
      "BornType": "Permanent",
      "InitialHiddenNodeList": []
    },
    {
      "ID": 400021,
      "PosX": 5.745,
      "PosY": 0.024995,
      "PosZ": -11.027,
      "Name": "NPC21",
      "RotY": 119.3,
      "NPCID": 2201,
      "DialogueGroups": [],
      "ServerInteractVerificationIDList": [],
      "DefaultLookAtMode": "Closed",
      "BoardShowList": [
        8
      ],
      "TalkDialogGroupIDList": [],
      "DefaultIdleFreeStyleMotionID": 200230000,
      "BornType": "Permanent",
      "InitialHiddenNodeList": []
    },
    {
      "ID": 400022,
      "PosX": 7.282,
      "PosY": -5.0E-6,
      "PosZ": -12.193,
      "Name": "NPC22",
      "RotY": 257.7,
      "NPCID": 12116,
      "DialogueGroups": [],
      "ServerInteractVerificationIDList": [],
      "DefaultLookAtMode": "Closed",
      "BoardShowList": [
        8
      ],
      "TalkDialogGroupIDList": [],
      "DefaultIdleFreeStyleMotionID": 100010332,
      "BornType": "Permanent",
      "InitialHiddenNodeList": []
    }
  ]
}