{
  "GroupGUID": "51121194-1fce-4404-90a0-20cc2b62766a",
  "GroupName": "MainMission1020501_",
  "AreaAnchorName": "LevelArea_P10201_F10201001_G109",
  "SaveType": "Reset",
  "LoadCondition": {
    "Conditions": [
      {
        "Type": "SubMission",
        "ID": 102050101
      },
      {
        "Type": "SubMission",
        "ID": 102050102
      },
      {
        "Type": "SubMission",
        "ID": 102050103
      },
      {
        "Type": "SubMission",
        "ID": 102050104
      },
      {
        "Type": "SubMission",
        "ID": 102050105
      },
      {
        "Type": "SubMission",
        "ID": 102050106
      }
    ],
    "Operation": "Or"
  },
  "UnloadCondition": {
    "Conditions": [
      {
        "Type": "SubMission",
        "Phase": "Finish",
        "ID": 102050106
      }
    ]
  },
  "ValueSource": {},
  "ConflictIDList": [],
  "AnchorList": [
    {
      "ID": 1,
      "PosX": 46.51,
      "PosY": 4.959519,
      "PosZ": -47.39,
      "Name": "Anchor1",
      "RotY": 180.0
    },
    {
      "ID": 2,
      "PosX": -18.58,
      "PosY": 4.994066,
      "PosZ": -15.48,
      "Name": "Anchor2",
      "RotY": 180.0
    }
  ],
  "MonsterList": [],
  "PropList": [
    {
      "ID": 300001,
      "PosX": -18.09954,
      "PosY": 4.958103,
      "PosZ": -21.20999,
      "Name": "Prop1",
      "PropID": 100,
      "IsOverrideInitLevelGraph": true,
      "InitLevelGraph": "Config/Level/Mission/1020501/Prop_102050198.json",
      "Trigger": {
        "Shape": "Box",
        "Radius": 1.0,
        "DimX": 6.0,
        "DimY": 1.0,
        "DimZ": 2.0,
        "PointList": []
      },
      "CampID": 4,
      "CustomTriggerMap": {},
      "CustomTriggerMapV2": {},
      "BridgeStateRotations": [],
      "DialogueGroups": [],
      "TalkDialogGroupIDList": [],
      "ServerInteractVerificationIDList": []
    },
    {
      "ID": 300002,
      "PosX": 46.32999,
      "PosY": 4.95952,
      "PosZ": -52.75,
      "Name": "Prop2",
      "PropID": 100,
      "IsOverrideInitLevelGraph": true,
      "InitLevelGraph": "Config/Level/Mission/1020501/Prop_102050199.json",
      "Trigger": {
        "Shape": "Box",
        "Radius": 1.0,
        "DimX": 5.0,
        "DimY": 1.0,
        "DimZ": 1.0,
        "PointList": []
      },
      "CampID": 4,
      "CustomTriggerMap": {},
      "CustomTriggerMapV2": {},
      "BridgeStateRotations": [],
      "DialogueGroups": [],
      "TalkDialogGroupIDList": [],
      "ServerInteractVerificationIDList": []
    },
    {
      "ID": 300003,
      "PosX": 46.24,
      "PosY": 4.804,
      "PosZ": -55.117,
      "Name": "Prop3",
      "PropID": 102,
      "ValueSource": {},
      "CampID": 4,
      "CustomTriggerMap": {},
      "CustomTriggerMapV2": {},
      "BridgeStateRotations": [],
      "DialogueGroups": [],
      "TalkDialogGroupIDList": [],
      "ServerInteractVerificationIDList": []
    }
  ],
  "NPCList": [
    {
      "ID": 400001,
      "PosX": -18.55,
      "PosY": 4.994066,
      "PosZ": -19.75,
      "Name": "NPC1",
      "RotY": 3.4,
      "NPCID": 2201,
      "ValueSource": {},
      "DialogueGroups": [],
      "ServerInteractVerificationIDList": [],
      "DefaultLookAtMode": "Closed",
      "BoardShowList": [
        8
      ],
      "TalkDialogGroupIDList": [],
      "DefaultIdleFreeStyleMotionID": 200230000,
      "InitialHiddenNodeList": [],
      "SpawnConfig": {}
    },
    {
      "ID": 400002,
      "PosX": 46.23,
      "PosY": 4.95952,
      "PosZ": -52.21,
      "Name": "NPC2",
      "RotY": 356.6,
      "NPCID": 2201,
      "ValueSource": {},
      "DialogueGroups": [],
      "ServerInteractVerificationIDList": [],
      "DefaultLookAtMode": "Closed",
      "BoardShowList": [],
      "TalkDialogGroupIDList": [],
      "DefaultIdleFreeStyleMotionID": 200230000,
      "InitialHiddenNodeList": [],
      "SpawnConfig": {}
    }
  ]
}