{
  "GroupGUID": "de735885-806a-44db-b244-777914349c38",
  "GroupName": "MainMission8021132_JigsawPuzzle_P101_Mission_04_ShuwengAndFriends",
  "Category": "Mission",
  "LevelGraph": "Config/Level/GroupGraph/F44303003/Group_F44303003_G34.json",
  "AreaAnchorName": "LevelArea_P44303_F44303003_G35",
  "SaveDimensionFilter": {},
  "LoadSide": "Server",
  "OwnerMainMissionID": 8021132,
  "GroupStateList": [
    {
      "DstState": 13
    },
    {
      "DstState": 12
    },
    {
      "DstState": 11
    },
    {
      "DstState": 10
    },
    {
      "SrcState": 10,
      "DstState": 20
    },
    {
      "SrcState": 13,
      "DstState": 12
    },
    {
      "SrcState": 12,
      "DstState": 11
    },
    {
      "SrcState": 11,
      "DstState": 10
    }
  ],
  "ValueSource": {},
  "ConflictIDList": [],
  "IsHoyoGroup": true,
  "ConflictWhiteList": [],
  "TagContainer": {},
  "AnchorList": [
    {
      "ID": 1,
      "PosX": -140.593,
      "PosY": 29.87689,
      "PosZ": -38.692,
      "Name": "SnapCamera",
      "RotY": 180.0,
      "RotX": 5.0E-6,
      "Usage": "Camera",
      "CustomParameter": {
        "$type": "LevelAnchorCameraParameter",
        "fov": 40.0
      }
    },
    {
      "ID": 2,
      "PosX": -140.593,
      "PosY": 29.87689,
      "PosZ": -38.692,
      "Name": "GameplayCamera",
      "RotY": 180.0,
      "RotX": 5.0E-6,
      "Usage": "Camera",
      "CustomParameter": {
        "$type": "LevelAnchorCameraParameter",
        "fov": 45.0
      }
    },
    {
      "ID": 3,
      "Name": "Anchor3"
    },
    {
      "ID": 4,
      "PosX": -140.923,
      "PosY": 29.87689,
      "PosZ": -38.692,
      "Name": "GameplayCamera2",
      "RotY": 180.0,
      "RotX": 5.0E-6,
      "Usage": "Camera",
      "CustomParameter": {
        "$type": "LevelAnchorCameraParameter",
        "fov": 45.0
      }
    }
  ],
  "MonsterList": [],
  "PropList": [
    {
      "ID": 300001,
      "PosX": -140.55,
      "PosY": 28.03189,
      "PosZ": -42.12,
      "Name": "JigsawSir",
      "PropID": 103012,
      "ValueSource": {
        "Values": [
          {
            "$type": "SharedString",
            "Key": "PuzzleBoardPath",
            "Value": "Gameplays/JigsawPuzzle/JigsawPuzzle_P101_Mission_04_ShuwengAndFriends.prefab"
          },
          {
            "$type": "SharedString",
            "Key": "PuzzleCameraAnchor",
            "Value": "LevelArea_P44303_F44303003_G35,GameplayCamera"
          },
          {
            "$type": "SharedString",
            "Key": "JigsawResult_String",
            "Value": "JigsawPuzzle_Complete"
          },
          {
            "$type": "SharedString",
            "Key": "SnapCamera",
            "Value": "LevelArea_P44303_F44303003_G35,SnapCamera"
          },
          {
            "$type": "SharedFloat",
            "Key": "IsH",
            "Value": 1.0
          },
          {
            "$type": "SharedString",
            "Key": "PoseType",
            "Value": "H1_1M2_0"
          },
          {
            "$type": "SharedString",
            "Key": "PuzzleCameraAnchor2",
            "Value": "LevelArea_P44303_F44303003_G35,GameplayCamera2"
          },
          {
            "$type": "SharedFloat",
            "Key": "UseToast"
          }
        ]
      },
      "CampID": 4,
      "State": "TriggerEnable",
      "CustomTriggerMap": {},
      "CustomTriggerMapV2": {},
      "BridgeStateRotations": [],
      "DialogueGroups": [],
      "TalkDialogGroupIDList": [],
      "ServerInteractVerificationIDList": [],
      "TriggerValidGuest": {},
      "TagContainer": {},
      "CameraCenterEntityList": [],
      "SpawnConfig": {
        "EntitySpawnConfig": {}
      }
    },
    {
      "ID": 300002,
      "PosX": -140.55,
      "PosY": 28.03189,
      "PosZ": -42.12,
      "Name": "JigsawPiece1",
      "PropID": 103109,
      "ValueSource": {
        "Values": [
          {
            "$type": "SharedString",
            "Key": "ListenTriggerCustomString",
            "Value": "Mission_777_1"
          },
          {
            "$type": "SharedFloat",
            "Key": "ControlByMission"
          },
          {
            "$type": "SharedFloat",
            "Key": "EffIndex",
            "Value": 1.0
          }
        ]
      },
      "CampID": 4,
      "CustomTriggerMap": {},
      "CustomTriggerMapV2": {},
      "BridgeStateRotations": [],
      "DialogueGroups": [],
      "TalkDialogGroupIDList": [],
      "ServerInteractVerificationIDList": [],
      "TriggerValidGuest": {},
      "TagContainer": {},
      "CameraCenterEntityList": [],
      "SpawnConfig": {
        "EntitySpawnConfig": {}
      }
    },
    {
      "ID": 300003,
      "PosX": -140.55,
      "PosY": 28.03189,
      "PosZ": -42.12,
      "Name": "JigsawPiece2",
      "PropID": 103109,
      "ValueSource": {
        "Values": [
          {
            "$type": "SharedString",
            "Key": "ListenTriggerCustomString",
            "Value": "Mission_777_2"
          },
          {
            "$type": "SharedFloat",
            "Key": "ControlByMission"
          },
          {
            "$type": "SharedFloat",
            "Key": "EffIndex",
            "Value": 2.0
          }
        ]
      },
      "CampID": 4,
      "CustomTriggerMap": {},
      "CustomTriggerMapV2": {},
      "BridgeStateRotations": [],
      "DialogueGroups": [],
      "TalkDialogGroupIDList": [],
      "ServerInteractVerificationIDList": [],
      "TriggerValidGuest": {},
      "TagContainer": {},
      "CameraCenterEntityList": [],
      "SpawnConfig": {
        "EntitySpawnConfig": {}
      }
    },
    {
      "ID": 300004,
      "PosX": -140.55,
      "PosY": 28.03189,
      "PosZ": -42.12,
      "Name": "JigsawPiece3",
      "PropID": 103109,
      "ValueSource": {
        "Values": [
          {
            "$type": "SharedString",
            "Key": "ListenTriggerCustomString",
            "Value": "Mission_id_piece"
          },
          {
            "$type": "SharedFloat",
            "Key": "ControlByMission"
          },
          {
            "$type": "SharedFloat",
            "Key": "EffIndex",
            "Value": 3.0
          }
        ]
      },
      "CampID": 4,
      "CustomTriggerMap": {},
      "CustomTriggerMapV2": {},
      "BridgeStateRotations": [],
      "DialogueGroups": [],
      "TalkDialogGroupIDList": [],
      "ServerInteractVerificationIDList": [],
      "TriggerValidGuest": {},
      "TagContainer": {},
      "CameraCenterEntityList": [],
      "SpawnConfig": {
        "EntitySpawnConfig": {}
      }
    },
    {
      "ID": 300005,
      "PosX": -140.55,
      "PosY": 28.03189,
      "PosZ": -42.12,
      "Name": "JigsawResult_Controller",
      "PropID": 100,
      "IsOverrideInitLevelGraph": true,
      "InitLevelGraph": "Config/Level/Props/Chap03/InitLevelGraph_Prop_Chap03_JigsawPuzzle_SimpleResultController_NPC.json",
      "ValueSource": {
        "Values": [
          {
            "$type": "SharedString",
            "Key": "TargetEntity",
            "Value": "35,400001"
          },
          {
            "$type": "SharedFloat",
            "Key": "HandleTrigger"
          }
        ]
      },
      "CampID": 4,
      "CustomTriggerMap": {},
      "CustomTriggerMapV2": {},
      "BridgeStateRotations": [],
      "DialogueGroups": [],
      "TalkDialogGroupIDList": [],
      "ServerInteractVerificationIDList": [],
      "TriggerValidGuest": {},
      "TagContainer": {},
      "CameraCenterEntityList": [],
      "SpawnConfig": {
        "EntitySpawnConfig": {}
      }
    },
    {
      "ID": 300006,
      "PosX": -140.55,
      "PosY": 28.03189,
      "PosZ": -42.12,
      "Name": "JigsawResult_Controller",
      "PropID": 100,
      "IsOverrideInitLevelGraph": true,
      "InitLevelGraph": "Config/Level/Props/Chap03/InitLevelGraph_Prop_Chap03_JigsawPuzzle_SimpleResultController_NPC.json",
      "ValueSource": {
        "Values": [
          {
            "$type": "SharedString",
            "Key": "TargetEntity",
            "Value": "35,400002"
          },
          {
            "$type": "SharedFloat",
            "Key": "HandleTrigger"
          }
        ]
      },
      "CampID": 4,
      "CustomTriggerMap": {},
      "CustomTriggerMapV2": {},
      "BridgeStateRotations": [],
      "DialogueGroups": [],
      "TalkDialogGroupIDList": [],
      "ServerInteractVerificationIDList": [],
      "TriggerValidGuest": {},
      "TagContainer": {},
      "CameraCenterEntityList": [],
      "SpawnConfig": {
        "EntitySpawnConfig": {}
      }
    },
    {
      "ID": 300007,
      "PosX": -140.55,
      "PosY": 28.03189,
      "PosZ": -42.12,
      "Name": "JigsawResult_Controller",
      "PropID": 100,
      "IsOverrideInitLevelGraph": true,
      "InitLevelGraph": "Config/Level/Props/Chap03/InitLevelGraph_Prop_Chap03_JigsawPuzzle_SimpleResultController_NPC.json",
      "ValueSource": {
        "Values": [
          {
            "$type": "SharedString",
            "Key": "TargetEntity",
            "Value": "35,400003"
          },
          {
            "$type": "SharedFloat",
            "Key": "HandleTrigger"
          }
        ]
      },
      "CampID": 4,
      "CustomTriggerMap": {},
      "CustomTriggerMapV2": {},
      "BridgeStateRotations": [],
      "DialogueGroups": [],
      "TalkDialogGroupIDList": [],
      "ServerInteractVerificationIDList": [],
      "TriggerValidGuest": {},
      "TagContainer": {},
      "CameraCenterEntityList": [],
      "SpawnConfig": {
        "EntitySpawnConfig": {}
      }
    },
    {
      "ID": 300008,
      "PosX": -140.55,
      "PosY": 28.03189,
      "PosZ": -42.12,
      "Name": "JigsawResult_Controller",
      "PropID": 100,
      "IsOverrideInitLevelGraph": true,
      "InitLevelGraph": "Config/Level/Props/Chap03/InitLevelGraph_Prop_Chap03_JigsawPuzzle_SimpleResultController_NPC.json",
      "ValueSource": {
        "Values": [
          {
            "$type": "SharedString",
            "Key": "TargetEntity",
            "Value": "35,400004"
          },
          {
            "$type": "SharedFloat",
            "Key": "HandleTrigger"
          }
        ]
      },
      "CampID": 4,
      "CustomTriggerMap": {},
      "CustomTriggerMapV2": {},
      "BridgeStateRotations": [],
      "DialogueGroups": [],
      "TalkDialogGroupIDList": [],
      "ServerInteractVerificationIDList": [],
      "TriggerValidGuest": {},
      "TagContainer": {},
      "CameraCenterEntityList": [],
      "SpawnConfig": {
        "EntitySpawnConfig": {}
      }
    },
    {
      "ID": 300009,
      "PosX": -140.55,
      "PosY": 28.03189,
      "PosZ": -42.12,
      "Name": "JigsawResult_Controller",
      "PropID": 100,
      "IsOverrideInitLevelGraph": true,
      "InitLevelGraph": "Config/Level/Props/Chap03/InitLevelGraph_Prop_Chap03_JigsawPuzzle_SimpleResultController_NPC.json",
      "ValueSource": {
        "Values": [
          {
            "$type": "SharedString",
            "Key": "TargetEntity",
            "Value": "35,400005"
          },
          {
            "$type": "SharedFloat",
            "Key": "HandleTrigger"
          }
        ]
      },
      "CampID": 4,
      "CustomTriggerMap": {},
      "CustomTriggerMapV2": {},
      "BridgeStateRotations": [],
      "DialogueGroups": [],
      "TalkDialogGroupIDList": [],
      "ServerInteractVerificationIDList": [],
      "TriggerValidGuest": {},
      "TagContainer": {},
      "CameraCenterEntityList": [],
      "SpawnConfig": {
        "EntitySpawnConfig": {}
      }
    },
    {
      "ID": 300010,
      "PosX": -140.55,
      "PosY": 28.03189,
      "PosZ": -42.12,
      "Name": "JigsawResult_Controller",
      "PropID": 100,
      "IsOverrideInitLevelGraph": true,
      "InitLevelGraph": "Config/Level/Props/Chap03/InitLevelGraph_Prop_Chap03_JigsawPuzzle_SimpleResultController_NPC.json",
      "ValueSource": {
        "Values": [
          {
            "$type": "SharedString",
            "Key": "TargetEntity",
            "Value": "35,400006"
          },
          {
            "$type": "SharedFloat",
            "Key": "HandleTrigger"
          }
        ]
      },
      "CampID": 4,
      "CustomTriggerMap": {},
      "CustomTriggerMapV2": {},
      "BridgeStateRotations": [],
      "DialogueGroups": [],
      "TalkDialogGroupIDList": [],
      "ServerInteractVerificationIDList": [],
      "TriggerValidGuest": {},
      "TagContainer": {},
      "CameraCenterEntityList": [],
      "SpawnConfig": {
        "EntitySpawnConfig": {}
      }
    },
    {
      "ID": 300011,
      "PosX": -140.55,
      "PosY": 28.03189,
      "PosZ": -42.12,
      "Name": "JigsawResult_Controller",
      "PropID": 100,
      "IsOverrideInitLevelGraph": true,
      "InitLevelGraph": "Config/Level/Props/Chap03/InitLevelGraph_Prop_Chap03_JigsawPuzzle_SimpleResultController_NPC.json",
      "ValueSource": {
        "Values": [
          {
            "$type": "SharedString",
            "Key": "TargetEntity",
            "Value": "35,400007"
          },
          {
            "$type": "SharedFloat",
            "Key": "HandleTrigger"
          }
        ]
      },
      "CampID": 4,
      "CustomTriggerMap": {},
      "CustomTriggerMapV2": {},
      "BridgeStateRotations": [],
      "DialogueGroups": [],
      "TalkDialogGroupIDList": [],
      "ServerInteractVerificationIDList": [],
      "TriggerValidGuest": {},
      "TagContainer": {},
      "CameraCenterEntityList": [],
      "SpawnConfig": {
        "EntitySpawnConfig": {}
      }
    }
  ],
  "NPCList": [
    {
      "ID": 400001,
      "PosX": -141.558,
      "PosY": 29.14,
      "PosZ": -50.286,
      "Name": "NPC1",
      "RotY": 5.598697,
      "NPCID": 2304,
      "ValueSource": {},
      "DialogueGroups": [],
      "ServerInteractVerificationIDList": [],
      "BoardShowList": [],
      "TalkDialogGroupIDList": [],
      "DefaultIdleFreeStyleMotionID": 200390000,
      "InitialHiddenNodeList": [],
      "TagContainer": {},
      "CameraCenterEntityList": [],
      "SpawnConfig": {
        "EntitySpawnConfig": {}
      },
      "TriggerValidGuest": {}
    },
    {
      "ID": 400002,
      "PosX": -139.746,
      "PosY": 29.10425,
      "PosZ": -50.17,
      "Name": "NPC2",
      "RotY": 339.5569,
      "NPCID": 2303,
      "ValueSource": {},
      "DialogueGroups": [],
      "ServerInteractVerificationIDList": [],
      "BoardShowList": [],
      "TalkDialogGroupIDList": [],
      "DefaultIdleFreeStyleMotionID": 200310000,
      "InitialHiddenNodeList": [],
      "TagContainer": {},
      "CameraCenterEntityList": [],
      "SpawnConfig": {
        "EntitySpawnConfig": {}
      },
      "TriggerValidGuest": {}
    },
    {
      "ID": 400003,
      "PosX": -143.003,
      "PosY": 29.10432,
      "PosZ": -50.393,
      "Name": "NPC3",
      "RotY": 20.28935,
      "NPCID": 2308,
      "ValueSource": {},
      "DialogueGroups": [],
      "ServerInteractVerificationIDList": [],
      "BoardShowList": [],
      "TalkDialogGroupIDList": [],
      "DefaultIdleFreeStyleMotionID": 200550000,
      "InitialHiddenNodeList": [],
      "TagContainer": {},
      "CameraCenterEntityList": [],
      "SpawnConfig": {
        "EntitySpawnConfig": {}
      },
      "TriggerValidGuest": {}
    },
    {
      "ID": 400004,
      "PosX": -137.951,
      "PosY": 29.10425,
      "PosZ": -51.02,
      "Name": "NPC4",
      "RotY": 324.1233,
      "NPCID": 2312,
      "ValueSource": {},
      "StaticNPC": true,
      "DialogueGroups": [],
      "ServerInteractVerificationIDList": [],
      "BoardShowList": [],
      "TalkDialogGroupIDList": [],
      "DefaultIdleFreeStyleMotionID": 200450000,
      "InitialHiddenNodeList": [],
      "TagContainer": {},
      "CameraCenterEntityList": [],
      "SpawnConfig": {
        "EntitySpawnConfig": {}
      },
      "TriggerValidGuest": {}
    },
    {
      "ID": 400005,
      "PosX": -137.326,
      "PosY": 28.62,
      "PosZ": -49.897,
      "Name": "NPC5",
      "RotY": 319.4277,
      "NPCID": 2307,
      "ValueSource": {},
      "DialogueGroups": [],
      "ServerInteractVerificationIDList": [],
      "BoardShowList": [],
      "TalkDialogGroupIDList": [],
      "DefaultIdleFreeStyleMotionID": 200570000,
      "InitialHiddenNodeList": [],
      "TagContainer": {},
      "CameraCenterEntityList": [],
      "SpawnConfig": {
        "EntitySpawnConfig": {}
      },
      "TriggerValidGuest": {}
    },
    {
      "ID": 400006,
      "PosX": -143.43,
      "PosY": 29.416,
      "PosZ": -49.662,
      "Name": "NPC6",
      "RotY": 37.32613,
      "NPCID": 2309,
      "ValueSource": {},
      "DialogueGroups": [],
      "ServerInteractVerificationIDList": [],
      "BoardShowList": [],
      "TalkDialogGroupIDList": [],
      "DefaultIdleFreeStyleMotionID": 200680000,
      "InitialHiddenNodeList": [],
      "TagContainer": {},
      "CameraCenterEntityList": [],
      "SpawnConfig": {
        "EntitySpawnConfig": {}
      },
      "TriggerValidGuest": {}
    },
    {
      "ID": 400007,
      "PosX": -140.5,
      "PosY": 29.10425,
      "PosZ": -49.778,
      "Name": "NPC7",
      "NPCID": 3112,
      "ValueSource": {},
      "DialogueGroups": [],
      "ServerInteractVerificationIDList": [],
      "BoardShowList": [],
      "TalkDialogGroupIDList": [],
      "DefaultIdleFreeStyleMotionID": 100020231,
      "InitialHiddenNodeList": [],
      "TagContainer": {},
      "CameraCenterEntityList": [],
      "SpawnConfig": {
        "EntitySpawnConfig": {}
      },
      "TriggerValidGuest": {}
    }
  ]
}