{
  "GroupGUID": "cc873cde-fa63-4344-8178-34014e9a423d",
  "GroupName": "normal npc13",
  "Category": "Atmosphere",
  "AreaAnchorName": "LevelArea_P20004_F20004001_G66",
  "SaveType": "Reset",
  "AtmosphereCondition": {
    "Conditions": [
      {
        "$type": "LevelGroupSubMissionCompleteCondition",
        "SubMissionID": 200100139
      }
    ]
  },
  "LoadOnInitial": true,
  "ValueSource": {},
  "ConflictIDList": [],
  "IsHoyoGroup": true,
  "ConflictWhiteList": [
    60
  ],
  "AnchorList": [],
  "MonsterList": [],
  "PropList": [
    {
      "ID": 300001,
      "PosX": 16.668,
      "PosY": 412.0818,
      "PosZ": -22.531,
      "Name": "Prop1",
      "RotY": 291.1,
      "PropID": 100057,
      "IsOverrideInitLevelGraph": true,
      "InitLevelGraph": "Config/Level/Props/Chap00/InitLevelGraph_Prop_Chap00_Wubwub_01.json",
      "ValueSource": {},
      "CampID": 4,
      "CustomTriggerMap": {},
      "CustomTriggerMapV2": {},
      "BridgeStateRotations": [],
      "DialogueGroups": [],
      "TalkDialogGroupIDList": [],
      "ServerInteractVerificationIDList": [],
      "OverridePropName": {
        "Hash": -320206459
      },
      "OverrideBoardShowList": [
        1,
        8
      ],
      "TriggerValidGuest": {},
      "SpawnConfig": {
        "EntitySpawnConfig": {}
      }
    }
  ],
  "NPCList": [
    {
      "ID": 400001,
      "PosX": 17.143,
      "PosY": 412.0818,
      "PosZ": -22.659,
      "IsDelete": true,
      "Name": "npc1",
      "RotY": 278.0,
      "NPCID": 3049,
      "ValueSource": {},
      "DialogueGroups": [],
      "ServerInteractVerificationIDList": [],
      "BoardShowList": [],
      "TalkDialogGroupIDList": [],
      "DefaultIdleFreeStyleMotionID": 900140000,
      "InitialHiddenNodeList": [],
      "SpawnConfig": {
        "EntitySpawnConfig": {}
      }
    },
    {
      "ID": 400002,
      "PosX": 16.72711,
      "PosY": 412.0818,
      "PosZ": -22.49586,
      "Name": "NPC2",
      "NPCID": 100,
      "ValueSource": {},
      "DialogueGroups": [],
      "ServerInteractVerificationIDList": [],
      "BoardShowList": [
        1,
        64
      ],
      "OverrideNPCName": {
        "Hash": -851747818
      },
      "OverrideNPCTitle": {
        "Hash": 1493802339
      },
      "TalkDialogGroupIDList": [],
      "InitialHiddenNodeList": [],
      "Dialog": {
        "LevelGraph": "Config/Level/NPCDialogue/P20004/F20004001_G66/DialogueMain_F20004001_G66_N400002.json",
        "PackList": [
          {
            "Name": "common",
            "LevelGraph": "Config/Level/NPCDialogue/P20004/F20004001_G66/DialoguePack_common_F20004001_G66_N400002.json"
          }
        ]
      },
      "SpawnConfig": {
        "EntitySpawnConfig": {}
      },
      "TriggerValidGuest": {}
    }
  ]
}