{
  "GroupGUID": "1417065e-7d98-41a3-a2d2-d6b1a1d50ae2",
  "GroupName": "normal npc16",
  "Category": "Atmosphere",
  "AreaAnchorName": "LevelArea_P20004_F20004001_G69",
  "SaveType": "Reset",
  "AtmosphereCondition": {
    "Conditions": [
      {
        "$type": "LevelGroupSubMissionCompleteCondition",
        "SubMissionID": 200100139
      }
    ]
  },
  "LoadOnInitial": true,
  "ValueSource": {},
  "ConflictIDList": [],
  "IsHoyoGroup": true,
  "ConflictWhiteList": [],
  "AnchorList": [
    {
      "ID": 1,
      "PosX": 23.499,
      "PosY": 414.6119,
      "PosZ": 8.738,
      "Name": "Anchor1",
      "RotY": 148.6414
    }
  ],
  "MonsterList": [],
  "PropList": [
    {
      "ID": 300001,
      "PosX": 26.178,
      "PosY": 415.2901,
      "PosZ": 7.911,
      "Name": "Prop1",
      "Scale": {
        "x": 2.0,
        "y": 2.0,
        "z": 2.0
      },
      "PropID": 100,
      "ValueSource": {},
      "Trigger": {
        "Radius": 0.5,
        "DimX": 1.0,
        "DimY": 1.0,
        "DimZ": 1.0,
        "Offset": {
          "x": -1.0,
          "z": 0.25
        },
        "PointList": []
      },
      "CampID": 4,
      "OverrideHintRange": 30.0,
      "CustomTriggerMap": {},
      "CustomTriggerMapV2": {},
      "BridgeStateRotations": [],
      "DialogueGroups": [],
      "TalkDialogGroupIDList": [],
      "ServerInteractVerificationIDList": [],
      "Dialog": {
        "LevelGraph": "Config/Level/PropDialogue/P20004/F20004001_G69/DialogueMain_F20004001_G69_P300001.json",
        "PackList": []
      },
      "InteractIconType": "CheckIcon",
      "InteractTitle": {
        "Hash": 278713937
      },
      "TriggerValidGuest": {},
      "SpawnConfig": {
        "EntitySpawnConfig": {}
      }
    }
  ],
  "NPCList": [
    {
      "ID": 400001,
      "PosX": 24.395,
      "PosY": 414.4759,
      "PosZ": 7.154,
      "Name": "NPC1",
      "NPCID": 1306,
      "LevelGraph": "Config/Level/LevelInstanceGraph/F20004001/LG_NPC_F20004001_G69_400001.json",
      "ValueSource": {},
      "DialogueGroups": [],
      "ServerInteractVerificationIDList": [],
      "BoardShowList": [
        1,
        64
      ],
      "TalkDialogGroupIDList": [],
      "DefaultIdleFreeStyleMotionID": 313030000,
      "InitialHiddenNodeList": [],
      "SpawnConfig": {
        "EntitySpawnConfig": {}
      },
      "TriggerValidGuest": {}
    }
  ]
}