{
  "GroupGUID": "e38f1475-a876-4b0c-920f-db25f29aa0e7",
  "GroupName": "normal npc1",
  "Category": "Atmosphere",
  "AreaAnchorName": "LevelArea_P20004_F20004001_G54",
  "SaveType": "Reset",
  "AtmosphereCondition": {
    "Conditions": [
      {
        "$type": "LevelGroupSubMissionCompleteCondition",
        "SubMissionID": 200100139
      }
    ]
  },
  "LoadOnInitial": true,
  "ValueSource": {},
  "ConflictIDList": [],
  "IsHoyoGroup": true,
  "ConflictWhiteList": [],
  "TagContainer": {},
  "AnchorList": [],
  "MonsterList": [],
  "PropList": [],
  "NPCList": [
    {
      "ID": 400001,
      "PosX": 24.577,
      "PosY": 414.914,
      "PosZ": -38.056,
      "Name": "NPC1",
      "RotY": 297.8,
      "NPCID": 3046,
      "ValueSource": {},
      "StaticNPC": true,
      "DialogueGroups": [],
      "ServerInteractVerificationIDList": [],
      "BoardShowList": [
        1,
        64
      ],
      "OverrideNPCName": {
        "Hash": -282867103
      },
      "OverrideNPCTitle": {
        "Hash": -1797375976
      },
      "TalkDialogGroupIDList": [],
      "DefaultIdleFreeStyleMotionID": 900130000,
      "InitialHiddenNodeList": [],
      "Dialog": {
        "LevelGraph": "Config/Level/NPCDialogue/P20004/F20004001_G54/DialogueMain_F20004001_G54_N400001.json",
        "PackList": [
          {
            "Name": "common",
            "LevelGraph": "Config/Level/NPCDialogue/P20004/F20004001_G54/DialoguePack_common_F20004001_G54_N400001.json"
          }
        ]
      },
      "TagContainer": {},
      "CameraCenterEntityList": [],
      "SpawnConfig": {
        "EntitySpawnConfig": {}
      },
      "TriggerValidGuest": {}
    }
  ]
}