{
  "GroupGUID": "1211ee5c-2aa8-4400-910d-0d43f7486fcd",
  "GroupName": "Screen",
  "LevelGraph": "Config/Level/GroupGraph/F43306001/Group_F43306001_G11.json",
  "AreaAnchorName": "LevelArea_P43306_F43306001_G11",
  "SaveDimensionFilter": {},
  "SavedValueCondition": {
    "Conditions": [],
    "Operation": "And"
  },
  "LoadSide": "Server",
  "LoadOnInitial": true,
  "ValueSource": {},
  "ConflictIDList": [],
  "IsHoyoGroup": true,
  "StreamingTemplateType": "Far",
  "ConflictWhiteList": [],
  "TagContainer": {},
  "AnchorList": [],
  "MonsterList": [],
  "PropList": [
    {
      "ID": 300001,
      "Name": "Prop1",
      "PropID": 103186,
      "ValueSource": {},
      "CampID": 4,
      "State": "CustomState01",
      "CustomTriggerMap": {},
      "CustomTriggerMapV2": {},
      "BridgeStateRotations": [],
      "DialogueGroups": [],
      "TalkDialogGroupIDList": [],
      "ServerInteractVerificationIDList": [],
      "StageObjectCapture": {
        "BlockAlias": "Chap03_CloseView_MAZ_P201_6_BlockData",
        "PrefabAlias": "Screen_0"
      },
      "TriggerValidGuest": {},
      "TagContainer": {},
      "CameraCenterEntityList": [],
      "SpawnConfig": {
        "EntitySpawnConfig": {}
      }
    },
    {
      "ID": 300002,
      "PosX": -172.8,
      "PosY": 64.4,
      "PosZ": 6.310148,
      "Name": "Prop2",
      "PropID": 103098,
      "ValueSource": {
        "Values": [
          {
            "$type": "SharedUint",
            "Key": "MenuID",
            "Value": 16
          }
        ]
      },
      "CampID": 4,
      "State": "Open",
      "CustomTriggerMap": {},
      "CustomTriggerMapV2": {},
      "BridgeStateRotations": [],
      "DialogueGroups": [],
      "TalkDialogGroupIDList": [],
      "ServerInteractVerificationIDList": [],
      "StageObjectCapture": {
        "BlockAlias": "Chap03_CloseView_MAZ_P201_6_BlockData",
        "PrefabAlias": "BigScreen_0"
      },
      "TriggerValidGuest": {},
      "TagContainer": {},
      "CameraCenterEntityList": [],
      "SpawnConfig": {
        "EntitySpawnConfig": {}
      }
    },
    {
      "ID": 300003,
      "PosX": -184.12,
      "PosY": 63.16,
      "PosZ": 6.23,
      "Name": "Prop3",
      "RotY": 59.47692,
      "RotX": 14.08509,
      "RotZ": 351.8347,
      "PropID": 103214,
      "ValueSource": {},
      "CampID": 4,
      "State": "CustomState01",
      "CustomTriggerMap": {},
      "CustomTriggerMapV2": {},
      "BridgeStateRotations": [],
      "DialogueGroups": [],
      "TalkDialogGroupIDList": [],
      "ServerInteractVerificationIDList": [],
      "StageObjectCapture": {
        "BlockAlias": "Chap03_CloseView_MAZ_P201_6_BlockData",
        "PrefabAlias": "FilmReel_0"
      },
      "TriggerValidGuest": {},
      "TagContainer": {},
      "CameraCenterEntityList": [],
      "SpawnConfig": {
        "EntitySpawnConfig": {}
      }
    }
  ],
  "NPCList": []
}