{
  "GroupGUID": "23a3399f-5a34-48b1-b755-619e2cfea6e5",
  "GroupName": "Sound",
  "AreaAnchorName": "LevelArea_P43322_F43322003_G4",
  "SaveType": "Reset",
  "SavedValueCondition": {
    "Conditions": [],
    "Operation": "And"
  },
  "LoadOnInitial": true,
  "ValueSource": {},
  "ConflictIDList": [],
  "IsHoyoGroup": true,
  "HoYoGroupType": "Container",
  "ConflictWhiteList": [],
  "TagContainer": {},
  "AnchorList": [],
  "MonsterList": [],
  "PropList": [],
  "NPCList": []
}