{
  "GroupGUID": "80628eaa-4161-4344-9e30-fa9a701fb6d2",
  "GroupName": "Sound-Reverb",
  "AreaAnchorName": "LevelArea_P43322_F43322003_G5",
  "SaveType": "Reset",
  "SavedValueCondition": {
    "Operation": "And"
  },
  "LoadOnInitial": true,
  "ValueSource": {},
  "ConflictIDList": [],
  "IsHoyoGroup": true,
  "HoYoGroupType": "Container",
  "ConflictWhiteList": [],
  "TagContainer": {},
  "AnchorList": [],
  "MonsterList": [],
  "PropList": [],
  "NPCList": []
}