{
  "GroupGUID": "c84a609a-d944-47e8-98d7-281c777f7c6b",
  "GroupName": "MainMission2030402_New Group",
  "Category": "Mission",
  "LevelGraph": "Config/Level/GroupGraph/F43322003/Group_F43322003_G14.json",
  "AreaAnchorName": "LevelArea_P43322_F43322003_G14",
  "SaveType": "Reset",
  "OwnerMainMissionID": 2030402,
  "ValueSource": {},
  "ConflictIDList": [],
  "IsHoyoGroup": true,
  "ConflictWhiteList": [],
  "TagContainer": {},
  "AnchorList": [],
  "MonsterList": [],
  "PropList": [],
  "NPCList": []
}