{
  "GroupGUID": "99409684-5fb2-4e5d-8c43-ebd6f461c4f5",
  "GroupName": "MainMission8022121_05",
  "Category": "Mission",
  "LevelGraph": "Config/Level/GroupGraph/F44305001/Group_F44305001_G23.json",
  "AreaAnchorName": "LevelArea_P44305_F44305001_G23",
  "SaveType": "Reset",
  "OwnerMainMissionID": 8022121,
  "ValueSource": {},
  "ConflictIDList": [],
  "IsHoyoGroup": true,
  "ConflictWhiteList": [],
  "TagContainer": {},
  "AnchorList": [],
  "MonsterList": [],
  "PropList": [
    {
      "ID": 300001,
      "PosX": 371.36,
      "PosY": 50.55,
      "PosZ": 414.97,
      "Name": "Prop1",
      "PropID": 111,
      "ValueSource": {},
      "CampID": 4,
      "CustomTriggerMap": {},
      "CustomTriggerMapV2": {},
      "BridgeStateRotations": [],
      "DialogueGroups": [],
      "TalkDialogGroupIDList": [],
      "ServerInteractVerificationIDList": [],
      "HideInCutScene": true,
      "HideInStory": true,
      "PerformanceHideFlags": -8,
      "TriggerValidGuest": {},
      "TagContainer": {},
      "CameraCenterEntityList": [],
      "SpawnConfig": {
        "EntitySpawnConfig": {}
      }
    }
  ],
  "NPCList": []
}