{
  "GroupGUID": "4f7c6c71-42af-4289-82a1-4ab29ddd1541",
  "GroupName": "Default_ChallengeMonster",
  "LevelGraph": "Config/Level/Maze/MazeGroup/Maze_Group_OpenTreasure_WhenMonsterDie.json",
  "AreaAnchorName": "LevelArea_P20332_F20332001_G337",
  "SaveDimensionFilter": {},
  "SavedValueCondition": {
    "Conditions": [],
    "Operation": "And"
  },
  "LoadSide": "Server",
  "LoadOnInitial": true,
  "ValueSource": {},
  "ConflictIDList": [],
  "IsHoyoGroup": true,
  "ConflictWhiteList": [],
  "TagContainer": {},
  "AnchorList": [],
  "MonsterList": [
    {
      "ID": 200001,
      "PosX": -91.88,
      "PosY": 7.259315,
      "PosZ": 88.82,
      "Name": "Monster1",
      "RotY": 240.0,
      "NPCMonsterID": 3012040,
      "AIConfig": {
        "PathwayList": [],
        "SlaveConfigList": []
      },
      "AIVariableSource": {},
      "ValueSource": {},
      "CampID": 3,
      "BattleArea": {
        "GroupID": 1,
        "ID": 2
      },
      "EventID": 20332231,
      "BoardShowList": [
        4
      ],
      "TagList": [],
      "SpawnConfig": {
        "EntitySpawnConfig": {}
      },
      "TagContainer": {}
    },
    {
      "ID": 200002,
      "PosX": -86.58104,
      "PosY": 7.259315,
      "PosZ": 88.82658,
      "Name": "Monster2",
      "RotY": 270.0,
      "NPCMonsterID": 3012040,
      "AIConfig": {
        "PathwayList": [],
        "SlaveConfigList": []
      },
      "AIVariableSource": {},
      "ValueSource": {},
      "CampID": 3,
      "BattleArea": {
        "GroupID": 1,
        "ID": 2
      },
      "InitialAnimState": "SpecialStandBy1",
      "EventID": 20332232,
      "BoardShowList": [
        4
      ],
      "TagList": [],
      "SpawnConfig": {
        "EntitySpawnConfig": {}
      },
      "TagContainer": {}
    }
  ],
  "PropList": [
    {
      "ID": 300001,
      "PosX": -93.71001,
      "PosY": 7.259315,
      "PosZ": 87.42,
      "Name": "Prop1",
      "RotY": 35.0,
      "PropID": 60302,
      "ValueSource": {
        "Values": [
          {
            "$type": "SharedString",
            "Key": "MDString_HintTextmap",
            "Value": "MazeText_MazeCommon_ChestLockedHint2"
          }
        ]
      },
      "CampID": 4,
      "State": "ChestLocked",
      "CustomTriggerMap": {},
      "CustomTriggerMapV2": {},
      "BridgeStateRotations": [],
      "ChestID": 20332651,
      "DialogueGroups": [],
      "TalkDialogGroupIDList": [],
      "ServerInteractVerificationIDList": [],
      "TriggerValidGuest": {},
      "TagContainer": {},
      "CameraCenterEntityList": [],
      "SpawnConfig": {
        "EntitySpawnConfig": {}
      }
    },
    {
      "ID": 300002,
      "PosX": -93.71001,
      "PosY": 7.259315,
      "PosZ": 87.42,
      "Name": "Prop2",
      "RotY": 35.0,
      "PropID": 100,
      "IsOverrideInitLevelGraph": true,
      "InitLevelGraph": "Config/Level/Maze/MazeGroup/Maze_GroupProp_OpenTreasure_WhenMonsterDie.json",
      "ValueSource": {
        "Values": [
          {
            "$type": "SharedFloat",
            "Key": "MazeDF_CurrentGroup",
            "Value": 337.0
          }
        ]
      },
      "CampID": 4,
      "CustomTriggerMap": {},
      "CustomTriggerMapV2": {},
      "BridgeStateRotations": [],
      "DialogueGroups": [],
      "TalkDialogGroupIDList": [],
      "ServerInteractVerificationIDList": [],
      "TriggerValidGuest": {},
      "TagContainer": {},
      "CameraCenterEntityList": [],
      "SpawnConfig": {
        "EntitySpawnConfig": {}
      }
    },
    {
      "ID": 300003,
      "PosX": -93.71001,
      "PosY": 7.259315,
      "PosZ": 87.42,
      "Name": "Prop3",
      "RotY": 35.0,
      "PropID": 211,
      "IsOverrideInitLevelGraph": true,
      "InitLevelGraph": "Config/Level/Maze/MazeExtra/Maze_Prop_GameplayIcon.json",
      "ValueSource": {
        "Values": [
          {
            "$type": "SharedString",
            "Key": "Chest",
            "Value": "337,300001"
          }
        ]
      },
      "CampID": 4,
      "CustomTriggerMap": {},
      "CustomTriggerMapV2": {},
      "BridgeStateRotations": [],
      "MappingInfoID": 10028,
      "DialogueGroups": [],
      "TalkDialogGroupIDList": [],
      "ServerInteractVerificationIDList": [],
      "OverrideMapStateIcons": [
        {
          "IconID": 87
        }
      ],
      "TriggerValidGuest": {},
      "TagContainer": {},
      "CameraCenterEntityList": [],
      "SpawnConfig": {
        "EntitySpawnConfig": {}
      }
    }
  ],
  "NPCList": []
}