{
  "GroupGUID": "0cc8c472-0abb-4809-aa47-74c0c8d39501",
  "GroupName": "VolumeIn_MPF_01",
  "LevelGraph": "Config/Level/GroupGraph/F20332001/Group_F20332001_G194.json",
  "AreaAnchorName": "LevelArea_P20332_F20332001_G194",
  "SavedValueCondition": {
    "Conditions": [],
    "Operation": "And"
  },
  "LoadSide": "Server",
  "LoadOnInitial": true,
  "GroupStateList": [
    {
      "DstState": 1
    },
    {
      "SrcState": 1
    }
  ],
  "ValueSource": {},
  "ConflictIDList": [],
  "IsHoyoGroup": true,
  "ConflictWhiteList": [],
  "TagContainer": {},
  "AnchorList": [
    {
      "ID": 1,
      "PosX": 0.7,
      "PosY": 81.64101,
      "PosZ": 737.43,
      "Name": "Anchor1",
      "RotY": 270.0
    },
    {
      "ID": 2,
      "PosX": 18.76,
      "PosY": 81.64101,
      "PosZ": 737.43,
      "Name": "Anchor2",
      "RotY": 270.0
    },
    {
      "ID": 3,
      "PosX": 3.6,
      "PosY": 75.6,
      "PosZ": 737.39,
      "Name": "MPF_Pos1"
    },
    {
      "ID": 4,
      "PosX": 21.6,
      "PosY": 75.6,
      "PosZ": 737.39,
      "Name": "MPF_Pos2"
    },
    {
      "ID": 5,
      "PosX": 9.28,
      "PosY": 105.46,
      "PosZ": 752.31,
      "Name": "ControllerCam",
      "RotY": 180.0,
      "RotX": 62.85637,
      "RotZ": 5.0E-6,
      "Usage": "Camera",
      "CustomParameter": {
        "$type": "LevelAnchorCameraParameter"
      }
    }
  ],
  "MonsterList": [],
  "PropList": [
    {
      "ID": 300001,
      "PosX": 0.7,
      "PosY": 81.64101,
      "PosZ": 737.43,
      "Name": "VolumeIn-2Point",
      "RotY": 270.0,
      "PropID": 103147,
      "ValueSource": {
        "Values": [
          {
            "$type": "SharedString",
            "Key": "Anchor01",
            "Value": "LevelArea_P20332_F20332001_G194,Anchor1"
          },
          {
            "$type": "SharedString",
            "Key": "Anchor02",
            "Value": "LevelArea_P20332_F20332001_G194,Anchor2"
          },
          {
            "$type": "SharedStringList",
            "Key": "UsablePropStates",
            "Value": [
              "101",
              "102"
            ]
          }
        ]
      },
      "CampID": 4,
      "State": "CustomState01",
      "CustomTriggerMap": {},
      "CustomTriggerMapV2": {},
      "BridgeStateRotations": [],
      "DialogueGroups": [],
      "TalkDialogGroupIDList": [],
      "ServerInteractVerificationIDList": [],
      "IsClientOnly": true,
      "TriggerValidGuest": {},
      "TagContainer": {},
      "CameraCenterEntityList": [],
      "SpawnConfig": {
        "EntitySpawnConfig": {}
      }
    },
    {
      "ID": 300002,
      "PosX": 2.57,
      "PosY": 81.641,
      "PosZ": 744.43,
      "Name": "Controller_GravityMPF",
      "PropID": 103192,
      "IsOverrideInitLevelGraph": true,
      "InitLevelGraph": "Config/Level/Props/Chap03/InitLevelGraph_Prop_Chap03_ControllerGravityMPF_01.json",
      "ValueSource": {
        "Values": [
          {
            "$type": "SharedString",
            "Key": "ControllerCam",
            "Value": "LevelArea_P20332_F20332001_G194,ControllerCam"
          }
        ]
      },
      "CampID": 4,
      "CustomTriggerMap": {},
      "CustomTriggerMapV2": {},
      "BridgeStateRotations": [],
      "DialogueGroups": [],
      "TalkDialogGroupIDList": [],
      "ServerInteractVerificationIDList": [],
      "TriggerValidGuest": {},
      "TagContainer": {},
      "CameraCenterEntityList": [],
      "SpawnConfig": {
        "EntitySpawnConfig": {}
      }
    },
    {
      "ID": 300003,
      "PosX": 3.6,
      "PosY": 75.6,
      "PosZ": 737.39,
      "Name": "GravityMPF",
      "PropID": 103191,
      "ValueSource": {
        "Values": [
          {
            "$type": "SharedString",
            "Key": "Pos1",
            "Value": "LevelArea_P20332_F20332001_G194,MPF_Pos1"
          },
          {
            "$type": "SharedString",
            "Key": "Pos2",
            "Value": "LevelArea_P20332_F20332001_G194,MPF_Pos2"
          },
          {
            "$type": "SharedFloat",
            "Key": "MoveDuration",
            "Value": 3.0
          }
        ]
      },
      "CampID": 4,
      "CustomTriggerMap": {},
      "CustomTriggerMapV2": {},
      "BridgeStateRotations": [],
      "DialogueGroups": [],
      "TalkDialogGroupIDList": [],
      "ServerInteractVerificationIDList": [],
      "TriggerValidGuest": {},
      "TagContainer": {},
      "CameraCenterEntityList": [],
      "SpawnConfig": {
        "EntitySpawnConfig": {}
      }
    },
    {
      "ID": 300004,
      "PosX": 9.98,
      "PosY": 81.52,
      "PosZ": 740.41,
      "Name": "TrackingEff_01",
      "RotY": 270.0,
      "Scale": {
        "x": 1.0,
        "y": 1.0,
        "z": 1.301625
      },
      "PropID": 103092,
      "IsOverrideInitLevelGraph": true,
      "InitLevelGraph": "Config/Level/Props/Chap03/InitLevelGraph_Prop_Chap03_GravityMpfTrackEff_01.json",
      "ValueSource": {},
      "CampID": 4,
      "CustomTriggerMap": {},
      "CustomTriggerMapV2": {},
      "BridgeStateRotations": [],
      "DialogueGroups": [],
      "TalkDialogGroupIDList": [],
      "ServerInteractVerificationIDList": [],
      "TriggerValidGuest": {},
      "TagContainer": {},
      "CameraCenterEntityList": [],
      "SpawnConfig": {
        "EntitySpawnConfig": {}
      }
    },
    {
      "ID": 300005,
      "PosX": 9.98,
      "PosY": 81.52,
      "PosZ": 740.41,
      "Name": "TrackingEff_02",
      "RotY": 90.0,
      "Scale": {
        "x": 1.0,
        "y": 1.0,
        "z": 1.301625
      },
      "PropID": 103092,
      "IsOverrideInitLevelGraph": true,
      "InitLevelGraph": "Config/Level/Props/Chap03/InitLevelGraph_Prop_Chap03_GravityMpfTrackEff_01.json",
      "ValueSource": {},
      "CampID": 4,
      "CustomTriggerMap": {},
      "CustomTriggerMapV2": {},
      "BridgeStateRotations": [],
      "DialogueGroups": [],
      "TalkDialogGroupIDList": [],
      "ServerInteractVerificationIDList": [],
      "TriggerValidGuest": {},
      "TagContainer": {},
      "CameraCenterEntityList": [],
      "SpawnConfig": {
        "EntitySpawnConfig": {}
      }
    }
  ],
  "NPCList": []
}