{
  "GroupGUID": "192147fa-cb57-409a-9d76-000277f15813",
  "GroupName": "Charger",
  "AreaAnchorName": "LevelArea_P20332_F20332001_G50",
  "SaveType": "Reset",
  "SavedValueCondition": {
    "Conditions": [],
    "Operation": "And"
  },
  "LoadOnInitial": true,
  "ValueSource": {},
  "ConflictIDList": [],
  "IsHoyoGroup": true,
  "ConflictWhiteList": [],
  "TagContainer": {},
  "AnchorList": [
    {
      "ID": 1,
      "PosX": 443.8102,
      "PosY": 18.68002,
      "PosZ": 236.31,
      "Name": "Anchor1",
      "RotY": 90.0,
      "RotZ": 180.0
    }
  ],
  "MonsterList": [],
  "PropList": [
    {
      "ID": 300013,
      "PosX": 404.26,
      "PosY": -2.753004,
      "PosZ": 157.57,
      "Name": "Charger01",
      "PropID": 103001,
      "ValueSource": {},
      "CampID": 4,
      "CustomTriggerMap": {},
      "CustomTriggerMapV2": {},
      "BridgeStateRotations": [],
      "MappingInfoID": 10063,
      "DialogueGroups": [],
      "TalkDialogGroupIDList": [],
      "ServerInteractVerificationIDList": [],
      "TriggerValidGuest": {},
      "TagContainer": {},
      "CameraCenterEntityList": [],
      "SpawnConfig": {
        "EntitySpawnConfig": {}
      }
    }
  ],
  "NPCList": []
}