{
  "GroupGUID": "9433ca66-fe28-4a7c-8e23-5b4a8e9ec539",
  "GroupName": "ClockToy",
  "AreaAnchorName": "LevelArea_P20332_F20332001_G321",
  "SaveDimensionFilter": {},
  "SavedValueCondition": {
    "Conditions": [],
    "Operation": "And"
  },
  "LoadSide": "Server",
  "LoadOnInitial": true,
  "ValueSource": {},
  "ConflictIDList": [],
  "IsHoyoGroup": true,
  "HoYoGroupType": "Container",
  "ConflictWhiteList": [],
  "TagContainer": {},
  "AnchorList": [],
  "MonsterList": [],
  "PropList": [
    {
      "ID": 300001,
      "PosX": 125.01,
      "PosY": 0.670052,
      "PosZ": 253.5808,
      "Name": "Entrance",
      "RotY": 270.0,
      "PropID": 103018,
      "ValueSource": {
        "Values": [
          {
            "$type": "SharedString",
            "Key": "PuzzlePrefabRef",
            "Value": "Gameplays/ClockBox/ClockBoxPuzzles/ClockBox_Difficult_G_01.prefab"
          },
          {
            "$type": "SharedString",
            "Key": "ControlledPawnKey",
            "Value": ",400001"
          },
          {
            "$type": "SharedString",
            "Key": "PerformanceID_01",
            "Value": "703030119"
          },
          {
            "$type": "SharedString",
            "Key": "PerformanceID_02",
            "Value": "703030120"
          }
        ]
      },
      "CampID": 4,
      "State": "ChestLocked",
      "CustomTriggerMap": {},
      "CustomTriggerMapV2": {},
      "BridgeStateRotations": [],
      "ChestID": 20332658,
      "MappingInfoID": 10060,
      "DialogueGroups": [],
      "TalkDialogGroupIDList": [],
      "ServerInteractVerificationIDList": [],
      "TriggerValidGuest": {},
      "TagContainer": {},
      "CameraCenterEntityList": [],
      "SpawnConfig": {
        "EntitySpawnConfig": {}
      }
    }
  ],
  "NPCList": [
    {
      "ID": 400001,
      "IsDelete": true,
      "Name": "ClockKid",
      "NPCID": 3102,
      "ValueSource": {},
      "DialogueGroups": [],
      "ServerInteractVerificationIDList": [],
      "BoardShowList": [],
      "TalkDialogGroupIDList": [],
      "DefaultIdleFreeStyleMotionID": 900160000,
      "InitialHiddenNodeList": [],
      "TagContainer": {},
      "CameraCenterEntityList": [],
      "SpawnConfig": {
        "EntitySpawnConfig": {},
        "CaptureDistanceTolerance": 10.0
      },
      "TriggerValidGuest": {}
    }
  ]
}