{
  "GroupGUID": "1cfff640-d7bc-4660-b0ab-71e27ba2f837",
  "GroupName": "MainMission8021502_New Group",
  "Category": "Mission",
  "LevelGraph": "Config/Level/GroupGraph/F20332001/Group_F20332001_G371.json",
  "AreaAnchorName": "LevelArea_P20332_F20332001_G371",
  "SaveType": "Reset",
  "OwnerMainMissionID": 8021502,
  "ValueSource": {},
  "ConflictIDList": [],
  "IsHoyoGroup": true,
  "ConflictWhiteList": [],
  "TagContainer": {},
  "AnchorList": [],
  "MonsterList": [],
  "PropList": [],
  "NPCList": []
}