{
  "GroupGUID": "179ab6ee-688b-4b44-bef6-50605332306e",
  "GroupName": "MainMission8021501_New Group",
  "Category": "Mission",
  "LevelGraph": "Config/Level/GroupGraph/F20332001/Group_F20332001_G350.json",
  "AreaAnchorName": "LevelArea_P20332_F20332001_G350",
  "SaveType": "Reset",
  "OwnerMainMissionID": 8021501,
  "ValueSource": {},
  "ConflictIDList": [],
  "IsHoyoGroup": true,
  "ConflictWhiteList": [],
  "TagContainer": {},
  "AnchorList": [
    {
      "ID": 1,
      "PosX": 112.7093,
      "PosY": 13.74995,
      "PosZ": 147.3617,
      "Name": "Anchor1",
      "RotY": 168.4091,
      "Usage": "Actor"
    }
  ],
  "MonsterList": [],
  "PropList": [
    {
      "ID": 300001,
      "PosX": 110.553,
      "PosY": 13.74998,
      "PosZ": 148.26,
      "Name": "Prop1",
      "PropID": 100,
      "ValueSource": {},
      "CustomTriggerMap": {},
      "CustomTriggerMapV2": {},
      "BridgeStateRotations": [],
      "DialogueGroups": [],
      "TalkDialogGroupIDList": [],
      "ServerInteractVerificationIDList": [],
      "TriggerValidGuest": {},
      "TagContainer": {},
      "CameraCenterEntityList": [],
      "SpawnConfig": {
        "EntitySpawnConfig": {}
      }
    }
  ],
  "NPCList": [
    {
      "ID": 400001,
      "PosX": 112.7715,
      "PosY": 13.74995,
      "PosZ": 146.36,
      "Name": "NPC1",
      "NPCID": 13236,
      "ValueSource": {},
      "DialogueGroups": [],
      "ServerInteractVerificationIDList": [],
      "BoardShowList": [],
      "TalkDialogGroupIDList": [],
      "DefaultIdleFreeStyleMotionID": 100020000,
      "InitialHiddenNodeList": [],
      "TagContainer": {},
      "CameraCenterEntityList": [],
      "SpawnConfig": {
        "EntitySpawnConfig": {}
      },
      "TriggerValidGuest": {}
    }
  ]
}