{
  "GroupGUID": "7f97bab1-f3fc-49f4-97f9-28eb721e5990",
  "GroupName": "MainMission1032902_27",
  "Category": "Custom",
  "AreaAnchorName": "LevelArea_P20332_F20332001_G441",
  "SaveType": "Reset",
  "ValueSource": {},
  "ConflictIDList": [],
  "IsHoyoGroup": true,
  "HoYoGroupType": "Container",
  "ConflictWhiteList": [],
  "TagContainer": {},
  "AnchorList": [],
  "MonsterList": [],
  "PropList": [
    {
      "ID": 300001,
      "PosX": 145.97,
      "PosY": 6.326,
      "PosZ": -399.53,
      "Name": "Prop1",
      "RotY": 119.2696,
      "PropID": 103193,
      "ValueSource": {},
      "CampID": 4,
      "State": "CustomState02",
      "CustomTriggerMap": {},
      "CustomTriggerMapV2": {},
      "BridgeStateRotations": [],
      "DialogueGroups": [],
      "TalkDialogGroupIDList": [],
      "ServerInteractVerificationIDList": [],
      "TriggerValidGuest": {},
      "TagContainer": {},
      "CameraCenterEntityList": [],
      "SpawnConfig": {
        "EntitySpawnConfig": {}
      }
    }
  ],
  "NPCList": []
}