{
  "GroupGUID": "ab5804e5-cc0f-45e1-ad44-1a23ee332ae5",
  "GroupName": "MainMission1032902_25",
  "Category": "Mission",
  "LevelGraph": "Config/Level/GroupGraph/F20332001/Group_F20332001_G187.json",
  "AreaAnchorName": "LevelArea_P20332_F20332001_G187",
  "SaveType": "Reset",
  "OwnerMainMissionID": 1032902,
  "ValueSource": {},
  "ConflictIDList": [],
  "IsHoyoGroup": true,
  "ConflictWhiteList": [],
  "TagContainer": {},
  "AnchorList": [
    {
      "ID": 1,
      "PosX": 152.89,
      "PosY": 7.0,
      "PosZ": -403.45,
      "Name": "Anchor1",
      "RotY": 304.1438
    },
    {
      "ID": 2,
      "PosX": 154.162,
      "PosY": 7.0,
      "PosZ": -400.587,
      "Name": "Anchor2",
      "RotY": 261.9797
    },
    {
      "ID": 3,
      "PosX": 148.234,
      "PosY": 7.0,
      "PosZ": -396.929,
      "Name": "Anchor3",
      "RotY": 155.8318
    },
    {
      "ID": 4,
      "PosX": 152.527,
      "PosY": 7.0,
      "PosZ": -397.666,
      "Name": "Anchor4",
      "RotY": 215.7434
    },
    {
      "ID": 5,
      "PosX": 145.97,
      "PosY": 7.0,
      "PosZ": -399.53,
      "Name": "Anchor5",
      "RotY": 119.2696
    },
    {
      "ID": 6,
      "PosX": 152.89,
      "PosY": 8.0,
      "PosZ": -403.45,
      "Name": "Anchor6",
      "RotY": 304.1438
    },
    {
      "ID": 7,
      "PosX": 154.162,
      "PosY": 8.0,
      "PosZ": -400.587,
      "Name": "Anchor7",
      "RotY": 261.9797
    },
    {
      "ID": 8,
      "PosX": 148.234,
      "PosY": 8.0,
      "PosZ": -396.929,
      "Name": "Anchor8",
      "RotY": 155.8318
    },
    {
      "ID": 9,
      "PosX": 152.527,
      "PosY": 8.0,
      "PosZ": -397.666,
      "Name": "Anchor9",
      "RotY": 215.7434
    },
    {
      "ID": 10,
      "PosX": 145.97,
      "PosY": 8.0,
      "PosZ": -399.53,
      "Name": "Anchor10",
      "RotY": 119.2696
    },
    {
      "ID": 11,
      "PosX": 138.1287,
      "PosY": 6.298332,
      "PosZ": -400.9062,
      "Name": "Anchor11",
      "RotY": 87.19151,
      "Usage": "Actor"
    }
  ],
  "MonsterList": [],
  "PropList": [
    {
      "ID": 300001,
      "PosX": 154.162,
      "PosY": 6.342,
      "PosZ": -400.587,
      "Name": "Prop1",
      "RotY": 261.9797,
      "PropID": 103193,
      "ValueSource": {},
      "CampID": 4,
      "State": "CustomState02",
      "CustomTriggerMap": {},
      "CustomTriggerMapV2": {},
      "BridgeStateRotations": [],
      "DialogueGroups": [],
      "TalkDialogGroupIDList": [],
      "ServerInteractVerificationIDList": [],
      "TriggerValidGuest": {},
      "TagContainer": {},
      "CameraCenterEntityList": [],
      "SpawnConfig": {
        "EntitySpawnConfig": {}
      }
    },
    {
      "ID": 300002,
      "PosX": 152.89,
      "PosY": 6.342,
      "PosZ": -403.45,
      "Name": "Prop2",
      "RotY": 304.1438,
      "PropID": 103193,
      "ValueSource": {},
      "CampID": 4,
      "State": "CustomState02",
      "CustomTriggerMap": {},
      "CustomTriggerMapV2": {},
      "BridgeStateRotations": [],
      "DialogueGroups": [],
      "TalkDialogGroupIDList": [],
      "ServerInteractVerificationIDList": [],
      "TriggerValidGuest": {},
      "TagContainer": {},
      "CameraCenterEntityList": [],
      "SpawnConfig": {
        "EntitySpawnConfig": {}
      }
    },
    {
      "ID": 300003,
      "PosX": 152.527,
      "PosY": 6.332,
      "PosZ": -397.666,
      "Name": "Prop3",
      "RotY": 215.7434,
      "PropID": 103193,
      "ValueSource": {},
      "CampID": 4,
      "State": "CustomState02",
      "CustomTriggerMap": {},
      "CustomTriggerMapV2": {},
      "BridgeStateRotations": [],
      "DialogueGroups": [],
      "TalkDialogGroupIDList": [],
      "ServerInteractVerificationIDList": [],
      "TriggerValidGuest": {},
      "TagContainer": {},
      "CameraCenterEntityList": [],
      "SpawnConfig": {
        "EntitySpawnConfig": {}
      }
    },
    {
      "ID": 300004,
      "PosX": 148.234,
      "PosY": 6.368,
      "PosZ": -396.929,
      "Name": "Prop4",
      "RotY": 155.8318,
      "PropID": 103193,
      "ValueSource": {},
      "CampID": 4,
      "State": "CustomState02",
      "CustomTriggerMap": {},
      "CustomTriggerMapV2": {},
      "BridgeStateRotations": [],
      "DialogueGroups": [],
      "TalkDialogGroupIDList": [],
      "ServerInteractVerificationIDList": [],
      "TriggerValidGuest": {},
      "TagContainer": {},
      "CameraCenterEntityList": [],
      "SpawnConfig": {
        "EntitySpawnConfig": {}
      }
    },
    {
      "ID": 300005,
      "PosX": 145.97,
      "PosY": 6.326,
      "PosZ": -399.53,
      "Name": "Prop5",
      "RotY": 119.2696,
      "PropID": 103193,
      "ValueSource": {},
      "CampID": 4,
      "State": "CustomState02",
      "CustomTriggerMap": {},
      "CustomTriggerMapV2": {},
      "BridgeStateRotations": [],
      "DialogueGroups": [],
      "TalkDialogGroupIDList": [],
      "ServerInteractVerificationIDList": [],
      "TriggerValidGuest": {},
      "TagContainer": {},
      "CameraCenterEntityList": [],
      "SpawnConfig": {
        "EntitySpawnConfig": {}
      }
    },
    {
      "ID": 300006,
      "PosX": 135.43,
      "PosY": 6.298331,
      "PosZ": -400.6,
      "Name": "Prop6",
      "PropID": 100,
      "ValueSource": {},
      "CampID": 4,
      "CustomTriggerMap": {},
      "CustomTriggerMapV2": {
        "MissionTrigger": {
          "Shape": "Box",
          "Radius": 2.0,
          "DimX": 4.0,
          "DimY": 4.0,
          "DimZ": 7.0,
          "PointList": []
        }
      },
      "BridgeStateRotations": [],
      "DialogueGroups": [],
      "TalkDialogGroupIDList": [],
      "ServerInteractVerificationIDList": [],
      "TriggerValidGuest": {},
      "TagContainer": {},
      "CameraCenterEntityList": [],
      "SpawnConfig": {
        "EntitySpawnConfig": {}
      }
    }
  ],
  "NPCList": [
    {
      "ID": 400001,
      "PosX": 152.89,
      "PosY": 6.342,
      "PosZ": -403.45,
      "Name": "NPC1",
      "RotY": 304.1438,
      "NPCID": 100,
      "ValueSource": {},
      "DialogueGroups": [],
      "ServerInteractVerificationIDList": [],
      "BoardShowList": [
        128
      ],
      "OverrideNPCName": {
        "Hash": -1011078876
      },
      "TalkDialogGroupIDList": [],
      "InitialHiddenNodeList": [],
      "OverrideBehaviorType": "DreamlandActor",
      "TagContainer": {},
      "CameraCenterEntityList": [],
      "SpawnConfig": {
        "EntitySpawnConfig": {}
      },
      "TriggerValidGuest": {}
    },
    {
      "ID": 400002,
      "PosX": 154.162,
      "PosY": 6.342,
      "PosZ": -400.587,
      "Name": "NPC2",
      "RotY": 261.9797,
      "NPCID": 100,
      "ValueSource": {},
      "DialogueGroups": [],
      "ServerInteractVerificationIDList": [],
      "BoardShowList": [],
      "OverrideNPCName": {
        "Hash": 1279501425
      },
      "TalkDialogGroupIDList": [],
      "InitialHiddenNodeList": [],
      "TagContainer": {},
      "CameraCenterEntityList": [],
      "SpawnConfig": {
        "EntitySpawnConfig": {}
      },
      "TriggerValidGuest": {}
    },
    {
      "ID": 400003,
      "PosX": 148.234,
      "PosY": 6.368,
      "PosZ": -396.929,
      "Name": "NPC3",
      "RotY": 155.8318,
      "NPCID": 100,
      "ValueSource": {},
      "DialogueGroups": [],
      "ServerInteractVerificationIDList": [],
      "BoardShowList": [],
      "OverrideNPCName": {
        "Hash": -427783262
      },
      "TalkDialogGroupIDList": [],
      "InitialHiddenNodeList": [],
      "TagContainer": {},
      "CameraCenterEntityList": [],
      "SpawnConfig": {
        "EntitySpawnConfig": {}
      },
      "TriggerValidGuest": {}
    },
    {
      "ID": 400004,
      "PosX": 152.527,
      "PosY": 6.332,
      "PosZ": -397.666,
      "Name": "NPC4",
      "RotY": 215.7434,
      "NPCID": 100,
      "ValueSource": {},
      "DialogueGroups": [],
      "ServerInteractVerificationIDList": [],
      "BoardShowList": [],
      "OverrideNPCName": {
        "Hash": -1826570035
      },
      "TalkDialogGroupIDList": [],
      "InitialHiddenNodeList": [],
      "TagContainer": {},
      "CameraCenterEntityList": [],
      "SpawnConfig": {
        "EntitySpawnConfig": {}
      },
      "TriggerValidGuest": {}
    },
    {
      "ID": 400005,
      "PosX": 145.97,
      "PosY": 6.326,
      "PosZ": -399.53,
      "Name": "NPC5",
      "RotY": 119.2696,
      "NPCID": 100,
      "ValueSource": {},
      "DialogueGroups": [],
      "ServerInteractVerificationIDList": [],
      "BoardShowList": [],
      "OverrideNPCName": {
        "Hash": 672550626
      },
      "TalkDialogGroupIDList": [],
      "InitialHiddenNodeList": [],
      "TagContainer": {},
      "CameraCenterEntityList": [],
      "SpawnConfig": {
        "EntitySpawnConfig": {}
      },
      "TriggerValidGuest": {}
    },
    {
      "ID": 400006,
      "PosX": 149.9611,
      "PosY": 6.327491,
      "PosZ": -400.784,
      "Name": "NPC6",
      "RotY": 221.7124,
      "NPCID": 2318,
      "ValueSource": {},
      "DialogueGroups": [],
      "ServerInteractVerificationIDList": [],
      "BoardShowList": [],
      "TalkDialogGroupIDList": [],
      "DefaultIdleFreeStyleMotionID": 200430000,
      "InitialHiddenNodeList": [],
      "TagContainer": {},
      "CameraCenterEntityList": [],
      "SpawnConfig": {
        "EntitySpawnConfig": {}
      },
      "TriggerValidGuest": {}
    }
  ]
}