{
  "GroupGUID": "af478f21-c7bb-499a-9b1f-d3c6d6793e07",
  "GroupName": "MainMission8021501_New Group",
  "Category": "Mission",
  "AreaAnchorName": "LevelArea_P20332_F20332001_G357",
  "SaveType": "Reset",
  "OwnerMainMissionID": 8021501,
  "ValueSource": {},
  "ConflictIDList": [],
  "IsHoyoGroup": true,
  "ConflictWhiteList": [],
  "TagContainer": {},
  "AnchorList": [],
  "MonsterList": [],
  "PropList": [],
  "NPCList": [
    {
      "ID": 400001,
      "PosX": 112.7715,
      "PosY": 13.74995,
      "PosZ": 146.36,
      "Name": "NPC1",
      "NPCID": 13236,
      "ValueSource": {},
      "DialogueGroups": [],
      "ServerInteractVerificationIDList": [],
      "BoardShowList": [
        1
      ],
      "OverrideNPCName": {
        "Hash": 39884049
      },
      "TalkDialogGroupIDList": [],
      "DefaultIdleFreeStyleMotionID": 100020000,
      "InitialHiddenNodeList": [],
      "Dialog": {
        "LevelGraph": "Config/Level/NPCDialogue/P20332/F20332001_G357/DialogueMain_F20332001_G357_N400001.json",
        "PackList": []
      },
      "TagContainer": {},
      "CameraCenterEntityList": [],
      "SpawnConfig": {
        "EntitySpawnConfig": {}
      },
      "TriggerValidGuest": {}
    }
  ]
}