{
  "GroupGUID": "6d2c9711-845a-4919-9518-efcf9d12a3b3",
  "GroupName": "MainMission1032902_20",
  "Category": "Mission",
  "LevelGraph": "Config/Level/GroupGraph/F20332001/Group_F20332001_G171.json",
  "AreaAnchorName": "LevelArea_P20332_F20332001_G171",
  "SaveType": "Reset",
  "OwnerMainMissionID": 1032902,
  "ValueSource": {
    "Values": [
      {
        "$type": "SharedString",
        "Key": "LookAt",
        "Value": "171,300001"
      },
      {
        "$type": "SharedString",
        "Key": "Camera",
        "Value": "LevelArea_P20332_F20332001_G171,Anchor1"
      }
    ]
  },
  "ConflictIDList": [],
  "IsHoyoGroup": true,
  "ConflictWhiteList": [],
  "TagContainer": {},
  "AnchorList": [
    {
      "ID": 1,
      "PosX": 0.668626,
      "PosY": 12.47,
      "PosZ": 148.58,
      "Name": "Anchor1",
      "Usage": "Camera",
      "CustomParameter": {
        "$type": "LevelAnchorCameraParameter"
      }
    }
  ],
  "MonsterList": [],
  "PropList": [
    {
      "ID": 300001,
      "PosX": 1.090001,
      "PosY": 10.27603,
      "PosZ": 165.99,
      "Name": "Prop1",
      "PropID": 100,
      "ValueSource": {},
      "CampID": 4,
      "CustomTriggerMap": {},
      "CustomTriggerMapV2": {},
      "BridgeStateRotations": [],
      "DialogueGroups": [],
      "TalkDialogGroupIDList": [],
      "ServerInteractVerificationIDList": [],
      "TriggerValidGuest": {},
      "TagContainer": {},
      "CameraCenterEntityList": [],
      "SpawnConfig": {
        "EntitySpawnConfig": {}
      }
    }
  ],
  "NPCList": []
}