{
  "GroupGUID": "1cd4ac71-e1b5-4f9a-8eef-48af50c35ba6",
  "GroupName": "Tpl_OrigamiBird_Normal",
  "LevelGraph": "Config/Level/GroupTemplateGraph/Puzzle/OrigamiBird/OrigamiBird_HaveCamera.json",
  "AreaAnchorName": "LevelArea_P20332_F20332001_G315",
  "SaveDimensionFilter": {},
  "SavedValueCondition": {
    "Conditions": [],
    "Operation": "And"
  },
  "IsPendedUnload": true,
  "LoadSide": "Server",
  "ValueSource": {
    "Values": [
      {
        "$type": "SharedString",
        "Key": "TriggerPerformance",
        "Value": "414032218"
      }
    ]
  },
  "ConflictIDList": [],
  "IsHoyoGroup": true,
  "ConflictWhiteList": [],
  "TagContainer": {},
  "AnchorList": [],
  "MonsterList": [],
  "PropList": [
    {
      "ID": 300001,
      "PosX": 221.7683,
      "PosY": 7.607322,
      "PosZ": -410.0126,
      "Name": "Prop1",
      "RotY": 245.2391,
      "RotX": 338.9173,
      "RotZ": 310.2418,
      "PropID": 103025,
      "ValueSource": {
        "Values": [
          {
            "$type": "SharedString",
            "Key": "OverrideButtonText",
            "Value": "PropInteractTitle_1 "
          },
          {
            "$type": "SharedString",
            "Key": "OverrideButtonIcon",
            "Value": "SpriteOutput/TalkIcon/OrigamiBirdIcon.png"
          },
          {
            "$type": "SharedUint",
            "Key": "DefaultIsOverrideButton",
            "Value": 2
          }
        ]
      },
      "CampID": 4,
      "State": "EventClose",
      "EventID": 20332718,
      "CustomTriggerMap": {},
      "CustomTriggerMapV2": {
        "InteractTrigger": {
          "Radius": 3.0,
          "DimX": 2.0,
          "DimY": 2.0,
          "DimZ": 2.0,
          "Offset": {
            "z": -6.0
          },
          "PointList": []
        }
      },
      "BridgeStateRotations": [],
      "DialogueGroups": [],
      "TalkDialogGroupIDList": [],
      "ServerInteractVerificationIDList": [],
      "TriggerValidGuest": {},
      "TagContainer": {},
      "CameraCollisionPoint": {
        "z": -0.5
      },
      "CameraCenterEntityList": [],
      "SpawnConfig": {
        "EntitySpawnConfig": {}
      }
    },
    {
      "ID": 300002,
      "PosX": 227.225,
      "PosY": 6.359456,
      "PosZ": -405.689,
      "Name": "Prop2",
      "PropID": 211,
      "IsOverrideInitLevelGraph": true,
      "ValueSource": {
        "Values": []
      },
      "CampID": 4,
      "State": "Open",
      "CustomTriggerMap": {},
      "CustomTriggerMapV2": {
        "InteractTrigger": {
          "Radius": 15.0,
          "PointList": []
        }
      },
      "BridgeStateRotations": [],
      "MappingInfoID": 10055,
      "DialogueGroups": [],
      "TalkDialogGroupIDList": [],
      "ServerInteractVerificationIDList": [],
      "OverrideMapIconType": 158,
      "OverrideMapStateIcons": [
        {
          "IconID": 158
        }
      ],
      "TriggerValidGuest": {},
      "TagContainer": {},
      "CameraCenterEntityList": [],
      "SpawnConfig": {
        "EntitySpawnConfig": {}
      }
    }
  ],
  "NPCList": [
    {
      "ID": 400001,
      "PosX": 226.699,
      "PosY": 7.057,
      "PosZ": -406.183,
      "Name": "NPC1",
      "RotY": 64.65155,
      "NPCID": 3028,
      "ValueSource": {
        "Values": []
      },
      "CampID": 1,
      "StaticNPC": true,
      "DialogueGroups": [],
      "ServerInteractVerificationIDList": [],
      "BoardShowList": [
        2,
        4,
        8
      ],
      "TalkDialogGroupIDList": [],
      "DefaultAnimationType": "IdleState",
      "DefaultIdleFreeStyleMotionID": 900090266,
      "InitialHiddenNodeList": [],
      "TagContainer": {},
      "CameraCenterEntityList": [],
      "SpawnConfig": {
        "EntitySpawnConfig": {},
        "CaptureDistanceTolerance": 10.0
      },
      "IsClientOnly": true,
      "TriggerValidGuest": {}
    }
  ]
}