{
  "GroupGUID": "2b92b4fa-095c-4e7c-a996-db45e525eacd",
  "GroupName": "Sound",
  "AreaAnchorName": "LevelArea_P20332_F20332001_G385",
  "SaveType": "Reset",
  "SavedValueCondition": {
    "Conditions": [
      {
        "SavedValueName": "Scene_Transit",
        "Operation": "Equal"
      }
    ],
    "Operation": "And"
  },
  "LoadOnInitial": true,
  "ValueSource": {},
  "ConflictIDList": [],
  "IsHoyoGroup": true,
  "HoYoGroupType": "Container",
  "ConflictWhiteList": [],
  "TagContainer": {
    "List": [
      {
        "Tag": "Group.Audio.Sound",
        "TagHash": 1757672304
      }
    ]
  },
  "AnchorList": [],
  "MonsterList": [],
  "PropList": [],
  "NPCList": []
}