{
  "GroupGUID": "0439888f-70d7-4a9b-8d53-a92a62f9617a",
  "GroupName": "MainMission8021501_New Group",
  "Category": "Mission",
  "LevelGraph": "Config/Level/GroupGraph/F20332001/Group_F20332001_G464.json",
  "AreaAnchorName": "LevelArea_P20332_F20332001_G464",
  "SaveType": "Reset",
  "OwnerMainMissionID": 8021501,
  "ValueSource": {},
  "ConflictIDList": [],
  "IsHoyoGroup": true,
  "ConflictWhiteList": [],
  "TagContainer": {},
  "AnchorList": [],
  "MonsterList": [],
  "PropList": [
    {
      "ID": 300001,
      "PosX": -537.16,
      "PosY": 14.87,
      "PosZ": -291.02,
      "Name": "Prop1",
      "PropID": 100,
      "ValueSource": {},
      "CampID": 4,
      "CustomTriggerMap": {},
      "CustomTriggerMapV2": {
        "MissionTrigger": {
          "Radius": 8.0,
          "PointList": []
        }
      },
      "BridgeStateRotations": [],
      "DialogueGroups": [],
      "TalkDialogGroupIDList": [],
      "ServerInteractVerificationIDList": [],
      "TriggerValidGuest": {},
      "TagContainer": {},
      "CameraCenterEntityList": [],
      "SpawnConfig": {
        "EntitySpawnConfig": {}
      }
    }
  ],
  "NPCList": []
}