{
  "GroupGUID": "2d75ab27-139f-4871-a2c6-ec10f5e0d450",
  "GroupName": "DefaultDistructable",
  "AreaAnchorName": "LevelArea_P20332_F20332001_G279",
  "SaveDimensionFilter": {},
  "SavedValueCondition": {
    "Conditions": [],
    "Operation": "And"
  },
  "LoadSide": "Server",
  "LoadOnInitial": true,
  "GroupRefreshID": 1001,
  "ValueSource": {},
  "ConflictIDList": [],
  "IsHoyoGroup": true,
  "HoYoGroupType": "Container",
  "ConflictWhiteList": [],
  "TagContainer": {},
  "AnchorList": [],
  "MonsterList": [],
  "PropList": [
    {
      "ID": 300002,
      "PosX": 57.0453,
      "PosY": 71.33582,
      "PosZ": 784.6765,
      "Name": "Prop2",
      "RotY": -1.0E-5,
      "RotX": 329.1288,
      "RotZ": 90.00003,
      "PropID": 103017,
      "ValueSource": {
        "Values": [
          {
            "$type": "SharedUint",
            "Key": "RotationType"
          }
        ]
      },
      "CampID": 4,
      "EventID": 20332401,
      "CustomTriggerMap": {},
      "CustomTriggerMapV2": {},
      "BridgeStateRotations": [],
      "DialogueGroups": [],
      "TalkDialogGroupIDList": [],
      "ServerInteractVerificationIDList": [],
      "HideInCutScene": true,
      "HideInStory": true,
      "PerformanceHideFlags": -8,
      "TriggerValidGuest": {},
      "TagContainer": {},
      "CameraCenterEntityList": [],
      "SpawnConfig": {
        "EntitySpawnConfig": {}
      }
    },
    {
      "ID": 300001,
      "PosX": 57.03,
      "PosY": 97.48,
      "PosZ": 780.77,
      "Name": "Prop1",
      "RotY": 180.0001,
      "RotX": 283.8192,
      "RotZ": 269.9999,
      "PropID": 103017,
      "ValueSource": {
        "Values": [
          {
            "$type": "SharedUint",
            "Key": "RotationType"
          }
        ]
      },
      "CampID": 4,
      "EventID": 20332401,
      "CustomTriggerMap": {},
      "CustomTriggerMapV2": {},
      "BridgeStateRotations": [],
      "DialogueGroups": [],
      "TalkDialogGroupIDList": [],
      "ServerInteractVerificationIDList": [],
      "HideInCutScene": true,
      "HideInStory": true,
      "PerformanceHideFlags": -8,
      "TriggerValidGuest": {},
      "TagContainer": {},
      "CameraCenterEntityList": [],
      "SpawnConfig": {
        "EntitySpawnConfig": {}
      }
    }
  ],
  "NPCList": []
}