{
  "GroupGUID": "0b06f38d-556a-4015-a702-6d1ae2308b0b",
  "GroupName": "DefaultMonster",
  "AreaAnchorName": "LevelArea_P20332_F20332001_G419",
  "SaveDimensionFilter": {},
  "SavedValueCondition": {
    "Conditions": [
      {
        "SavedValueName": "GravityChallengeDifficulty",
        "Operation": "Equal",
        "Value": 3
      }
    ],
    "Operation": "And"
  },
  "LoadSide": "Server",
  "GroupRefreshID": 1001,
  "ValueSource": {},
  "ConflictIDList": [],
  "IsHoyoGroup": true,
  "ConflictWhiteList": [],
  "TagContainer": {},
  "AnchorList": [],
  "MonsterList": [
    {
      "ID": 200001,
      "PosX": -453.073,
      "PosY": 3.006008,
      "PosZ": -249.103,
      "Name": "Monster1",
      "RotY": 42.8234,
      "NPCMonsterID": 3012040,
      "AIConfig": {
        "PathwayList": [],
        "SlaveConfigList": []
      },
      "AIVariableSource": {},
      "ValueSource": {},
      "CampID": 3,
      "BattleArea": {
        "GroupID": 1,
        "ID": 3
      },
      "EventID": 20332191,
      "BoardShowList": [
        4
      ],
      "TagList": [],
      "SpawnConfig": {
        "EntitySpawnConfig": {}
      },
      "TagContainer": {}
    },
    {
      "ID": 200002,
      "PosX": -503.6845,
      "PosY": 5.870012,
      "PosZ": -333.8387,
      "Name": "Monster2",
      "RotY": 69.20331,
      "NPCMonsterID": 3012040,
      "AIConfig": {
        "PathwayList": [
          {
            "UseOwnerGroup": true,
            "UseGroup": 419,
            "UseID": 1,
            "StartAt": 1
          }
        ],
        "SlaveConfigList": []
      },
      "AIVariableSource": {},
      "ValueSource": {},
      "CampID": 3,
      "BattleArea": {
        "GroupID": 1,
        "ID": 3
      },
      "EventID": 20332192,
      "BoardShowList": [
        4
      ],
      "TagList": [],
      "SpawnConfig": {
        "EntitySpawnConfig": {}
      },
      "TagContainer": {}
    },
    {
      "ID": 200003,
      "PosX": -500.5749,
      "PosY": 5.870011,
      "PosZ": -325.8951,
      "Name": "Monster3",
      "RotY": 347.9119,
      "NPCMonsterID": 3012010,
      "AIConfig": {
        "PathwayList": [],
        "SlaveConfigList": []
      },
      "AIVariableSource": {},
      "ValueSource": {},
      "CampID": 3,
      "BattleArea": {
        "GroupID": 1,
        "ID": 3
      },
      "InitialAnimState": "SpecialStandBy1",
      "EventID": 20332193,
      "BoardShowList": [
        4
      ],
      "TagList": [],
      "SpawnConfig": {
        "EntitySpawnConfig": {}
      },
      "TagContainer": {}
    },
    {
      "ID": 200004,
      "PosX": -493.4111,
      "PosY": 33.045,
      "PosZ": -284.9796,
      "Name": "Monster4",
      "RotY": 90.1,
      "NPCMonsterID": 3012040,
      "AIConfig": {
        "PathwayList": [
          {
            "UseOwnerGroup": true,
            "UseGroup": 419,
            "UseID": 2,
            "StartAt": 3
          }
        ],
        "SlaveConfigList": []
      },
      "AIVariableSource": {},
      "ValueSource": {},
      "CampID": 3,
      "BattleArea": {
        "GroupID": 1,
        "ID": 3
      },
      "EventID": 20332194,
      "BoardShowList": [
        4
      ],
      "TagList": [],
      "SpawnConfig": {
        "EntitySpawnConfig": {}
      },
      "TagContainer": {}
    },
    {
      "ID": 200005,
      "PosX": -507.0297,
      "PosY": 33.045,
      "PosZ": -296.2828,
      "Name": "Monster5",
      "RotY": 292.5128,
      "NPCMonsterID": 3012010,
      "AIConfig": {
        "PathwayList": [],
        "SlaveConfigList": []
      },
      "AIVariableSource": {},
      "ValueSource": {},
      "CampID": 3,
      "BattleArea": {
        "GroupID": 1,
        "ID": 3
      },
      "InitialAnimState": "SpecialStandBy1",
      "EventID": 20332195,
      "BoardShowList": [
        4
      ],
      "TagList": [],
      "SpawnConfig": {
        "EntitySpawnConfig": {}
      },
      "TagContainer": {}
    },
    {
      "ID": 200006,
      "PosX": -507.5936,
      "PosY": 33.045,
      "PosZ": -286.6434,
      "Name": "Monster6",
      "RotY": 256.8807,
      "NPCMonsterID": 3012010,
      "AIConfig": {
        "PathwayList": [],
        "SlaveConfigList": []
      },
      "AIVariableSource": {},
      "ValueSource": {},
      "CampID": 3,
      "BattleArea": {
        "GroupID": 1,
        "ID": 3
      },
      "InitialAnimState": "SpecialStandBy1",
      "EventID": 20332198,
      "BoardShowList": [
        4
      ],
      "TagList": [],
      "SpawnConfig": {
        "EntitySpawnConfig": {}
      },
      "TagContainer": {}
    }
  ],
  "PropList": [],
  "NPCList": []
}