{
  "GroupGUID": "f5fdbb53-8f86-40d2-a640-8b283b0455e4",
  "GroupName": "MainMission1032902_29",
  "Category": "Mission",
  "LevelGraph": "Config/Level/GroupGraph/F20332001/Group_F20332001_G189.json",
  "AreaAnchorName": "LevelArea_P20332_F20332001_G189",
  "SaveDimensionFilter": {},
  "LoadSide": "Server",
  "OwnerMainMissionID": 1032902,
  "ValueSource": {},
  "ConflictIDList": [],
  "IsHoyoGroup": true,
  "ConflictWhiteList": [],
  "TagContainer": {},
  "AnchorList": [],
  "MonsterList": [],
  "PropList": [],
  "NPCList": []
}