{
  "GroupGUID": "d2c8b335-aceb-4018-995d-0819137a7296",
  "GroupName": "Charger",
  "AreaAnchorName": "LevelArea_P20332_F20332001_G61",
  "SaveType": "Reset",
  "SavedValueCondition": {
    "Conditions": [],
    "Operation": "And"
  },
  "LoadOnInitial": true,
  "ValueSource": {},
  "ConflictIDList": [],
  "IsHoyoGroup": true,
  "HoYoGroupType": "Container",
  "ConflictWhiteList": [],
  "TagContainer": {},
  "AnchorList": [
    {
      "ID": 1,
      "PosX": 450.0219,
      "PosY": -5.63945,
      "PosZ": 146.5559,
      "Name": "Anchor1",
      "RotY": 270.0,
      "RotZ": 270.0
    },
    {
      "ID": 2,
      "PosX": 431.8102,
      "PosY": 0.680026,
      "PosZ": 236.31,
      "Name": "Anchor2",
      "RotY": 90.00026,
      "RotZ": 180.0
    }
  ],
  "MonsterList": [],
  "PropList": [
    {
      "ID": 300001,
      "PosX": 438.5,
      "PosY": 0.706552,
      "PosZ": 222.781,
      "Name": "Charger01",
      "RotY": 180.0,
      "RotX": 0.019942,
      "RotZ": 180.0,
      "PropID": 103001,
      "ValueSource": {},
      "CampID": 4,
      "CustomTriggerMap": {},
      "CustomTriggerMapV2": {},
      "BridgeStateRotations": [],
      "MappingInfoID": 10063,
      "DialogueGroups": [],
      "TalkDialogGroupIDList": [],
      "ServerInteractVerificationIDList": [],
      "TriggerValidGuest": {},
      "TagContainer": {},
      "CameraCenterEntityList": [],
      "SpawnConfig": {
        "EntitySpawnConfig": {}
      }
    }
  ],
  "NPCList": []
}