{
  "GroupGUID": "a97d6ecf-43df-46ac-bda1-4067768d6914",
  "GroupName": "SlotMachine",
  "LevelGraph": "Config/Level/GroupGraph/F10301001/Group_F10301001_G155.json",
  "AreaAnchorName": "LevelArea_P10301_F10301001_G155",
  "SaveDimensionFilter": {},
  "SavedValueCondition": {
    "Conditions": [],
    "Operation": "And"
  },
  "LoadSide": "Server",
  "LoadOnInitial": true,
  "ValueSource": {},
  "ConflictIDList": [],
  "IsHoyoGroup": true,
  "ConflictWhiteList": [],
  "TagContainer": {},
  "AnchorList": [
    {
      "ID": 1,
      "PosX": -105.93,
      "PosY": -12.88,
      "PosZ": 159.9,
      "Name": "CamAnchor01",
      "RotY": 117.3428,
      "RotX": 14.98175,
      "RotZ": 357.8882,
      "Usage": "Camera",
      "CustomParameter": {
        "$type": "LevelAnchorCameraParameter"
      }
    }
  ],
  "MonsterList": [],
  "PropList": [
    {
      "ID": 300004,
      "PosX": -133.08,
      "PosY": -14.754,
      "PosZ": 182.705,
      "Name": "SlotMachine04",
      "RotY": 28.54676,
      "PropID": 103021,
      "ValueSource": {},
      "CampID": 4,
      "CustomTriggerMap": {},
      "CustomTriggerMapV2": {},
      "BridgeStateRotations": [],
      "DialogueGroups": [],
      "TalkDialogGroupIDList": [],
      "ServerInteractVerificationIDList": [],
      "StageObjectCapture": {
        "BlockAlias": "Chap03_CloseView_ADV_P01_BDD_BlockData",
        "PrefabAlias": "Chap03_SlotM7"
      },
      "TriggerValidGuest": {},
      "TagContainer": {},
      "CameraCenterEntityList": [],
      "SpawnConfig": {
        "EntitySpawnConfig": {}
      }
    },
    {
      "ID": 300005,
      "PosX": -132.772,
      "PosY": -14.751,
      "PosZ": 181.0797,
      "Name": "SlotMachine05",
      "RotY": 126.002,
      "PropID": 103021,
      "ValueSource": {},
      "CampID": 4,
      "CustomTriggerMap": {},
      "CustomTriggerMapV2": {},
      "BridgeStateRotations": [],
      "DialogueGroups": [],
      "TalkDialogGroupIDList": [],
      "ServerInteractVerificationIDList": [],
      "StageObjectCapture": {
        "BlockAlias": "Chap03_CloseView_ADV_P01_BDD_BlockData",
        "PrefabAlias": "Chap03_SlotM6"
      },
      "TriggerValidGuest": {},
      "TagContainer": {},
      "CameraCenterEntityList": [],
      "SpawnConfig": {
        "EntitySpawnConfig": {}
      }
    }
  ],
  "NPCList": []
}