{
  "GroupGUID": "70a2acb0-b50f-4a83-8919-e07d686fdfda",
  "GroupName": "MainMission1032705_04",
  "Category": "Mission",
  "LevelGraph": "Config/Level/GroupGraph/F10301001/Group_F10301001_G486.json",
  "AreaAnchorName": "LevelArea_P10301_F10301001_G486",
  "SaveType": "Reset",
  "OwnerMainMissionID": 1032705,
  "ValueSource": {},
  "ConflictIDList": [],
  "IsHoyoGroup": true,
  "ConflictWhiteList": [],
  "TagContainer": {},
  "AnchorList": [],
  "MonsterList": [],
  "PropList": [],
  "NPCList": []
}