{
  "GroupGUID": "ad1f8614-bf4a-4246-a760-d2b96ef761cc",
  "GroupName": "MainMission1030901_21",
  "Category": "Mission",
  "LevelGraph": "Config/Level/GroupGraph/F10301001/Group_F10301001_G234.json",
  "AreaAnchorName": "LevelArea_P10301_F10301001_G234",
  "SaveType": "Reset",
  "OwnerMainMissionID": 1030901,
  "ValueSource": {},
  "ConflictIDList": [],
  "IsHoyoGroup": true,
  "ConflictWhiteList": [],
  "TagContainer": {},
  "AnchorList": [],
  "MonsterList": [],
  "PropList": [
    {
      "ID": 300001,
      "PosX": -0.18,
      "PosY": -22.21283,
      "PosZ": 206.13,
      "Name": "Prop1",
      "PropID": 111,
      "ValueSource": {},
      "CampID": 4,
      "CustomTriggerMap": {},
      "CustomTriggerMapV2": {},
      "BridgeStateRotations": [],
      "DialogueGroups": [],
      "TalkDialogGroupIDList": [],
      "ServerInteractVerificationIDList": [],
      "TriggerValidGuest": {},
      "CameraCenterEntityList": [],
      "SpawnConfig": {
        "EntitySpawnConfig": {}
      }
    }
  ],
  "NPCList": []
}