{
  "GroupGUID": "189d5c55-f02f-4f9a-948e-fcbdca22f00f",
  "GroupName": "NPC",
  "Category": "Atmosphere",
  "AreaAnchorName": "LevelArea_P10301_F10301001_G127",
  "SaveType": "Reset",
  "AtmosphereCondition": {
    "Conditions": [
      {
        "$type": "LevelGroupSubMissionCompleteCondition",
        "SubMissionID": 424031006
      }
    ]
  },
  "LoadOnInitial": true,
  "ValueSource": {},
  "ConflictIDList": [],
  "IsHoyoGroup": true,
  "HoYoGroupType": "Container",
  "ConflictWhiteList": [],
  "TagContainer": {},
  "AnchorList": [
    {
      "ID": 1,
      "PosX": 127.461,
      "PosY": -2.983,
      "PosZ": 59.367,
      "Name": "Anchor1",
      "RotY": 305.9266,
      "Usage": "Camera",
      "CustomParameter": {
        "$type": "LevelAnchorCameraParameter"
      }
    },
    {
      "ID": 2,
      "PosX": 128.9135,
      "PosY": -4.445775,
      "PosZ": 59.09426,
      "Name": "Anchor2",
      "RotY": 282.7235,
      "Usage": "Actor"
    }
  ],
  "MonsterList": [],
  "PropList": [],
  "NPCList": [
    {
      "ID": 400001,
      "PosX": 126.64,
      "PosY": -4.446816,
      "PosZ": 59.8,
      "Name": "NPC1",
      "RotY": 351.1305,
      "NPCID": 13109,
      "ValueSource": {},
      "DialogueGroups": [],
      "ServerInteractVerificationIDList": [],
      "DefaultLookAtMode": "Closed",
      "BoardShowList": [
        1,
        64,
        128
      ],
      "TalkDialogGroupIDList": [],
      "DefaultIdleFreeStyleMotionID": 100010000,
      "InitialHiddenNodeList": [],
      "OverrideBehaviorType": "DreamlandActor",
      "TagContainer": {},
      "CameraCenterEntityList": [],
      "SpawnConfig": {
        "EntitySpawnConfig": {}
      },
      "TriggerValidGuest": {}
    },
    {
      "ID": 400002,
      "PosX": 125.88,
      "PosY": -4.447606,
      "PosZ": 61.22,
      "Name": "NPC2",
      "RotY": 93.02975,
      "NPCID": 13201,
      "ValueSource": {},
      "DialogueGroups": [],
      "ServerInteractVerificationIDList": [],
      "DefaultLookAtMode": "Closed",
      "BoardShowList": [],
      "TalkDialogGroupIDList": [],
      "DefaultIdleFreeStyleMotionID": 100020000,
      "InitialHiddenNodeList": [],
      "TagContainer": {},
      "CameraCenterEntityList": [],
      "SpawnConfig": {
        "EntitySpawnConfig": {}
      },
      "TriggerValidGuest": {}
    }
  ]
}