{
  "GroupGUID": "1516af3b-87a2-4a1c-a504-53da36b1bae8",
  "GroupName": "NPC",
  "Category": "Atmosphere",
  "AreaAnchorName": "LevelArea_P10301_F10301001_G192",
  "SaveType": "Reset",
  "AtmosphereCondition": {
    "Conditions": [
      {
        "$type": "LevelGroupSubMissionCompleteCondition",
        "SubMissionID": 424030204
      }
    ]
  },
  "LoadOnInitial": true,
  "ValueSource": {},
  "ConflictIDList": [],
  "IsHoyoGroup": true,
  "HoYoGroupType": "Container",
  "ConflictWhiteList": [],
  "TagContainer": {},
  "AnchorList": [
    {
      "ID": 1,
      "PosX": -172.3431,
      "PosY": -11.006,
      "PosZ": 173.936,
      "Name": "Anchor1",
      "RotY": 260.6326,
      "Usage": "Camera",
      "CustomParameter": {
        "$type": "LevelAnchorCameraParameter"
      }
    },
    {
      "ID": 2,
      "PosX": -172.5841,
      "PosY": -11.86017,
      "PosZ": 173.334,
      "Name": "Anchor2",
      "RotY": 278.7289,
      "Usage": "Actor"
    },
    {
      "ID": 3,
      "PosX": -171.7861,
      "PosY": -10.111,
      "PosZ": 173.73,
      "Name": "Anchor3",
      "RotY": 258.9531,
      "RotX": 18.95504,
      "RotZ": 5.0E-6,
      "Usage": "Camera",
      "CustomParameter": {
        "$type": "LevelAnchorCameraParameter"
      }
    },
    {
      "ID": 4,
      "PosX": -172.356,
      "PosY": -11.009,
      "PosZ": 175.857,
      "Name": "Anchor4",
      "RotY": 124.6978,
      "Usage": "Actor"
    },
    {
      "ID": 5,
      "PosX": -173.4501,
      "PosY": -11.82581,
      "PosZ": 173.742,
      "Name": "Anchor5"
    },
    {
      "ID": 6,
      "PosX": -171.099,
      "PosY": -10.695,
      "PosZ": 174.547,
      "Name": "Anchor6",
      "RotY": 316.7477,
      "RotX": 347.8897,
      "Usage": "Camera",
      "CustomParameter": {
        "$type": "LevelAnchorCameraParameter"
      }
    }
  ],
  "MonsterList": [],
  "PropList": [],
  "NPCList": [
    {
      "ID": 400001,
      "PosX": -173.4501,
      "PosY": -11.82581,
      "PosZ": 173.742,
      "Name": "NPC1",
      "RotY": 80.92567,
      "NPCID": 13312,
      "ValueSource": {},
      "DialogueGroups": [],
      "ServerInteractVerificationIDList": [],
      "BoardShowList": [
        1,
        128,
        64
      ],
      "OverrideNPCTitle": {
        "Hash": -963625431
      },
      "TalkDialogGroupIDList": [],
      "DefaultIdleFreeStyleMotionID": 100040000,
      "InitialHiddenNodeList": [],
      "OverrideBehaviorType": "DreamlandActor",
      "TagContainer": {},
      "CameraCenterEntityList": [],
      "SpawnConfig": {
        "EntitySpawnConfig": {}
      },
      "TriggerValidGuest": {}
    },
    {
      "ID": 400002,
      "PosX": -172.356,
      "PosY": -11.009,
      "PosZ": 175.857,
      "Name": "NPC2",
      "RotY": 130.6474,
      "NPCID": 13312,
      "ValueSource": {},
      "DialogueGroups": [],
      "ServerInteractVerificationIDList": [],
      "BoardShowList": [
        1
      ],
      "TalkDialogGroupIDList": [],
      "DefaultIdleFreeStyleMotionID": 100040000,
      "InitialHiddenNodeList": [],
      "TagContainer": {},
      "CameraCenterEntityList": [],
      "SpawnConfig": {
        "EntitySpawnConfig": {}
      },
      "TriggerValidGuest": {}
    }
  ]
}