{
  "GroupGUID": "e0afa3aa-0aef-4cab-83c7-bfae90b56994",
  "GroupName": "NPC",
  "Category": "Atmosphere",
  "AreaAnchorName": "LevelArea_P10301_F10301001_G123",
  "SaveType": "Reset",
  "AtmosphereCondition": {
    "Conditions": [
      {
        "$type": "LevelGroupSubMissionCompleteCondition",
        "SubMissionID": 424030909
      }
    ]
  },
  "LoadOnInitial": true,
  "ValueSource": {},
  "ConflictIDList": [],
  "IsHoyoGroup": true,
  "HoYoGroupType": "Container",
  "ConflictWhiteList": [],
  "TagContainer": {},
  "AnchorList": [],
  "MonsterList": [],
  "PropList": [],
  "NPCList": [
    {
      "ID": 400001,
      "PosX": 148.29,
      "PosY": -6.686592,
      "PosZ": 164.66,
      "Name": "NPC1",
      "RotY": 231.8051,
      "NPCID": 13302,
      "ValueSource": {},
      "DialogueGroups": [],
      "ServerInteractVerificationIDList": [],
      "BoardShowList": [
        1,
        64,
        128
      ],
      "TalkDialogGroupIDList": [],
      "DefaultIdleFreeStyleMotionID": 100040231,
      "InitialHiddenNodeList": [],
      "OverrideBehaviorType": "DreamlandActor",
      "TagContainer": {},
      "CameraCenterEntityList": [],
      "SpawnConfig": {
        "EntitySpawnConfig": {}
      },
      "TriggerValidGuest": {}
    }
  ]
}