{
  "GroupGUID": "b36ba19f-1678-4a2f-9a2e-015d7e845bba",
  "GroupName": "MainMission1031001_1",
  "Category": "Mission",
  "LevelGraph": "Config/Level/GroupGraph/F10301001/Group_F10301001_G169.json",
  "AreaAnchorName": "LevelArea_P10301_F10301001_G169",
  "SaveType": "Reset",
  "OwnerMainMissionID": 1031001,
  "ValueSource": {},
  "ConflictIDList": [],
  "IsHoyoGroup": true,
  "ConflictWhiteList": [],
  "TagContainer": {},
  "AnchorList": [],
  "MonsterList": [],
  "PropList": [
    {
      "ID": 300001,
      "PosX": 0.4,
      "PosY": -22.21284,
      "PosZ": 207.57,
      "Name": "Prop1",
      "PropID": 111,
      "ValueSource": {},
      "CampID": 4,
      "CustomTriggerMap": {},
      "CustomTriggerMapV2": {},
      "BridgeStateRotations": [],
      "DialogueGroups": [],
      "TalkDialogGroupIDList": [],
      "ServerInteractVerificationIDList": [],
      "TriggerValidGuest": {},
      "CameraCenterEntityList": [],
      "SpawnConfig": {
        "EntitySpawnConfig": {}
      }
    }
  ],
  "NPCList": []
}