{
  "GroupGUID": "7a7532dd-db95-4f0b-a999-e43bb705face",
  "GroupName": "Book",
  "Category": "Atmosphere",
  "AreaAnchorName": "LevelArea_P10301_F10301001_G465",
  "SaveDimensionFilter": {},
  "AtmosphereCondition": {
    "Conditions": [
      {
        "$type": "LevelGroupSubMissionCompleteCondition",
        "SubMissionID": 103040101
      }
    ]
  },
  "LoadSide": "Server",
  "LoadOnInitial": true,
  "ValueSource": {},
  "ConflictIDList": [],
  "IsHoyoGroup": true,
  "HoYoGroupType": "Container",
  "ConflictWhiteList": [],
  "TagContainer": {},
  "AnchorList": [],
  "MonsterList": [],
  "PropList": [
    {
      "ID": 300001,
      "PosX": -173.074,
      "PosY": -13.086,
      "PosZ": 215.084,
      "Name": "Prop1",
      "RotY": 207.2287,
      "RotX": 348.3155,
      "RotZ": 15.15609,
      "PropID": 103038,
      "ValueSource": {},
      "Trigger": {
        "Radius": 2.0,
        "DimX": 1.0,
        "DimY": 1.0,
        "DimZ": 1.0,
        "PointList": []
      },
      "CampID": 4,
      "State": "EventClose",
      "EventID": 20132547,
      "CustomTriggerMap": {},
      "CustomTriggerMapV2": {},
      "BridgeStateRotations": [],
      "DialogueGroups": [],
      "TalkDialogGroupIDList": [],
      "ServerInteractVerificationIDList": [],
      "TriggerValidGuest": {},
      "TagContainer": {},
      "CameraCenterEntityList": [],
      "SpawnConfig": {
        "EntitySpawnConfig": {}
      }
    }
  ],
  "NPCList": []
}