{
  "GroupGUID": "27ab8a79-dd8a-4f72-8ef6-f03d79dd4ad2",
  "GroupName": "MainMission4240302_New Group",
  "Category": "Atmosphere",
  "LevelGraph": "Config/Level/GroupGraph/F10301001/Group_F10301001_G471.json",
  "AreaAnchorName": "LevelArea_P10301_F10301001_G471",
  "SaveType": "Reset",
  "AtmosphereCondition": {
    "Conditions": [
      {
        "$type": "LevelGroupSubMissionCompleteCondition",
        "SubMissionID": 424030204
      }
    ]
  },
  "ValueSource": {},
  "ConflictIDList": [],
  "IsHoyoGroup": true,
  "ConflictWhiteList": [],
  "TagContainer": {},
  "AnchorList": [],
  "MonsterList": [],
  "PropList": [
    {
      "ID": 300001,
      "PosX": -16.766,
      "PosY": -22.21283,
      "PosZ": 209.108,
      "Name": "Prop1",
      "PropID": 100,
      "ValueSource": {},
      "CampID": 4,
      "CustomTriggerMap": {},
      "CustomTriggerMapV2": {
        "MissionTrigger": {
          "Radius": 2.0,
          "PointList": []
        }
      },
      "BridgeStateRotations": [],
      "DialogueGroups": [],
      "TalkDialogGroupIDList": [],
      "ServerInteractVerificationIDList": [],
      "TriggerValidGuest": {},
      "TagContainer": {},
      "CameraCenterEntityList": [],
      "SpawnConfig": {
        "EntitySpawnConfig": {}
      }
    }
  ],
  "NPCList": [
    {
      "ID": 400001,
      "PosX": -16.889,
      "PosY": -22.21283,
      "PosZ": 208.7772,
      "Name": "NPC1",
      "RotY": 45.97865,
      "NPCID": 13149,
      "ValueSource": {},
      "StaticNPC": true,
      "DialogueGroups": [],
      "ServerInteractVerificationIDList": [],
      "DefaultLookAtMode": "Closed",
      "BoardShowList": [],
      "TalkDialogGroupIDList": [],
      "DefaultIdleFreeStyleMotionID": 100010230,
      "InitialHiddenNodeList": [],
      "TagContainer": {},
      "CameraCenterEntityList": [],
      "SpawnConfig": {
        "EntitySpawnConfig": {}
      },
      "TriggerValidGuest": {}
    },
    {
      "ID": 400002,
      "PosX": -16.518,
      "PosY": -22.21283,
      "PosZ": 209.447,
      "Name": "NPC2",
      "RotY": 174.121,
      "NPCID": 13124,
      "ValueSource": {},
      "StaticNPC": true,
      "DialogueGroups": [],
      "ServerInteractVerificationIDList": [],
      "DefaultLookAtMode": "Closed",
      "BoardShowList": [],
      "TalkDialogGroupIDList": [],
      "InitialHiddenNodeList": [],
      "TagContainer": {},
      "CameraCenterEntityList": [],
      "SpawnConfig": {
        "EntitySpawnConfig": {}
      },
      "TriggerValidGuest": {}
    }
  ]
}