{
  "GroupGUID": "677c78d2-a8d9-41cd-b826-3e9fa5cda9fa",
  "GroupName": "MainMission8022123_Portal_01",
  "Category": "Mission",
  "LevelGraph": "Config/Level/GroupGraph/F44305003/Group_F44305003_G62.json",
  "AreaAnchorName": "LevelArea_P44305_F44305003_G62",
  "SaveDimensionFilter": {},
  "LoadSide": "Server",
  "OwnerMainMissionID": 8022123,
  "ValueSource": {},
  "ConflictIDList": [],
  "IsHoyoGroup": true,
  "ConflictWhiteList": [],
  "TagContainer": {},
  "AnchorList": [
    {
      "ID": 1,
      "PosX": -113.177,
      "PosY": 16.09,
      "PosZ": -272.022,
      "Name": "Anchor1_des",
      "RotY": 89.99999
    },
    {
      "ID": 2,
      "PosX": 72.157,
      "PosY": -15.594,
      "PosZ": -560.59,
      "Name": "Anchor2_cam_far",
      "RotY": 178.9343,
      "RotX": 16.60361,
      "RotZ": 5.44E-4,
      "Usage": "Camera",
      "CustomParameter": {
        "$type": "LevelAnchorCameraParameter",
        "fov": 45.0
      }
    },
    {
      "ID": 3,
      "PosX": 72.313,
      "PosY": -17.182,
      "PosZ": -566.555,
      "Name": "Anchor2_cam_close",
      "RotY": 177.3873,
      "RotX": 12.65062,
      "RotZ": 5.38E-4,
      "Usage": "Camera",
      "CustomParameter": {
        "$type": "LevelAnchorCameraParameter",
        "fov": 45.0
      }
    }
  ],
  "MonsterList": [],
  "PropList": [
    {
      "ID": 300001,
      "PosX": 72.42,
      "PosY": -19.5,
      "PosZ": -567.36,
      "Name": "Portal",
      "PropID": 103013,
      "ValueSource": {
        "Values": [
          {
            "$type": "SharedUint",
            "Key": "TargetRegionIndex",
            "Value": 2
          },
          {
            "$type": "SharedUint",
            "Key": "TargetAnchorGroupID",
            "Value": 124
          },
          {
            "$type": "SharedUint",
            "Key": "TargetAnchorInstanceID",
            "Value": 2
          },
          {
            "$type": "SharedString",
            "Key": "CameraAnchorRef01",
            "Value": "LevelArea_P44305_F44305003_G62,Anchor2_cam_far"
          },
          {
            "$type": "SharedString",
            "Key": "CameraAnchorRef02",
            "Value": "LevelArea_P44305_F44305003_G62,Anchor2_cam_close"
          }
        ]
      },
      "CampID": 4,
      "State": "Open",
      "CustomTriggerMap": {},
      "CustomTriggerMapV2": {
        "InteractTrigger": {
          "Shape": "Box",
          "Radius": 1.5,
          "DimX": 2.0,
          "DimY": 2.0,
          "DimZ": 1.0,
          "Offset": {
            "x": -0.5,
            "y": 1.0,
            "z": 0.5
          },
          "PointList": []
        }
      },
      "BridgeStateRotations": [],
      "DialogueGroups": [],
      "TalkDialogGroupIDList": [],
      "ServerInteractVerificationIDList": [],
      "TriggerValidGuest": {},
      "TagContainer": {},
      "CameraCenterEntityList": [],
      "SpawnConfig": {
        "EntitySpawnConfig": {}
      }
    }
  ],
  "NPCList": []
}