{
  "GroupGUID": "69fd6488-eaa2-43b0-b28a-84da016501b7",
  "GroupName": "New Group",
  "AreaAnchorName": "LevelArea_P44305_F44305003_G79",
  "SaveType": "Reset",
  "SavedValueCondition": {
    "Conditions": [],
    "Operation": "And"
  },
  "LoadOnInitial": true,
  "ValueSource": {},
  "ConflictIDList": [],
  "IsHoyoGroup": true,
  "HoYoGroupType": "Container",
  "ConflictWhiteList": [],
  "TagContainer": {},
  "AnchorList": [],
  "MonsterList": [],
  "PropList": [
    {
      "ID": 300002,
      "PosX": -341.8714,
      "PosY": -15.00002,
      "PosZ": -104.2337,
      "Name": "Prop2",
      "RotX": 90.0,
      "Scale": {
        "x": 2.0,
        "y": 1.0,
        "z": 1.0
      },
      "PropID": 1030,
      "ValueSource": {},
      "CampID": 4,
      "CustomTriggerMap": {},
      "CustomTriggerMapV2": {},
      "BridgeStateRotations": [],
      "DialogueGroups": [],
      "TalkDialogGroupIDList": [],
      "ServerInteractVerificationIDList": [],
      "TriggerValidGuest": {},
      "TagContainer": {},
      "CameraCenterEntityList": [],
      "SpawnConfig": {
        "EntitySpawnConfig": {}
      }
    }
  ],
  "NPCList": []
}