{
  "GroupGUID": "261d92c6-4be7-45f7-9ea4-885ef7e47d6e",
  "GroupName": "OneWayBridge",
  "LevelGraph": "Config/Level/GroupGraph/F44305003/Group_F44305003_G98.json",
  "AreaAnchorName": "LevelArea_P44305_F44305003_G98",
  "SavedValueCondition": {
    "Conditions": [],
    "Operation": "And"
  },
  "LoadSide": "Server",
  "LoadOnInitial": true,
  "ValueSource": {},
  "ConflictIDList": [],
  "IsHoyoGroup": true,
  "ConflictWhiteList": [],
  "TagContainer": {},
  "AnchorList": [],
  "MonsterList": [],
  "PropList": [
    {
      "ID": 300003,
      "PosX": -348.682,
      "PosY": -8.771706,
      "PosZ": -98.16701,
      "Name": "Bridge_Switch07",
      "RotY": 270.0,
      "PropID": 103039,
      "ValueSource": {
        "Values": []
      },
      "CampID": 4,
      "CustomTriggerMap": {},
      "CustomTriggerMapV2": {},
      "BridgeStateRotations": [],
      "DialogueGroups": [],
      "TalkDialogGroupIDList": [],
      "ServerInteractVerificationIDList": [],
      "TriggerValidGuest": {},
      "TagContainer": {},
      "CameraCenterEntityList": [],
      "SpawnConfig": {
        "EntitySpawnConfig": {}
      }
    },
    {
      "ID": 300001,
      "PosX": -347.83,
      "PosY": -8.75,
      "PosZ": -104.25,
      "Name": "Bridge",
      "RotY": 90.0,
      "PropID": 103073,
      "ValueSource": {
        "Values": []
      },
      "CampID": 4,
      "CustomTriggerMap": {},
      "CustomTriggerMapV2": {},
      "BridgeStateRotations": [],
      "DialogueGroups": [],
      "TalkDialogGroupIDList": [],
      "ServerInteractVerificationIDList": [],
      "TriggerValidGuest": {},
      "TagContainer": {},
      "CameraCenterEntityList": [],
      "SpawnConfig": {
        "EntitySpawnConfig": {}
      }
    },
    {
      "ID": 300002,
      "PosX": -341.86,
      "PosY": -8.75,
      "PosZ": -104.25,
      "Name": "Bridge",
      "RotY": 90.0,
      "PropID": 103073,
      "ValueSource": {
        "Values": []
      },
      "CampID": 4,
      "CustomTriggerMap": {},
      "CustomTriggerMapV2": {},
      "BridgeStateRotations": [],
      "DialogueGroups": [],
      "TalkDialogGroupIDList": [],
      "ServerInteractVerificationIDList": [],
      "TriggerValidGuest": {},
      "TagContainer": {},
      "CameraCenterEntityList": [],
      "SpawnConfig": {
        "EntitySpawnConfig": {}
      }
    }
  ],
  "NPCList": []
}