{
  "GroupGUID": "8369ff28-34d0-4c57-9490-c7cd7021ec92",
  "GroupName": "MainMission8022123_Portal_03",
  "Category": "Mission",
  "LevelGraph": "Config/Level/GroupGraph/F44305003/Group_F44305003_G80.json",
  "AreaAnchorName": "LevelArea_P44305_F44305003_G80",
  "SaveDimensionFilter": {},
  "LoadSide": "Server",
  "OwnerMainMissionID": 8022123,
  "ValueSource": {},
  "ConflictIDList": [],
  "IsHoyoGroup": true,
  "ConflictWhiteList": [],
  "TagContainer": {},
  "AnchorList": [
    {
      "ID": 1,
      "PosX": 110.9014,
      "PosY": 32.42,
      "PosZ": -285.7838,
      "Name": "Side01_Go"
    },
    {
      "ID": 2,
      "PosX": -348.122,
      "PosY": 5.605436,
      "PosZ": -77.04021,
      "Name": "Go_E",
      "RotY": 196.8138,
      "RotX": 274.6765,
      "RotZ": 73.16647,
      "Usage": "Camera",
      "CustomParameter": {
        "$type": "LevelAnchorCameraParameter"
      }
    },
    {
      "ID": 3,
      "PosX": -344.0,
      "PosY": 0.50003,
      "PosZ": -77.0,
      "Name": "Go_S",
      "RotY": 263.6591,
      "RotX": 286.064,
      "RotZ": 6.255919,
      "Usage": "Camera",
      "CustomParameter": {
        "$type": "LevelAnchorCameraParameter"
      }
    }
  ],
  "MonsterList": [],
  "PropList": [
    {
      "ID": 300011,
      "PosX": -347.8484,
      "PosY": 7.586792,
      "PosZ": -77.28304,
      "Name": "Portal_HardSideRoom_Back",
      "RotY": 16.81441,
      "RotX": 85.32354,
      "RotZ": 286.8344,
      "PropID": 103013,
      "ValueSource": {
        "Values": [
          {
            "$type": "SharedUint",
            "Key": "TargetRegionIndex",
            "Value": 1
          },
          {
            "$type": "SharedUint",
            "Key": "TargetAnchorGroupID",
            "Value": 2
          },
          {
            "$type": "SharedUint",
            "Key": "TargetAnchorInstanceID",
            "Value": 6
          },
          {
            "$type": "SharedString",
            "Key": "CameraAnchorRef01",
            "Value": "LevelArea_P44305_F44305003_G80,Go_S"
          },
          {
            "$type": "SharedString",
            "Key": "CameraAnchorRef02",
            "Value": "LevelArea_P44305_F44305003_G80,Go_E"
          }
        ]
      },
      "CampID": 4,
      "State": "Open",
      "CustomTriggerMap": {},
      "CustomTriggerMapV2": {
        "InteractTrigger": {
          "Radius": 3.0,
          "PointList": [],
          "Server": true
        }
      },
      "BridgeStateRotations": [],
      "DialogueGroups": [],
      "TalkDialogGroupIDList": [],
      "ServerInteractVerificationIDList": [],
      "TriggerValidGuest": {},
      "TagContainer": {},
      "CameraCenterEntityList": [],
      "SpawnConfig": {
        "EntitySpawnConfig": {}
      }
    },
    {
      "ID": 300001,
      "PosX": -347.8648,
      "PosY": 5.530027,
      "PosZ": -77.04292,
      "Name": "Teleport_Billboard",
      "RotY": 179.9271,
      "RotX": 4.47636,
      "RotZ": 88.64279,
      "PropID": 100,
      "ValueSource": {},
      "CampID": 4,
      "CustomTriggerMap": {},
      "CustomTriggerMapV2": {},
      "BridgeStateRotations": [],
      "DialogueGroups": [],
      "TalkDialogGroupIDList": [],
      "ServerInteractVerificationIDList": [],
      "TriggerValidGuest": {},
      "TagContainer": {},
      "CameraCenterEntityList": [],
      "SpawnConfig": {
        "EntitySpawnConfig": {}
      }
    }
  ],
  "NPCList": []
}