{
  "GroupGUID": "5fb8d807-73c3-432f-874a-695c4b2e390c",
  "GroupName": "New Group",
  "AreaAnchorName": "LevelArea_P44305_F44305003_G78",
  "SaveType": "Reset",
  "SavedValueCondition": {
    "Operation": "And"
  },
  "LoadOnInitial": true,
  "ValueSource": {},
  "ConflictIDList": [],
  "IsHoyoGroup": true,
  "HoYoGroupType": "Container",
  "ConflictWhiteList": [],
  "TagContainer": {},
  "AnchorList": [],
  "MonsterList": [],
  "PropList": [
    {
      "ID": 300002,
      "PosX": -342.25,
      "PosY": -13.99999,
      "PosZ": -50.33757,
      "Name": "Prop2",
      "RotY": 180.0,
      "RotX": 90.0,
      "Scale": {
        "x": 2.0,
        "y": 1.0,
        "z": 1.0
      },
      "PropID": 1030,
      "ValueSource": {},
      "CampID": 4,
      "CustomTriggerMap": {},
      "CustomTriggerMapV2": {},
      "BridgeStateRotations": [],
      "DialogueGroups": [],
      "TalkDialogGroupIDList": [],
      "ServerInteractVerificationIDList": [],
      "TriggerValidGuest": {},
      "TagContainer": {},
      "CameraCenterEntityList": [],
      "SpawnConfig": {
        "EntitySpawnConfig": {}
      }
    }
  ],
  "NPCList": []
}