{
  "GroupGUID": "2f420c83-a792-48f3-a53c-b9f29f063874",
  "GroupName": "DefaultDistructable",
  "AreaAnchorName": "LevelArea_P10304_F10304001_G132",
  "SaveDimensionFilter": {},
  "SavedValueCondition": {
    "Conditions": [
      {
        "SavedValueName": "BuildingState",
        "Operation": "Equal",
        "Value": 1
      }
    ],
    "Operation": "And"
  },
  "LoadSide": "Server",
  "LoadOnInitial": true,
  "GroupRefreshID": 1002,
  "ValueSource": {},
  "ConflictIDList": [],
  "IsHoyoGroup": true,
  "HoYoGroupType": "Container",
  "ConflictWhiteList": [],
  "TagContainer": {},
  "AnchorList": [],
  "MonsterList": [],
  "PropList": [
    {
      "ID": 300001,
      "PosX": 8.97,
      "PosY": 16.16307,
      "PosZ": -457.59,
      "Name": "Prop1",
      "RotY": 346.1248,
      "PropID": 103017,
      "ValueSource": {
        "Values": [
          {
            "$type": "SharedUint",
            "Key": "RotationType"
          }
        ]
      },
      "CampID": 4,
      "EventID": 10304401,
      "CustomTriggerMap": {},
      "CustomTriggerMapV2": {},
      "BridgeStateRotations": [],
      "DialogueGroups": [],
      "TalkDialogGroupIDList": [],
      "ServerInteractVerificationIDList": [],
      "HideInCutScene": true,
      "HideInStory": true,
      "PerformanceHideFlags": -8,
      "TriggerValidGuest": {},
      "TagContainer": {},
      "CameraCenterEntityList": [],
      "SpawnConfig": {
        "EntitySpawnConfig": {}
      }
    },
    {
      "ID": 300002,
      "PosX": -4.903705,
      "PosY": 16.19225,
      "PosZ": -421.6243,
      "Name": "Prop2",
      "RotY": 13.16536,
      "RotX": 324.6001,
      "RotZ": 8.62683,
      "PropID": 103017,
      "ValueSource": {
        "Values": [
          {
            "$type": "SharedUint",
            "Key": "RotationType",
            "Value": 6
          }
        ]
      },
      "CampID": 4,
      "EventID": 10304401,
      "CustomTriggerMap": {},
      "CustomTriggerMapV2": {},
      "BridgeStateRotations": [],
      "DialogueGroups": [],
      "TalkDialogGroupIDList": [],
      "ServerInteractVerificationIDList": [],
      "HideInCutScene": true,
      "HideInStory": true,
      "PerformanceHideFlags": -8,
      "TriggerValidGuest": {},
      "TagContainer": {},
      "CameraCenterEntityList": [],
      "SpawnConfig": {
        "EntitySpawnConfig": {}
      }
    },
    {
      "ID": 300003,
      "PosX": -13.799,
      "PosY": 20.912,
      "PosZ": -395.453,
      "Name": "Prop3",
      "RotY": 85.30821,
      "RotX": 319.0584,
      "RotZ": -1.6E-5,
      "PropID": 103017,
      "ValueSource": {
        "Values": [
          {
            "$type": "SharedUint",
            "Key": "RotationType",
            "Value": 6
          }
        ]
      },
      "CampID": 4,
      "EventID": 10304401,
      "CustomTriggerMap": {},
      "CustomTriggerMapV2": {},
      "BridgeStateRotations": [],
      "DialogueGroups": [],
      "TalkDialogGroupIDList": [],
      "ServerInteractVerificationIDList": [],
      "HideInCutScene": true,
      "HideInStory": true,
      "PerformanceHideFlags": -8,
      "TriggerValidGuest": {},
      "TagContainer": {},
      "CameraCenterEntityList": [],
      "SpawnConfig": {
        "EntitySpawnConfig": {}
      }
    },
    {
      "ID": 300004,
      "PosX": 14.052,
      "PosY": 20.996,
      "PosZ": -395.411,
      "Name": "Prop4",
      "RotY": 264.9752,
      "RotX": 318.5916,
      "RotZ": 5.0E-6,
      "PropID": 103017,
      "ValueSource": {
        "Values": [
          {
            "$type": "SharedUint",
            "Key": "RotationType",
            "Value": 6
          }
        ]
      },
      "CampID": 4,
      "EventID": 10304401,
      "CustomTriggerMap": {},
      "CustomTriggerMapV2": {},
      "BridgeStateRotations": [],
      "DialogueGroups": [],
      "TalkDialogGroupIDList": [],
      "ServerInteractVerificationIDList": [],
      "HideInCutScene": true,
      "HideInStory": true,
      "PerformanceHideFlags": -8,
      "TriggerValidGuest": {},
      "TagContainer": {},
      "CameraCenterEntityList": [],
      "SpawnConfig": {
        "EntitySpawnConfig": {}
      }
    },
    {
      "ID": 300005,
      "PosX": -19.47878,
      "PosY": 24.74483,
      "PosZ": -366.5589,
      "Name": "Prop5",
      "RotY": 285.2013,
      "RotX": 1.0E-6,
      "RotZ": -2.0E-6,
      "PropID": 103017,
      "ValueSource": {
        "Values": [
          {
            "$type": "SharedUint",
            "Key": "RotationType"
          }
        ]
      },
      "CampID": 4,
      "EventID": 10304401,
      "CustomTriggerMap": {},
      "CustomTriggerMapV2": {},
      "BridgeStateRotations": [],
      "DialogueGroups": [],
      "TalkDialogGroupIDList": [],
      "ServerInteractVerificationIDList": [],
      "HideInCutScene": true,
      "HideInStory": true,
      "PerformanceHideFlags": -8,
      "TriggerValidGuest": {},
      "TagContainer": {},
      "CameraCenterEntityList": [],
      "SpawnConfig": {
        "EntitySpawnConfig": {}
      }
    },
    {
      "ID": 300006,
      "PosX": -19.47878,
      "PosY": 24.74483,
      "PosZ": -366.5589,
      "Name": "Prop6",
      "RotY": 285.2013,
      "RotX": 1.0E-6,
      "RotZ": -2.0E-6,
      "PropID": 103017,
      "ValueSource": {
        "Values": [
          {
            "$type": "SharedUint",
            "Key": "RotationType"
          }
        ]
      },
      "CampID": 4,
      "EventID": 10304401,
      "CustomTriggerMap": {},
      "CustomTriggerMapV2": {},
      "BridgeStateRotations": [],
      "DialogueGroups": [],
      "TalkDialogGroupIDList": [],
      "ServerInteractVerificationIDList": [],
      "HideInCutScene": true,
      "HideInStory": true,
      "PerformanceHideFlags": -8,
      "TriggerValidGuest": {},
      "TagContainer": {},
      "CameraCenterEntityList": [],
      "SpawnConfig": {
        "EntitySpawnConfig": {}
      }
    },
    {
      "ID": 300007,
      "PosX": 19.78851,
      "PosY": 24.74492,
      "PosZ": -378.403,
      "Name": "Prop7",
      "RotY": 157.481,
      "RotX": -2.0E-6,
      "RotZ": 1.0E-6,
      "PropID": 103017,
      "ValueSource": {
        "Values": [
          {
            "$type": "SharedUint",
            "Key": "RotationType"
          }
        ]
      },
      "CampID": 4,
      "EventID": 10304401,
      "CustomTriggerMap": {},
      "CustomTriggerMapV2": {},
      "BridgeStateRotations": [],
      "DialogueGroups": [],
      "TalkDialogGroupIDList": [],
      "ServerInteractVerificationIDList": [],
      "HideInCutScene": true,
      "HideInStory": true,
      "PerformanceHideFlags": -8,
      "TriggerValidGuest": {},
      "TagContainer": {},
      "CameraCenterEntityList": [],
      "SpawnConfig": {
        "EntitySpawnConfig": {}
      }
    },
    {
      "ID": 300008,
      "PosX": 11.12144,
      "PosY": 39.68701,
      "PosZ": -336.9596,
      "Name": "Prop8",
      "RotY": 336.4416,
      "RotX": 2.0E-6,
      "RotZ": -1.0E-6,
      "PropID": 103017,
      "ValueSource": {
        "Values": [
          {
            "$type": "SharedUint",
            "Key": "RotationType"
          }
        ]
      },
      "CampID": 4,
      "EventID": 10304401,
      "CustomTriggerMap": {},
      "CustomTriggerMapV2": {},
      "BridgeStateRotations": [],
      "DialogueGroups": [],
      "TalkDialogGroupIDList": [],
      "ServerInteractVerificationIDList": [],
      "HideInCutScene": true,
      "HideInStory": true,
      "PerformanceHideFlags": -8,
      "TriggerValidGuest": {},
      "TagContainer": {},
      "CameraCenterEntityList": [],
      "SpawnConfig": {
        "EntitySpawnConfig": {}
      }
    }
  ],
  "NPCList": []
}