{
  "GroupGUID": "3cbdb5ee-f0bd-4136-9673-d2e6d5cbef4c",
  "GroupName": "MainMission4340115_03",
  "Category": "Mission",
  "LevelGraph": "Config/Level/GroupGraph/F10304001/Group_F10304001_G81.json",
  "AreaAnchorName": "LevelArea_P10304_F10304001_G81",
  "SaveType": "Reset",
  "IsPendedUnload": true,
  "OwnerMainMissionID": 4340115,
  "ValueSource": {},
  "ConflictIDList": [],
  "IsHoyoGroup": true,
  "ConflictWhiteList": [],
  "TagContainer": {},
  "AnchorList": [],
  "MonsterList": [],
  "PropList": [],
  "NPCList": [
    {
      "ID": 400001,
      "PosX": 78.049,
      "PosY": 14.61223,
      "PosZ": -489.28,
      "Name": "NPC1",
      "RotY": 317.9443,
      "NPCID": 13138,
      "ValueSource": {},
      "DialogueGroups": [],
      "ServerInteractVerificationIDList": [],
      "BoardShowList": [
        1,
        8
      ],
      "OverrideNPCName": {
        "Hash": 521807957
      },
      "TalkDialogGroupIDList": [],
      "DefaultIdleFreeStyleMotionID": 100010210,
      "InitialHiddenNodeList": [],
      "Dialog": {
        "LevelGraph": "Config/Level/NPCDialogue/P10304/F10304001_G81/DialogueMain_F10304001_G81_N400001.json",
        "PackList": []
      },
      "InteractIconType": "SecretMissionIcon",
      "TagContainer": {},
      "CameraCenterEntityList": [],
      "SpawnConfig": {
        "EntitySpawnConfig": {}
      },
      "TriggerValidGuest": {}
    }
  ]
}