{
  "GroupGUID": "5721e226-9a55-47ef-9dce-3d3ea9e353d8",
  "GroupName": "MainMission1032901_01",
  "Category": "Mission",
  "LevelGraph": "Config/Level/GroupGraph/F10304001/Group_F10304001_G39.json",
  "AreaAnchorName": "LevelArea_P10304_F10304001_G39",
  "SaveType": "Reset",
  "OwnerMainMissionID": 1032901,
  "ValueSource": {},
  "ConflictIDList": [],
  "IsHoyoGroup": true,
  "StreamingTemplateType": "None",
  "ConflictWhiteList": [],
  "TagContainer": {},
  "AnchorList": [
    {
      "ID": 1,
      "PosX": 0.310252,
      "PosY": 43.19354,
      "PosZ": -295.1152,
      "Name": "Anchor1"
    }
  ],
  "MonsterList": [],
  "PropList": [],
  "NPCList": []
}