{
  "GroupGUID": "15097b4f-947a-4b0e-97c4-e8bfac8e47db",
  "GroupName": "MainMission8022103_03",
  "Category": "Mission",
  "LevelGraph": "Config/Level/GroupGraph/F10304001/Group_F10304001_G43.json",
  "AreaAnchorName": "LevelArea_P10304_F10304001_G43",
  "SaveType": "Reset",
  "OwnerMainMissionID": 8022103,
  "ValueSource": {},
  "ConflictIDList": [],
  "IsHoyoGroup": true,
  "ConflictWhiteList": [],
  "TagContainer": {},
  "AnchorList": [
    {
      "ID": 1,
      "PosX": -47.06,
      "PosY": 14.51999,
      "PosZ": -581.48,
      "Name": "Anchor1"
    }
  ],
  "MonsterList": [],
  "PropList": [],
  "NPCList": []
}