{
  "GroupGUID": "b0962ee1-293d-40eb-9086-a6f8acde3b6a",
  "GroupName": "MainMission4040311_Dog",
  "Category": "Mission",
  "LevelGraph": "Config/Level/GroupGraph/F10304001/Group_F10304001_G109.json",
  "AreaAnchorName": "LevelArea_P10304_F10304001_G109",
  "SaveType": "Reset",
  "OwnerMainMissionID": 4040311,
  "ValueSource": {},
  "ConflictIDList": [],
  "IsHoyoGroup": true,
  "ConflictWhiteList": [],
  "TagContainer": {},
  "AnchorList": [
    {
      "ID": 1,
      "PosX": 6.136,
      "PosY": 45.08,
      "PosZ": -291.581,
      "Name": "Anchor1"
    },
    {
      "ID": 2,
      "PosX": 6.136,
      "PosY": 44.384,
      "PosZ": -291.581,
      "Name": "Anchor2"
    }
  ],
  "MonsterList": [],
  "PropList": [
    {
      "ID": 300001,
      "PosX": 6.136,
      "PosY": 44.384,
      "PosZ": -291.581,
      "Name": "Prop1",
      "RotY": 270.0,
      "PropID": 103094,
      "ValueSource": {},
      "CampID": 4,
      "CustomTriggerMap": {},
      "CustomTriggerMapV2": {},
      "BridgeStateRotations": [],
      "DialogueGroups": [],
      "TalkDialogGroupIDList": [],
      "ServerInteractVerificationIDList": [],
      "TriggerValidGuest": {},
      "TagContainer": {},
      "CameraCenterEntityList": [],
      "SpawnConfig": {
        "EntitySpawnConfig": {}
      }
    }
  ],
  "NPCList": []
}