{
  "GroupGUID": "6985d4f6-1ad4-4451-ae86-b0ce4128b584",
  "GroupName": "MainMission4340115_04",
  "Category": "Mission",
  "AreaAnchorName": "LevelArea_P10304_F10304001_G82",
  "SaveType": "Reset",
  "IsPendedUnload": true,
  "OwnerMainMissionID": 4340115,
  "ValueSource": {},
  "ConflictIDList": [],
  "IsHoyoGroup": true,
  "HoYoGroupType": "Container",
  "ConflictWhiteList": [],
  "TagContainer": {},
  "AnchorList": [],
  "MonsterList": [],
  "PropList": [
    {
      "ID": 300001,
      "PosX": 77.728,
      "PosY": 19.07,
      "PosZ": -490.662,
      "Name": "Prop1",
      "Scale": {
        "x": 0.6,
        "y": 0.6,
        "z": 0.6
      },
      "PropID": 103103,
      "ValueSource": {},
      "CampID": 4,
      "CustomTriggerMap": {},
      "CustomTriggerMapV2": {},
      "BridgeStateRotations": [],
      "DialogueGroups": [],
      "TalkDialogGroupIDList": [],
      "ServerInteractVerificationIDList": [],
      "TriggerValidGuest": {},
      "TagContainer": {},
      "CameraCenterEntityList": [],
      "SpawnConfig": {
        "EntitySpawnConfig": {}
      }
    },
    {
      "ID": 300002,
      "PosX": 78.229,
      "PosY": 17.79,
      "PosZ": -490.032,
      "Name": "Prop2",
      "Scale": {
        "x": 0.4,
        "y": 0.4,
        "z": 0.4
      },
      "PropID": 103104,
      "ValueSource": {},
      "CampID": 4,
      "CustomTriggerMap": {},
      "CustomTriggerMapV2": {},
      "BridgeStateRotations": [],
      "DialogueGroups": [],
      "TalkDialogGroupIDList": [],
      "ServerInteractVerificationIDList": [],
      "TriggerValidGuest": {},
      "TagContainer": {},
      "CameraCenterEntityList": [],
      "SpawnConfig": {
        "EntitySpawnConfig": {}
      }
    },
    {
      "ID": 300003,
      "PosX": 77.07,
      "PosY": 17.3,
      "PosZ": -490.662,
      "Name": "Prop3",
      "Scale": {
        "x": 0.3,
        "y": 0.3,
        "z": 0.3
      },
      "PropID": 103105,
      "ValueSource": {},
      "CampID": 4,
      "CustomTriggerMap": {},
      "CustomTriggerMapV2": {},
      "BridgeStateRotations": [],
      "DialogueGroups": [],
      "TalkDialogGroupIDList": [],
      "ServerInteractVerificationIDList": [],
      "TriggerValidGuest": {},
      "TagContainer": {},
      "CameraCenterEntityList": [],
      "SpawnConfig": {
        "EntitySpawnConfig": {}
      }
    },
    {
      "ID": 300004,
      "PosX": 77.557,
      "PosY": 16.57,
      "PosZ": -489.696,
      "Name": "Prop4",
      "Scale": {
        "x": 0.2,
        "y": 0.2,
        "z": 0.2
      },
      "PropID": 103104,
      "ValueSource": {},
      "CampID": 4,
      "CustomTriggerMap": {},
      "CustomTriggerMapV2": {},
      "BridgeStateRotations": [],
      "DialogueGroups": [],
      "TalkDialogGroupIDList": [],
      "ServerInteractVerificationIDList": [],
      "TriggerValidGuest": {},
      "TagContainer": {},
      "CameraCenterEntityList": [],
      "SpawnConfig": {
        "EntitySpawnConfig": {}
      }
    },
    {
      "ID": 300005,
      "PosX": 77.566,
      "PosY": 15.818,
      "PosZ": -490.154,
      "Name": "Prop5",
      "Scale": {
        "x": 0.1,
        "y": 0.1,
        "z": 0.1
      },
      "PropID": 103103,
      "ValueSource": {},
      "CampID": 4,
      "CustomTriggerMap": {},
      "CustomTriggerMapV2": {},
      "BridgeStateRotations": [],
      "DialogueGroups": [],
      "TalkDialogGroupIDList": [],
      "ServerInteractVerificationIDList": [],
      "TriggerValidGuest": {},
      "TagContainer": {},
      "CameraCenterEntityList": [],
      "SpawnConfig": {
        "EntitySpawnConfig": {}
      }
    },
    {
      "ID": 300006,
      "PosX": 77.58,
      "PosY": 14.61224,
      "PosZ": -489.57,
      "Name": "Prop6",
      "PropID": 100,
      "ValueSource": {},
      "Trigger": {
        "Radius": 1.0,
        "DimX": 1.0,
        "DimY": 1.0,
        "DimZ": 1.0,
        "PointList": []
      },
      "CampID": 4,
      "CustomTriggerMap": {},
      "CustomTriggerMapV2": {},
      "BridgeStateRotations": [],
      "DialogueGroups": [],
      "TalkDialogGroupIDList": [],
      "ServerInteractVerificationIDList": [],
      "Dialog": {
        "LevelGraph": "Config/Level/PropDialogue/P10304/F10304001_G82/DialogueMain_F10304001_G82_P300006.json",
        "PackList": [],
        "EnableCondition": {
          "Conditions": [
            {
              "Type": "SubMission",
              "ID": 434011508
            }
          ]
        }
      },
      "InteractIconType": "SecretMissionIcon",
      "InteractTitle": {
        "Hash": 278713937
      },
      "TriggerValidGuest": {},
      "TagContainer": {},
      "CameraCenterEntityList": [],
      "SpawnConfig": {
        "EntitySpawnConfig": {}
      }
    }
  ],
  "NPCList": []
}