{
  "GroupGUID": "61bab717-ef1d-4789-b08d-791e1f6d8564",
  "GroupName": "JigsawPuzzle_P201_Normal_07_ShrinkTreasureBox",
  "LevelGraph": "Config/Level/GroupGraph/F20321001/Group_F20321001_G199.json",
  "AreaAnchorName": "LevelArea_P20321_F20321001_G199",
  "SaveDimensionFilter": {},
  "SavedValueCondition": {
    "Conditions": [],
    "Operation": "And"
  },
  "LoadSide": "Server",
  "LoadOnInitial": true,
  "GroupStateList": [
    {
      "DstState": 13
    },
    {
      "DstState": 12
    },
    {
      "DstState": 11
    },
    {
      "DstState": 10
    },
    {
      "SrcState": 10,
      "DstState": 20
    },
    {
      "SrcState": 13,
      "DstState": 12
    },
    {
      "SrcState": 12,
      "DstState": 11
    },
    {
      "SrcState": 11,
      "DstState": 10
    }
  ],
  "ValueSource": {},
  "ConflictIDList": [],
  "IsHoyoGroup": true,
  "ConflictWhiteList": [],
  "TagContainer": {},
  "AnchorList": [
    {
      "ID": 1,
      "PosX": -25.64577,
      "PosY": 58.38726,
      "PosZ": -143.8271,
      "Name": "SnapCamera",
      "RotY": 77.77442,
      "RotX": 15.00002,
      "RotZ": 4.0E-6,
      "Usage": "Camera",
      "CustomParameter": {
        "$type": "LevelAnchorCameraParameter",
        "fov": 40.0
      }
    },
    {
      "ID": 2,
      "PosX": -25.64577,
      "PosY": 58.38726,
      "PosZ": -143.8271,
      "Name": "GameplayCamera",
      "RotY": 77.77442,
      "RotX": 15.00002,
      "RotZ": 4.0E-6,
      "Usage": "Camera",
      "CustomParameter": {
        "$type": "LevelAnchorCameraParameter",
        "fov": 40.0
      }
    },
    {
      "ID": 3,
      "Name": "Anchor3"
    },
    {
      "ID": 4,
      "PosX": -25.64577,
      "PosY": 58.38726,
      "PosZ": -143.8271,
      "Name": "GameplayCamera2",
      "RotY": 77.77442,
      "RotX": 15.00002,
      "RotZ": 4.0E-6,
      "Usage": "Camera",
      "CustomParameter": {
        "$type": "LevelAnchorCameraParameter",
        "fov": 50.0
      }
    }
  ],
  "MonsterList": [],
  "PropList": [
    {
      "ID": 300001,
      "PosX": -22.6,
      "PosY": 55.83791,
      "PosZ": -143.16,
      "Name": "JigsawSir",
      "RotY": 257.7744,
      "PropID": 103012,
      "ValueSource": {
        "Values": [
          {
            "$type": "SharedString",
            "Key": "PuzzleBoardPath",
            "Value": "Gameplays/JigsawPuzzle/JigsawPuzzle_P201_Normal_07_ShrinkTreasureBox.prefab"
          },
          {
            "$type": "SharedString",
            "Key": "PuzzleCameraAnchor",
            "Value": "LevelArea_P20321_F20321001_G199,GameplayCamera"
          },
          {
            "$type": "SharedString",
            "Key": "JigsawResult_String",
            "Value": "JigsawPuzzle_Complete"
          },
          {
            "$type": "SharedString",
            "Key": "SnapCamera",
            "Value": "LevelArea_P20321_F20321001_G199,SnapCamera"
          },
          {
            "$type": "SharedFloat",
            "Key": "IsH"
          },
          {
            "$type": "SharedString",
            "Key": "PoseType",
            "Value": "V4_0M7_15"
          },
          {
            "$type": "SharedString",
            "Key": "PuzzleCameraAnchor2",
            "Value": "LevelArea_P20321_F20321001_G199,GameplayCamera2"
          },
          {
            "$type": "SharedFloat",
            "Key": "PieceCount",
            "Value": 3.0
          },
          {
            "$type": "SharedFloat",
            "Key": "AutoInit"
          }
        ]
      },
      "CampID": 4,
      "State": "Locked",
      "CustomTriggerMap": {},
      "CustomTriggerMapV2": {},
      "BridgeStateRotations": [],
      "MappingInfoID": 10061,
      "DialogueGroups": [],
      "TalkDialogGroupIDList": [],
      "ServerInteractVerificationIDList": [],
      "OverrideMapStateIcons": [
        {
          "State": "TriggerDisable",
          "IconID": 89
        },
        {
          "State": "TriggerEnable",
          "IconID": 89
        },
        {
          "State": "Locked",
          "IconID": 89
        },
        {
          "State": "Open",
          "IconID": 89
        }
      ],
      "TriggerValidGuest": {},
      "TagContainer": {},
      "CameraCenterEntityList": [],
      "SpawnConfig": {
        "EntitySpawnConfig": {}
      }
    },
    {
      "ID": 300002,
      "PosX": -23.159,
      "PosY": 54.003,
      "PosZ": -139.928,
      "Name": "JigsawPiece1",
      "RotY": 352.8754,
      "RotX": 3.0E-6,
      "RotZ": 1.0E-6,
      "PropID": 103109,
      "ValueSource": {
        "Values": [
          {
            "$type": "SharedString",
            "Key": "ListenTriggerCustomString",
            "Value": "Mission_777_1"
          },
          {
            "$type": "SharedFloat",
            "Key": "ControlByMission"
          },
          {
            "$type": "SharedFloat",
            "Key": "EffIndex",
            "Value": 1.0
          }
        ]
      },
      "CampID": 4,
      "State": "TriggerDisable",
      "CustomTriggerMap": {},
      "CustomTriggerMapV2": {},
      "BridgeStateRotations": [],
      "DialogueGroups": [],
      "TalkDialogGroupIDList": [],
      "ServerInteractVerificationIDList": [],
      "TriggerValidGuest": {},
      "TagContainer": {},
      "CameraCenterEntityList": [],
      "SpawnConfig": {
        "EntitySpawnConfig": {}
      }
    },
    {
      "ID": 300003,
      "PosX": -21.777,
      "PosY": 54.046,
      "PosZ": -146.817,
      "Name": "JigsawPiece2",
      "RotY": 352.8754,
      "RotX": 3.0E-6,
      "RotZ": 1.0E-6,
      "PropID": 103109,
      "ValueSource": {
        "Values": [
          {
            "$type": "SharedString",
            "Key": "ListenTriggerCustomString",
            "Value": "Mission_777_2"
          },
          {
            "$type": "SharedFloat",
            "Key": "ControlByMission"
          },
          {
            "$type": "SharedFloat",
            "Key": "EffIndex",
            "Value": 2.0
          }
        ]
      },
      "CampID": 4,
      "State": "TriggerDisable",
      "CustomTriggerMap": {},
      "CustomTriggerMapV2": {},
      "BridgeStateRotations": [],
      "DialogueGroups": [],
      "TalkDialogGroupIDList": [],
      "ServerInteractVerificationIDList": [],
      "TriggerValidGuest": {},
      "TagContainer": {},
      "CameraCenterEntityList": [],
      "SpawnConfig": {
        "EntitySpawnConfig": {}
      }
    },
    {
      "ID": 300004,
      "PosX": -5.31,
      "PosY": 54.024,
      "PosZ": -138.465,
      "Name": "JigsawPiece3",
      "PropID": 103109,
      "ValueSource": {
        "Values": [
          {
            "$type": "SharedString",
            "Key": "ListenTriggerCustomString",
            "Value": "Mission_id_piece"
          },
          {
            "$type": "SharedFloat",
            "Key": "ControlByMission"
          },
          {
            "$type": "SharedFloat",
            "Key": "EffIndex",
            "Value": 3.0
          }
        ]
      },
      "CampID": 4,
      "State": "TriggerDisable",
      "CustomTriggerMap": {},
      "CustomTriggerMapV2": {},
      "BridgeStateRotations": [],
      "DialogueGroups": [],
      "TalkDialogGroupIDList": [],
      "ServerInteractVerificationIDList": [],
      "TriggerValidGuest": {},
      "TagContainer": {},
      "CameraCenterEntityList": [],
      "SpawnConfig": {
        "EntitySpawnConfig": {}
      }
    },
    {
      "ID": 300005,
      "PosX": -22.6,
      "PosY": 55.83791,
      "PosZ": -143.16,
      "Name": "JigsawResult_Controller",
      "PropID": 100,
      "IsOverrideInitLevelGraph": true,
      "InitLevelGraph": "Config/Level/Props/Chap03/InitLevelGraph_Prop_Chap03_JigsawPuzzle_TreasureAppearSFXTrigger.json",
      "ValueSource": {
        "Values": [
          {
            "$type": "SharedString",
            "Key": "TargetProp",
            "Value": "199,300006"
          },
          {
            "$type": "SharedString",
            "Key": "GameplayProp",
            "Value": "199,300001"
          }
        ]
      },
      "CampID": 4,
      "CustomTriggerMap": {},
      "CustomTriggerMapV2": {},
      "BridgeStateRotations": [],
      "DialogueGroups": [],
      "TalkDialogGroupIDList": [],
      "ServerInteractVerificationIDList": [],
      "TriggerValidGuest": {},
      "TagContainer": {},
      "CameraCenterEntityList": [],
      "SpawnConfig": {
        "EntitySpawnConfig": {}
      }
    },
    {
      "ID": 300006,
      "PosX": -20.53117,
      "PosY": 55.83791,
      "PosZ": -142.7721,
      "Name": "JigsawResult_TreasureBox",
      "RotY": 257.36,
      "PropID": 60303,
      "ValueSource": {},
      "CampID": 4,
      "State": "Hidden",
      "CustomTriggerMap": {},
      "CustomTriggerMapV2": {},
      "BridgeStateRotations": [],
      "ChestID": 20321624,
      "DialogueGroups": [],
      "TalkDialogGroupIDList": [],
      "ServerInteractVerificationIDList": [],
      "TriggerValidGuest": {},
      "TagContainer": {},
      "CameraCenterEntityList": [],
      "SpawnConfig": {
        "EntitySpawnConfig": {}
      }
    },
    {
      "ID": 300007,
      "PosX": -20.53117,
      "PosY": 55.83791,
      "PosZ": -142.7721,
      "Name": "TreasureIcon",
      "RotY": 257.36,
      "PropID": 211,
      "IsOverrideInitLevelGraph": true,
      "InitLevelGraph": "Config/Level/Maze/Chapter03/JigsawPuzzle/Maze_Prop_JigsawPuzzleTreasureGameplayIcon.json",
      "ValueSource": {
        "Values": [
          {
            "$type": "SharedString",
            "Key": "Chest",
            "Value": "199,300006"
          }
        ]
      },
      "CampID": 4,
      "CustomTriggerMap": {},
      "CustomTriggerMapV2": {},
      "BridgeStateRotations": [],
      "MappingInfoID": 10061,
      "DialogueGroups": [],
      "TalkDialogGroupIDList": [],
      "ServerInteractVerificationIDList": [],
      "TriggerValidGuest": {},
      "TagContainer": {},
      "CameraCenterEntityList": [],
      "SpawnConfig": {
        "EntitySpawnConfig": {}
      }
    }
  ],
  "NPCList": []
}