{
  "GroupGUID": "4d9feb10-dcea-48a7-a85e-b9db7c501866",
  "GroupName": "crowd",
  "AreaAnchorName": "LevelArea_P20321_F20321001_G288",
  "SaveType": "Reset",
  "SavedValueCondition": {
    "Conditions": [
      {
        "SavedValueName": "Crowd",
        "Operation": "Equal",
        "Value": 8
      }
    ],
    "Operation": "And"
  },
  "LoadOnInitial": true,
  "ValueSource": {
    "Values": []
  },
  "ConflictIDList": [],
  "IsHoyoGroup": true,
  "HoYoGroupType": "Container",
  "ConflictWhiteList": [],
  "TagContainer": {
    "List": []
  },
  "AnchorList": [],
  "MonsterList": [],
  "PropList": [],
  "NPCList": []
}