{
  "GroupGUID": "102f39aa-c009-4ff3-af49-55181fedca51",
  "GroupName": "MainMission8022104_01",
  "Category": "Mission",
  "LevelGraph": "Config/Level/GroupGraph/F20321001/Group_F20321001_G221.json",
  "AreaAnchorName": "LevelArea_P20321_F20321001_G221",
  "SaveType": "Reset",
  "OwnerMainMissionID": 8022104,
  "ValueSource": {},
  "ConflictIDList": [],
  "IsHoyoGroup": true,
  "ConflictWhiteList": [],
  "EnableGroupAI": true,
  "TagContainer": {},
  "AnchorList": [],
  "MonsterList": [],
  "PropList": [],
  "NPCList": []
}