{
  "GroupGUID": "8d8e5538-76b9-4d51-8dce-c13bc6e66e1e",
  "GroupName": "NPC",
  "AreaAnchorName": "LevelArea_P20321_F20321001_G260",
  "SaveType": "Reset",
  "SavedValueCondition": {
    "Conditions": [
      {
        "SavedValueName": "Boss_Stone",
        "Operation": "Equal",
        "Value": 1
      }
    ],
    "Operation": "And"
  },
  "LoadOnInitial": true,
  "ValueSource": {},
  "ConflictIDList": [],
  "IsHoyoGroup": true,
  "HoYoGroupType": "Container",
  "ConflictWhiteList": [],
  "TagContainer": {},
  "AnchorList": [],
  "MonsterList": [],
  "PropList": [],
  "NPCList": [
    {
      "ID": 400001,
      "PosX": 65.708,
      "PosY": 49.27353,
      "PosZ": -21.217,
      "Name": "NPC1",
      "RotY": 1.69897,
      "NPCID": 13166,
      "ValueSource": {},
      "DialogueGroups": [],
      "ServerInteractVerificationIDList": [],
      "BoardShowList": [
        1
      ],
      "OverrideNPCName": {
        "Hash": -117177421
      },
      "TalkDialogGroupIDList": [],
      "DefaultIdleFreeStyleMotionID": 100010000,
      "InitialHiddenNodeList": [],
      "Dialog": {
        "LevelGraph": "Config/Level/NPCDialogue/P20321/F20321001_G260/DialogueMain_F20321001_G260_N400001.json",
        "PackList": []
      },
      "TagContainer": {},
      "CameraCenterEntityList": [],
      "SpawnConfig": {
        "EntitySpawnConfig": {}
      },
      "TriggerValidGuest": {}
    }
  ]
}