{
  "GroupGUID": "71e38ac9-9820-4293-90b5-64cc10154351",
  "GroupName": "MainMission1032301_04",
  "Category": "Mission",
  "LevelGraph": "Config/Level/GroupGraph/F20321001/Group_F20321001_G75.json",
  "AreaAnchorName": "LevelArea_P20321_F20321001_G75",
  "SaveType": "Reset",
  "OwnerMainMissionID": 1032301,
  "ValueSource": {},
  "ConflictIDList": [],
  "IsHoyoGroup": true,
  "ConflictWhiteList": [],
  "TagContainer": {},
  "AnchorList": [
    {
      "ID": 1,
      "PosX": -147.82,
      "PosY": 60.88435,
      "PosZ": 7.298663,
      "Name": "Anchor1"
    }
  ],
  "MonsterList": [],
  "PropList": [],
  "NPCList": []
}