{
  "GroupGUID": "3934d21c-610f-4bfe-832b-feb164d8a2e1",
  "GroupName": "DefaultDistructable",
  "AreaAnchorName": "LevelArea_P20321_F20321001_G273",
  "SaveDimensionFilter": {},
  "SavedValueCondition": {
    "Conditions": [
      {
        "SavedValueName": "Jigsaw_GardenChanged",
        "Operation": "Equal",
        "Value": 1
      }
    ],
    "Operation": "And"
  },
  "LoadSide": "Server",
  "LoadOnInitial": true,
  "ValueSource": {},
  "ConflictIDList": [],
  "IsHoyoGroup": true,
  "HoYoGroupType": "Container",
  "ConflictWhiteList": [],
  "TagContainer": {},
  "AnchorList": [],
  "MonsterList": [],
  "PropList": [
    {
      "ID": 300001,
      "PosX": -28.87755,
      "PosY": 44.74173,
      "PosZ": 25.35083,
      "Name": "Prop1",
      "RotY": 270.735,
      "PropID": 103016,
      "ValueSource": {},
      "CampID": 4,
      "EventID": 20321401,
      "CustomTriggerMap": {},
      "CustomTriggerMapV2": {},
      "BridgeStateRotations": [],
      "DialogueGroups": [],
      "TalkDialogGroupIDList": [],
      "ServerInteractVerificationIDList": [],
      "TriggerValidGuest": {},
      "TagContainer": {},
      "CameraCenterEntityList": [],
      "SpawnConfig": {
        "EntitySpawnConfig": {}
      }
    },
    {
      "ID": 300002,
      "PosX": -34.38215,
      "PosY": 44.74173,
      "PosZ": 24.35398,
      "Name": "Prop2",
      "RotY": 241.7446,
      "PropID": 103016,
      "ValueSource": {},
      "CampID": 4,
      "EventID": 20321401,
      "CustomTriggerMap": {},
      "CustomTriggerMapV2": {},
      "BridgeStateRotations": [],
      "DialogueGroups": [],
      "TalkDialogGroupIDList": [],
      "ServerInteractVerificationIDList": [],
      "TriggerValidGuest": {},
      "TagContainer": {},
      "CameraCenterEntityList": [],
      "SpawnConfig": {
        "EntitySpawnConfig": {}
      }
    },
    {
      "ID": 300003,
      "PosX": -39.27473,
      "PosY": 44.74173,
      "PosZ": 22.09733,
      "Name": "Prop3",
      "RotY": 229.3307,
      "PropID": 103016,
      "ValueSource": {},
      "CampID": 4,
      "EventID": 20321401,
      "CustomTriggerMap": {},
      "CustomTriggerMapV2": {},
      "BridgeStateRotations": [],
      "DialogueGroups": [],
      "TalkDialogGroupIDList": [],
      "ServerInteractVerificationIDList": [],
      "TriggerValidGuest": {},
      "TagContainer": {},
      "CameraCenterEntityList": [],
      "SpawnConfig": {
        "EntitySpawnConfig": {}
      }
    },
    {
      "ID": 300004,
      "PosX": -43.35,
      "PosY": 44.74173,
      "PosZ": 18.19,
      "Name": "Prop4",
      "RotY": 217.4502,
      "PropID": 103016,
      "ValueSource": {},
      "CampID": 4,
      "EventID": 20321401,
      "CustomTriggerMap": {},
      "CustomTriggerMapV2": {},
      "BridgeStateRotations": [],
      "DialogueGroups": [],
      "TalkDialogGroupIDList": [],
      "ServerInteractVerificationIDList": [],
      "TriggerValidGuest": {},
      "TagContainer": {},
      "CameraCenterEntityList": [],
      "SpawnConfig": {
        "EntitySpawnConfig": {}
      }
    },
    {
      "ID": 300005,
      "PosX": -47.08,
      "PosY": 44.74173,
      "PosZ": 10.37,
      "Name": "Prop5",
      "RotY": 91.25676,
      "PropID": 103016,
      "ValueSource": {},
      "CampID": 4,
      "EventID": 20321401,
      "CustomTriggerMap": {},
      "CustomTriggerMapV2": {},
      "BridgeStateRotations": [],
      "DialogueGroups": [],
      "TalkDialogGroupIDList": [],
      "ServerInteractVerificationIDList": [],
      "TriggerValidGuest": {},
      "TagContainer": {},
      "CameraCenterEntityList": [],
      "SpawnConfig": {
        "EntitySpawnConfig": {}
      }
    },
    {
      "ID": 300006,
      "PosX": -45.63061,
      "PosY": 44.74173,
      "PosZ": 14.7694,
      "Name": "Prop6",
      "RotY": 190.8729,
      "PropID": 103016,
      "ValueSource": {},
      "CampID": 4,
      "EventID": 20321401,
      "CustomTriggerMap": {},
      "CustomTriggerMapV2": {},
      "BridgeStateRotations": [],
      "DialogueGroups": [],
      "TalkDialogGroupIDList": [],
      "ServerInteractVerificationIDList": [],
      "TriggerValidGuest": {},
      "TagContainer": {},
      "CameraCenterEntityList": [],
      "SpawnConfig": {
        "EntitySpawnConfig": {}
      }
    },
    {
      "ID": 300007,
      "PosX": -39.03212,
      "PosY": 44.74173,
      "PosZ": 9.302375,
      "Name": "Prop7",
      "RotY": 176.5341,
      "PropID": 103016,
      "ValueSource": {},
      "CampID": 4,
      "EventID": 20321401,
      "CustomTriggerMap": {},
      "CustomTriggerMapV2": {},
      "BridgeStateRotations": [],
      "DialogueGroups": [],
      "TalkDialogGroupIDList": [],
      "ServerInteractVerificationIDList": [],
      "TriggerValidGuest": {},
      "TagContainer": {},
      "CameraCenterEntityList": [],
      "SpawnConfig": {
        "EntitySpawnConfig": {}
      }
    },
    {
      "ID": 300008,
      "PosX": -42.92,
      "PosY": 44.74173,
      "PosZ": 9.69,
      "Name": "Prop8",
      "RotY": 92.08126,
      "PropID": 103016,
      "ValueSource": {},
      "CampID": 4,
      "EventID": 20321401,
      "CustomTriggerMap": {},
      "CustomTriggerMapV2": {},
      "BridgeStateRotations": [],
      "DialogueGroups": [],
      "TalkDialogGroupIDList": [],
      "ServerInteractVerificationIDList": [],
      "TriggerValidGuest": {},
      "TagContainer": {},
      "CameraCenterEntityList": [],
      "SpawnConfig": {
        "EntitySpawnConfig": {}
      }
    },
    {
      "ID": 300009,
      "PosX": -39.23219,
      "PosY": 44.74173,
      "PosZ": 4.498405,
      "Name": "Prop9",
      "RotY": 161.6297,
      "PropID": 103016,
      "ValueSource": {},
      "CampID": 4,
      "EventID": 20321401,
      "CustomTriggerMap": {},
      "CustomTriggerMapV2": {},
      "BridgeStateRotations": [],
      "DialogueGroups": [],
      "TalkDialogGroupIDList": [],
      "ServerInteractVerificationIDList": [],
      "TriggerValidGuest": {},
      "TagContainer": {},
      "CameraCenterEntityList": [],
      "SpawnConfig": {
        "EntitySpawnConfig": {}
      }
    },
    {
      "ID": 300010,
      "PosX": -37.59764,
      "PosY": 44.74173,
      "PosZ": 0.454183,
      "Name": "Prop10",
      "RotY": 138.2302,
      "PropID": 103016,
      "ValueSource": {},
      "CampID": 4,
      "EventID": 20321401,
      "CustomTriggerMap": {},
      "CustomTriggerMapV2": {},
      "BridgeStateRotations": [],
      "DialogueGroups": [],
      "TalkDialogGroupIDList": [],
      "ServerInteractVerificationIDList": [],
      "TriggerValidGuest": {},
      "TagContainer": {},
      "CameraCenterEntityList": [],
      "SpawnConfig": {
        "EntitySpawnConfig": {}
      }
    },
    {
      "ID": 300012,
      "PosX": -34.62508,
      "PosY": 44.74173,
      "PosZ": -2.757166,
      "Name": "Prop12",
      "RotY": 121.2418,
      "PropID": 103016,
      "ValueSource": {},
      "CampID": 4,
      "EventID": 20321401,
      "CustomTriggerMap": {},
      "CustomTriggerMapV2": {},
      "BridgeStateRotations": [],
      "DialogueGroups": [],
      "TalkDialogGroupIDList": [],
      "ServerInteractVerificationIDList": [],
      "TriggerValidGuest": {},
      "TagContainer": {},
      "CameraCenterEntityList": [],
      "SpawnConfig": {
        "EntitySpawnConfig": {}
      }
    },
    {
      "ID": 300013,
      "PosX": -29.32434,
      "PosY": 44.74173,
      "PosZ": -4.339841,
      "Name": "Prop13",
      "RotY": 358.6668,
      "PropID": 103016,
      "ValueSource": {},
      "CampID": 4,
      "EventID": 20321401,
      "CustomTriggerMap": {},
      "CustomTriggerMapV2": {},
      "BridgeStateRotations": [],
      "DialogueGroups": [],
      "TalkDialogGroupIDList": [],
      "ServerInteractVerificationIDList": [],
      "TriggerValidGuest": {},
      "TagContainer": {},
      "CameraCenterEntityList": [],
      "SpawnConfig": {
        "EntitySpawnConfig": {}
      }
    },
    {
      "ID": 300014,
      "PosX": -24.28,
      "PosY": 44.74173,
      "PosZ": -3.69,
      "Name": "Prop14",
      "RotY": 56.71699,
      "PropID": 103017,
      "ValueSource": {},
      "CampID": 4,
      "EventID": 20321401,
      "CustomTriggerMap": {},
      "CustomTriggerMapV2": {},
      "BridgeStateRotations": [],
      "DialogueGroups": [],
      "TalkDialogGroupIDList": [],
      "ServerInteractVerificationIDList": [],
      "TriggerValidGuest": {},
      "TagContainer": {},
      "CameraCenterEntityList": [],
      "SpawnConfig": {
        "EntitySpawnConfig": {}
      }
    },
    {
      "ID": 300015,
      "PosX": -18.8,
      "PosY": 44.74173,
      "PosZ": 0.7,
      "Name": "Prop15",
      "RotY": 89.47547,
      "PropID": 103017,
      "ValueSource": {},
      "CampID": 4,
      "EventID": 20321401,
      "CustomTriggerMap": {},
      "CustomTriggerMapV2": {},
      "BridgeStateRotations": [],
      "DialogueGroups": [],
      "TalkDialogGroupIDList": [],
      "ServerInteractVerificationIDList": [],
      "TriggerValidGuest": {},
      "TagContainer": {},
      "CameraCenterEntityList": [],
      "SpawnConfig": {
        "EntitySpawnConfig": {}
      }
    },
    {
      "ID": 300016,
      "PosX": -14.53,
      "PosY": 44.74173,
      "PosZ": 0.74,
      "Name": "Prop16",
      "RotY": 89.47547,
      "PropID": 103017,
      "ValueSource": {},
      "CampID": 4,
      "EventID": 20321401,
      "CustomTriggerMap": {},
      "CustomTriggerMapV2": {},
      "BridgeStateRotations": [],
      "DialogueGroups": [],
      "TalkDialogGroupIDList": [],
      "ServerInteractVerificationIDList": [],
      "TriggerValidGuest": {},
      "TagContainer": {},
      "CameraCenterEntityList": [],
      "SpawnConfig": {
        "EntitySpawnConfig": {}
      }
    },
    {
      "ID": 300017,
      "PosX": -10.63472,
      "PosY": 44.74173,
      "PosZ": 0.820731,
      "Name": "Prop17",
      "RotY": 172.9838,
      "PropID": 103017,
      "ValueSource": {},
      "CampID": 4,
      "EventID": 20321401,
      "CustomTriggerMap": {},
      "CustomTriggerMapV2": {},
      "BridgeStateRotations": [],
      "DialogueGroups": [],
      "TalkDialogGroupIDList": [],
      "ServerInteractVerificationIDList": [],
      "TriggerValidGuest": {},
      "TagContainer": {},
      "CameraCenterEntityList": [],
      "SpawnConfig": {
        "EntitySpawnConfig": {}
      }
    },
    {
      "ID": 300018,
      "PosX": -11.53244,
      "PosY": 44.74173,
      "PosZ": -3.148878,
      "Name": "Prop18",
      "RotY": 208.6973,
      "PropID": 103017,
      "ValueSource": {},
      "CampID": 4,
      "EventID": 20321401,
      "CustomTriggerMap": {},
      "CustomTriggerMapV2": {},
      "BridgeStateRotations": [],
      "DialogueGroups": [],
      "TalkDialogGroupIDList": [],
      "ServerInteractVerificationIDList": [],
      "TriggerValidGuest": {},
      "TagContainer": {},
      "CameraCenterEntityList": [],
      "SpawnConfig": {
        "EntitySpawnConfig": {}
      }
    },
    {
      "ID": 300019,
      "PosX": -13.53365,
      "PosY": 44.74173,
      "PosZ": -6.444155,
      "Name": "Prop19",
      "RotY": 217.3539,
      "PropID": 103017,
      "ValueSource": {},
      "CampID": 4,
      "EventID": 20321401,
      "CustomTriggerMap": {},
      "CustomTriggerMapV2": {},
      "BridgeStateRotations": [],
      "DialogueGroups": [],
      "TalkDialogGroupIDList": [],
      "ServerInteractVerificationIDList": [],
      "TriggerValidGuest": {},
      "TagContainer": {},
      "CameraCenterEntityList": [],
      "SpawnConfig": {
        "EntitySpawnConfig": {}
      }
    },
    {
      "ID": 300020,
      "PosX": -17.03499,
      "PosY": 44.74173,
      "PosZ": -9.401193,
      "Name": "Prop20",
      "RotY": 229.3078,
      "PropID": 103017,
      "ValueSource": {},
      "CampID": 4,
      "EventID": 20321401,
      "CustomTriggerMap": {},
      "CustomTriggerMapV2": {},
      "BridgeStateRotations": [],
      "DialogueGroups": [],
      "TalkDialogGroupIDList": [],
      "ServerInteractVerificationIDList": [],
      "TriggerValidGuest": {},
      "TagContainer": {},
      "CameraCenterEntityList": [],
      "SpawnConfig": {
        "EntitySpawnConfig": {}
      }
    },
    {
      "ID": 300021,
      "PosX": -20.58418,
      "PosY": 44.74173,
      "PosZ": -11.58918,
      "Name": "Prop21",
      "RotY": 242.9072,
      "PropID": 103017,
      "ValueSource": {},
      "CampID": 4,
      "EventID": 20321401,
      "CustomTriggerMap": {},
      "CustomTriggerMapV2": {},
      "BridgeStateRotations": [],
      "DialogueGroups": [],
      "TalkDialogGroupIDList": [],
      "ServerInteractVerificationIDList": [],
      "TriggerValidGuest": {},
      "TagContainer": {},
      "CameraCenterEntityList": [],
      "SpawnConfig": {
        "EntitySpawnConfig": {}
      }
    },
    {
      "ID": 300022,
      "PosX": -24.57,
      "PosY": 44.74173,
      "PosZ": -12.94,
      "Name": "Prop22",
      "RotY": 252.0141,
      "PropID": 103017,
      "ValueSource": {},
      "CampID": 4,
      "EventID": 20321401,
      "CustomTriggerMap": {},
      "CustomTriggerMapV2": {},
      "BridgeStateRotations": [],
      "DialogueGroups": [],
      "TalkDialogGroupIDList": [],
      "ServerInteractVerificationIDList": [],
      "TriggerValidGuest": {},
      "TagContainer": {},
      "CameraCenterEntityList": [],
      "SpawnConfig": {
        "EntitySpawnConfig": {}
      }
    },
    {
      "ID": 300023,
      "PosX": -28.65098,
      "PosY": 44.74173,
      "PosZ": -13.70085,
      "Name": "Prop23",
      "RotY": 178.3937,
      "PropID": 103017,
      "ValueSource": {},
      "CampID": 4,
      "EventID": 20321401,
      "CustomTriggerMap": {},
      "CustomTriggerMapV2": {},
      "BridgeStateRotations": [],
      "DialogueGroups": [],
      "TalkDialogGroupIDList": [],
      "ServerInteractVerificationIDList": [],
      "TriggerValidGuest": {},
      "TagContainer": {},
      "CameraCenterEntityList": [],
      "SpawnConfig": {
        "EntitySpawnConfig": {}
      }
    }
  ],
  "NPCList": []
}