{
  "GroupGUID": "1a0dc47b-cef5-49c5-b834-f1d8e2df97fb",
  "GroupName": "Shrink_Gameplay_02",
  "LevelGraph": "Config/Level/GroupGraph/F20321001/Group_F20321001_G42.json",
  "AreaAnchorName": "LevelArea_P20321_F20321001_G42",
  "SaveDimensionFilter": {},
  "SavedValueCondition": {
    "Conditions": [],
    "Operation": "And"
  },
  "UseCustomSaveData": true,
  "LoadSide": "Server",
  "LoadOnInitial": true,
  "ValueSource": {
    "Values": [
      {
        "$type": "SharedString",
        "Key": "IsWolfBro",
        "Value": "42,300003"
      }
    ]
  },
  "ConflictIDList": [],
  "IsHoyoGroup": true,
  "ConflictWhiteList": [],
  "TagContainer": {},
  "AnchorList": [
    {
      "ID": 1,
      "PosX": -0.367,
      "PosY": -51.37222,
      "PosZ": 155.519,
      "Name": "Teleport_Destination_1",
      "RotY": 349.2703
    },
    {
      "ID": 2,
      "PosX": 0.975,
      "PosY": -49.068,
      "PosZ": 149.195,
      "Name": "Teleport_Destination_2",
      "RotY": 254.6051
    },
    {
      "ID": 3,
      "PosX": -22.285,
      "PosY": -50.725,
      "PosZ": 156.703,
      "Name": "HidingChest_Cam_Pos",
      "RotY": 180.0
    },
    {
      "ID": 4,
      "PosX": -20.907,
      "PosY": -51.37221,
      "PosZ": 156.995,
      "Name": "HidingChest_Exit_Pos",
      "RotY": 258.0379
    },
    {
      "ID": 7,
      "PosX": -20.852,
      "PosY": 51.614,
      "PosZ": 129.21,
      "Name": "Entrance_Anchor",
      "RotY": 345.9702
    },
    {
      "ID": 8,
      "PosX": -29.433,
      "PosY": -49.10221,
      "PosZ": 142.346,
      "Name": "Exit_Anchor",
      "RotY": 348.1094
    },
    {
      "ID": 11,
      "PosX": -26.76,
      "PosY": -41.1622,
      "PosZ": 168.232,
      "Name": "Teleport_Destination_3",
      "RotY": 74.60518
    },
    {
      "ID": 12,
      "PosX": -33.804,
      "PosY": -49.10621,
      "PosZ": 164.454,
      "Name": "Teleport_Destination_4",
      "RotY": 165.7716
    },
    {
      "ID": 13,
      "PosX": -14.87643,
      "PosY": -41.16201,
      "PosZ": 171.1975,
      "Name": "Teleport_Destination_5",
      "RotY": 255.0
    },
    {
      "ID": 14,
      "PosX": -3.623848,
      "PosY": -51.37199,
      "PosZ": 162.7004,
      "Name": "Teleport_Destination_6",
      "RotY": 255.5371
    },
    {
      "ID": 15,
      "PosX": -23.10269,
      "PosY": -46.02096,
      "PosZ": 159.9144,
      "Name": "PushCam",
      "RotY": 121.5243,
      "RotX": 30.01136,
      "RotZ": -1.44E-4,
      "Usage": "Camera",
      "CustomParameter": {
        "$type": "LevelAnchorCameraParameter"
      }
    },
    {
      "ID": 16,
      "PosX": -34.29421,
      "PosY": -45.79247,
      "PosZ": 154.8898,
      "Name": "PushCam_2",
      "RotY": 23.99545,
      "RotX": 33.10535,
      "RotZ": -0.001058,
      "Usage": "Camera",
      "CustomParameter": {
        "$type": "LevelAnchorCameraParameter"
      }
    }
  ],
  "MonsterList": [],
  "PropList": [
    {
      "ID": 300004,
      "PosX": -22.285,
      "PosY": -51.37221,
      "PosZ": 156.703,
      "Name": "Hiding_Chest",
      "RotY": 258.1019,
      "PropID": 103043,
      "ValueSource": {
        "Values": [
          {
            "$type": "SharedString",
            "Key": "InPoint",
            "Value": "LevelArea_P20321_F20321001_G42,HidingChest_Cam_Pos"
          },
          {
            "$type": "SharedString",
            "Key": "LeavePoint",
            "Value": "LevelArea_P20321_F20321001_G42,HidingChest_Exit_Pos"
          }
        ]
      },
      "Trigger": {
        "Shape": "Box",
        "Radius": 0.7,
        "DimX": 0.8,
        "DimY": 1.0,
        "DimZ": 0.8,
        "PointList": []
      },
      "CampID": 4,
      "CustomTriggerMap": {},
      "CustomTriggerMapV2": {},
      "BridgeStateRotations": [],
      "DialogueGroups": [],
      "TalkDialogGroupIDList": [],
      "ServerInteractVerificationIDList": [],
      "TriggerValidGuest": {},
      "TagContainer": {},
      "CameraCenterEntityList": [],
      "SpawnConfig": {
        "EntitySpawnConfig": {}
      }
    },
    {
      "ID": 300005,
      "PosX": 1.703,
      "PosY": -49.06821,
      "PosZ": 149.311,
      "Name": "Teleporter1_1",
      "RotY": 260.0,
      "PropID": 103050,
      "ValueSource": {
        "Values": [
          {
            "$type": "SharedString",
            "Key": "MoveTo",
            "Value": "LevelArea_P20321_F20321001_G42,Teleport_Destination_1"
          }
        ]
      },
      "CampID": 4,
      "State": "TeleportGate0",
      "CustomTriggerMap": {},
      "CustomTriggerMapV2": {
        "Trigger_01": {
          "Radius": 1.0,
          "DimX": 1.0,
          "DimY": 1.0,
          "DimZ": 1.0,
          "PointList": []
        },
        "Trigger_02": {
          "Radius": 1.0,
          "DimX": 1.0,
          "DimY": 1.0,
          "DimZ": 1.0,
          "PointList": []
        }
      },
      "BridgeStateRotations": [],
      "DialogueGroups": [],
      "TalkDialogGroupIDList": [],
      "ServerInteractVerificationIDList": [],
      "OverrideTriggerValidGuestConfig": true,
      "TriggerValidGuest": {
        "FakePlayer": true,
        "TargetList": []
      },
      "TagContainer": {},
      "CameraCenterEntityList": [],
      "SpawnConfig": {
        "EntitySpawnConfig": {}
      }
    },
    {
      "ID": 300006,
      "PosX": 0.796,
      "PosY": -51.3422,
      "PosZ": 154.832,
      "Name": "Teleporter1_2",
      "RotY": 255.0,
      "PropID": 103050,
      "ValueSource": {
        "Values": [
          {
            "$type": "SharedString",
            "Key": "MoveTo",
            "Value": "LevelArea_P20321_F20321001_G42,Teleport_Destination_2"
          }
        ]
      },
      "CampID": 4,
      "State": "TeleportGate0",
      "CustomTriggerMap": {},
      "CustomTriggerMapV2": {
        "Trigger_01": {
          "Radius": 1.0,
          "DimX": 1.0,
          "DimY": 1.0,
          "DimZ": 1.0,
          "PointList": []
        },
        "Trigger_02": {
          "Radius": 1.0,
          "DimX": 1.0,
          "DimY": 1.0,
          "DimZ": 1.0,
          "PointList": []
        }
      },
      "BridgeStateRotations": [],
      "DialogueGroups": [],
      "TalkDialogGroupIDList": [],
      "ServerInteractVerificationIDList": [],
      "OverrideTriggerValidGuestConfig": true,
      "TriggerValidGuest": {
        "FakePlayer": true
      },
      "TagContainer": {},
      "CameraCenterEntityList": [],
      "SpawnConfig": {
        "EntitySpawnConfig": {}
      }
    },
    {
      "ID": 300007,
      "PosX": -34.355,
      "PosY": -49.09378,
      "PosZ": 165.595,
      "Name": "Teleporter2_1",
      "RotY": 255.0,
      "PropID": 103050,
      "ValueSource": {
        "Values": [
          {
            "$type": "SharedString",
            "Key": "MoveTo",
            "Value": "LevelArea_P20321_F20321001_G42,Teleport_Destination_3"
          }
        ]
      },
      "CampID": 4,
      "State": "TeleportGate0",
      "CustomTriggerMap": {},
      "CustomTriggerMapV2": {
        "Trigger_01": {
          "Radius": 1.0,
          "DimX": 1.0,
          "DimY": 1.0,
          "DimZ": 1.0,
          "PointList": []
        },
        "Trigger_02": {
          "Radius": 1.0,
          "DimX": 1.0,
          "DimY": 1.0,
          "DimZ": 1.0,
          "PointList": []
        }
      },
      "BridgeStateRotations": [],
      "DialogueGroups": [],
      "TalkDialogGroupIDList": [],
      "ServerInteractVerificationIDList": [],
      "OverrideTriggerValidGuestConfig": true,
      "TriggerValidGuest": {
        "FakePlayer": true
      },
      "TagContainer": {},
      "CameraCenterEntityList": [],
      "SpawnConfig": {
        "EntitySpawnConfig": {}
      }
    },
    {
      "ID": 300008,
      "PosX": -27.864,
      "PosY": -41.1622,
      "PosZ": 167.911,
      "Name": "Teleporter2_2",
      "RotY": 74.84,
      "PropID": 103050,
      "ValueSource": {
        "Values": [
          {
            "$type": "SharedString",
            "Key": "MoveTo",
            "Value": "LevelArea_P20321_F20321001_G42,Teleport_Destination_4"
          }
        ]
      },
      "CampID": 4,
      "State": "TeleportGate0",
      "CustomTriggerMap": {},
      "CustomTriggerMapV2": {
        "Trigger_01": {
          "Radius": 1.0,
          "DimX": 1.0,
          "DimY": 1.0,
          "DimZ": 1.0,
          "PointList": []
        },
        "Trigger_02": {
          "Radius": 1.0,
          "DimX": 1.0,
          "DimY": 1.0,
          "DimZ": 1.0,
          "PointList": []
        }
      },
      "BridgeStateRotations": [],
      "DialogueGroups": [],
      "TalkDialogGroupIDList": [],
      "ServerInteractVerificationIDList": [],
      "OverrideTriggerValidGuestConfig": true,
      "TriggerValidGuest": {
        "FakePlayer": true,
        "TargetList": []
      },
      "TagContainer": {},
      "CameraCenterEntityList": [],
      "SpawnConfig": {
        "EntitySpawnConfig": {}
      }
    },
    {
      "ID": 300009,
      "PosX": -19.396,
      "PosY": -49.297,
      "PosZ": 149.104,
      "Name": "Prop9",
      "RotY": 248.4526,
      "PropID": 103016,
      "ValueSource": {
        "Values": [
          {
            "$type": "SharedUint",
            "Key": "RotationType",
            "Value": 6
          }
        ]
      },
      "CampID": 4,
      "EventID": 10000,
      "CustomTriggerMap": {},
      "CustomTriggerMapV2": {},
      "BridgeStateRotations": [],
      "DialogueGroups": [],
      "TalkDialogGroupIDList": [],
      "ServerInteractVerificationIDList": [],
      "TriggerValidGuest": {},
      "TagContainer": {},
      "CameraCenterEntityList": [],
      "SpawnConfig": {
        "EntitySpawnConfig": {}
      }
    },
    {
      "ID": 300016,
      "PosX": -13.89002,
      "PosY": -49.08701,
      "PosZ": 155.95,
      "Name": "FallVase",
      "RotY": 255.0,
      "PropID": 103087,
      "ValueSource": {
        "Values": [
          {
            "$type": "SharedString",
            "Key": "PushCamera",
            "Value": "LevelArea_P20321_F20321001_G42,PushCam"
          }
        ]
      },
      "Trigger": {
        "Shape": "Capsule",
        "Radius": 0.5,
        "DimX": 1.0,
        "DimY": 1.3,
        "DimZ": 1.0,
        "Offset": {
          "y": 0.48
        },
        "PointList": []
      },
      "CampID": 4,
      "EventID": 10000,
      "CustomTriggerMap": {},
      "CustomTriggerMapV2": {},
      "BridgeStateRotations": [],
      "DialogueGroups": [],
      "TalkDialogGroupIDList": [],
      "ServerInteractVerificationIDList": [],
      "TriggerValidGuest": {},
      "TagContainer": {},
      "CameraCenterEntityList": [],
      "SpawnConfig": {
        "EntitySpawnConfig": {}
      }
    },
    {
      "ID": 300018,
      "PosX": -20.69,
      "PosY": 51.614,
      "PosZ": 128.504,
      "Name": "Entrance",
      "RotY": 346.1637,
      "PropID": 103051,
      "ValueSource": {
        "Values": [
          {
            "$type": "SharedString",
            "Key": "MoveToAnchor",
            "Value": "LevelArea_P20321_F20321001_G42,Exit_Anchor"
          }
        ]
      },
      "CampID": 4,
      "State": "Open",
      "CustomTriggerMap": {},
      "CustomTriggerMapV2": {},
      "BridgeStateRotations": [],
      "DialogueGroups": [],
      "TalkDialogGroupIDList": [],
      "ServerInteractVerificationIDList": [],
      "TriggerValidGuest": {},
      "TagContainer": {},
      "CameraCenterEntityList": [],
      "SpawnConfig": {
        "EntitySpawnConfig": {}
      }
    },
    {
      "ID": 300019,
      "PosX": -29.244,
      "PosY": -49.10221,
      "PosZ": 141.398,
      "Name": "Exit",
      "RotY": 345.0001,
      "PropID": 103051,
      "ValueSource": {
        "Values": [
          {
            "$type": "SharedString",
            "Key": "MoveToAnchor",
            "Value": "LevelArea_P20321_F20321001_G42,Entrance_Anchor"
          }
        ]
      },
      "CampID": 4,
      "State": "Open",
      "CustomTriggerMap": {},
      "CustomTriggerMapV2": {},
      "BridgeStateRotations": [],
      "DialogueGroups": [],
      "TalkDialogGroupIDList": [],
      "ServerInteractVerificationIDList": [],
      "TriggerValidGuest": {},
      "TagContainer": {},
      "CameraCenterEntityList": [],
      "SpawnConfig": {
        "EntitySpawnConfig": {}
      }
    },
    {
      "ID": 300021,
      "PosX": -32.14201,
      "PosY": -49.09201,
      "PosZ": 160.801,
      "Name": "FallVase_2",
      "RotY": 164.9999,
      "PropID": 103087,
      "ValueSource": {
        "Values": [
          {
            "$type": "SharedString",
            "Key": "PushCamera",
            "Value": "LevelArea_P20321_F20321001_G42,PushCam_2"
          }
        ]
      },
      "Trigger": {
        "Shape": "Capsule",
        "Radius": 0.5,
        "DimX": 1.0,
        "DimY": 1.3,
        "DimZ": 1.0,
        "Offset": {
          "y": 0.48
        },
        "PointList": []
      },
      "CampID": 4,
      "EventID": 10000,
      "CustomTriggerMap": {},
      "CustomTriggerMapV2": {},
      "BridgeStateRotations": [],
      "DialogueGroups": [],
      "TalkDialogGroupIDList": [],
      "ServerInteractVerificationIDList": [],
      "TriggerValidGuest": {
        "TargetList": []
      },
      "TagContainer": {},
      "CameraCenterEntityList": [],
      "SpawnConfig": {
        "EntitySpawnConfig": {}
      }
    },
    {
      "ID": 300020,
      "PosX": -19.802,
      "PosY": -51.372,
      "PosZ": 163.35,
      "Name": "Explosive_1",
      "RotY": 164.9999,
      "PropID": 103055,
      "IsOverrideInitLevelGraph": true,
      "InitLevelGraph": "Config/Level/Props/Chap03/InitLevelGraph_Prop_Chap03_FireworksBox_01.json",
      "ValueSource": {
        "Values": [
          {
            "$type": "SharedString",
            "Key": "BreakWall",
            "Value": "42,300001"
          }
        ]
      },
      "CampID": 4,
      "CustomTriggerMap": {},
      "CustomTriggerMapV2": {},
      "BridgeStateRotations": [],
      "DialogueGroups": [],
      "TalkDialogGroupIDList": [],
      "ServerInteractVerificationIDList": [],
      "TriggerValidGuest": {},
      "TagContainer": {},
      "CameraCenterEntityList": [],
      "SpawnConfig": {
        "EntitySpawnConfig": {}
      }
    },
    {
      "ID": 300023,
      "PosX": -21.21,
      "PosY": -41.162,
      "PosZ": 169.586,
      "Name": "Rocket_Launcher",
      "PropID": 103068,
      "ValueSource": {},
      "CampID": 4,
      "State": "Locked",
      "CustomTriggerMap": {},
      "CustomTriggerMapV2": {},
      "BridgeStateRotations": [],
      "DialogueGroups": [],
      "TalkDialogGroupIDList": [],
      "ServerInteractVerificationIDList": [],
      "TriggerValidGuest": {},
      "TagContainer": {},
      "CameraCenterEntityList": [],
      "SpawnConfig": {
        "EntitySpawnConfig": {}
      }
    },
    {
      "ID": 300002,
      "PosX": -24.158,
      "PosY": -49.102,
      "PosZ": 142.618,
      "Name": "LockedDoor_Shrink_02",
      "RotY": 345.9995,
      "PropID": 103031,
      "ValueSource": {
        "Values": [
          {
            "$type": "SharedUint",
            "Key": "CanInteractInLock"
          }
        ]
      },
      "CampID": 4,
      "CustomTriggerMap": {},
      "CustomTriggerMapV2": {},
      "BridgeStateRotations": [],
      "DialogueGroups": [],
      "TalkDialogGroupIDList": [],
      "ServerInteractVerificationIDList": [],
      "TriggerValidGuest": {},
      "TagContainer": {},
      "CameraCenterEntityList": [],
      "SpawnConfig": {
        "EntitySpawnConfig": {}
      }
    },
    {
      "ID": 300003,
      "Name": "Teleport_Controller_Case2",
      "PropID": 100,
      "IsOverrideInitLevelGraph": true,
      "InitLevelGraph": "Config/Level/Maze/Chapter02/X201/Maze_Chap03_WolfBro_TeleportGate.json",
      "ValueSource": {
        "Values": [
          {
            "$type": "SharedUint",
            "Key": "Maze_CurrentGroup",
            "Value": 84
          },
          {
            "$type": "SharedString",
            "Key": "PrefabPath",
            "Value": "Props/Outputs/Chap02/Chap02_Prop_TeleportGate/TeleportGateController_P201_02.prefab"
          }
        ]
      },
      "CustomTriggerMap": {},
      "CustomTriggerMapV2": {},
      "BridgeStateRotations": [],
      "DialogueGroups": [],
      "TalkDialogGroupIDList": [],
      "ServerInteractVerificationIDList": [],
      "TriggerValidGuest": {},
      "TagContainer": {},
      "CameraCenterEntityList": [],
      "SpawnConfig": {
        "EntitySpawnConfig": {}
      }
    },
    {
      "ID": 300001,
      "PosX": -22.75327,
      "PosY": -51.3665,
      "PosZ": 163.1753,
      "Name": "BreakableWall_01",
      "RotY": 166.0738,
      "PropID": 100,
      "ValueSource": {},
      "CampID": 4,
      "CustomTriggerMap": {},
      "CustomTriggerMapV2": {},
      "BridgeStateRotations": [],
      "DialogueGroups": [],
      "TalkDialogGroupIDList": [],
      "ServerInteractVerificationIDList": [],
      "StageObjectCapture": {
        "BlockAlias": "Chap03_CloseView_MAZ_P201_14_BlockData",
        "PrefabAlias": "P201_BreakableWall_1"
      },
      "TriggerValidGuest": {},
      "TagContainer": {},
      "CameraCenterEntityList": [],
      "SpawnConfig": {
        "EntitySpawnConfig": {}
      }
    },
    {
      "ID": 300010,
      "PosX": -32.364,
      "PosY": -49.117,
      "PosZ": 161.909,
      "Name": "Prop10",
      "RotY": 349.8018,
      "Scale": {
        "x": 0.4,
        "y": 0.3,
        "z": 0.7
      },
      "PropID": 109,
      "ValueSource": {},
      "CampID": 4,
      "CustomTriggerMap": {},
      "CustomTriggerMapV2": {},
      "BridgeStateRotations": [],
      "DialogueGroups": [],
      "TalkDialogGroupIDList": [],
      "ServerInteractVerificationIDList": [],
      "TriggerValidGuest": {},
      "TagContainer": {},
      "CameraCenterEntityList": [],
      "SpawnConfig": {
        "EntitySpawnConfig": {}
      }
    },
    {
      "ID": 300011,
      "PosX": -34.58,
      "PosY": -49.117,
      "PosZ": 161.401,
      "Name": "Prop11",
      "RotY": 349.8018,
      "Scale": {
        "x": 0.5,
        "y": 0.3,
        "z": 0.7
      },
      "PropID": 109,
      "ValueSource": {},
      "CampID": 4,
      "CustomTriggerMap": {},
      "CustomTriggerMapV2": {},
      "BridgeStateRotations": [],
      "DialogueGroups": [],
      "TalkDialogGroupIDList": [],
      "ServerInteractVerificationIDList": [],
      "TriggerValidGuest": {},
      "TagContainer": {},
      "CameraCenterEntityList": [],
      "SpawnConfig": {
        "EntitySpawnConfig": {}
      }
    },
    {
      "ID": 300012,
      "PosX": -11.918,
      "PosY": -49.106,
      "PosZ": 155.316,
      "Name": "Prop12",
      "RotY": 259.8018,
      "Scale": {
        "x": 0.8,
        "y": 0.3,
        "z": 0.7
      },
      "PropID": 109,
      "ValueSource": {},
      "CampID": 4,
      "CustomTriggerMap": {},
      "CustomTriggerMapV2": {},
      "BridgeStateRotations": [],
      "DialogueGroups": [],
      "TalkDialogGroupIDList": [],
      "ServerInteractVerificationIDList": [],
      "TriggerValidGuest": {},
      "TagContainer": {},
      "CameraCenterEntityList": [],
      "SpawnConfig": {
        "EntitySpawnConfig": {}
      }
    },
    {
      "ID": 300013,
      "PosX": -2.064,
      "PosY": -51.37199,
      "PosZ": 163.042,
      "Name": "Teleporter3_1",
      "RotY": 164.8401,
      "PropID": 103050,
      "ValueSource": {
        "Values": [
          {
            "$type": "SharedString",
            "Key": "MoveTo",
            "Value": "LevelArea_P20321_F20321001_G42,Teleport_Destination_5"
          }
        ]
      },
      "CampID": 4,
      "State": "TeleportGate0",
      "CustomTriggerMap": {},
      "CustomTriggerMapV2": {
        "Trigger_01": {
          "Radius": 1.0,
          "DimX": 1.0,
          "DimY": 1.0,
          "DimZ": 1.0,
          "PointList": []
        },
        "Trigger_02": {
          "Radius": 1.0,
          "DimX": 1.0,
          "DimY": 1.0,
          "DimZ": 1.0,
          "PointList": []
        }
      },
      "BridgeStateRotations": [],
      "DialogueGroups": [],
      "TalkDialogGroupIDList": [],
      "ServerInteractVerificationIDList": [],
      "OverrideTriggerValidGuestConfig": true,
      "TriggerValidGuest": {
        "FakePlayer": true,
        "TargetList": []
      },
      "TagContainer": {},
      "CameraCenterEntityList": [],
      "SpawnConfig": {
        "EntitySpawnConfig": {}
      }
    },
    {
      "ID": 300014,
      "PosX": -13.099,
      "PosY": -41.16201,
      "PosZ": 171.581,
      "Name": "Teleporter3_2",
      "RotY": 255.0,
      "PropID": 103050,
      "ValueSource": {
        "Values": [
          {
            "$type": "SharedString",
            "Key": "MoveTo",
            "Value": "LevelArea_P20321_F20321001_G42,Teleport_Destination_6"
          }
        ]
      },
      "CampID": 4,
      "State": "TeleportGate0",
      "CustomTriggerMap": {},
      "CustomTriggerMapV2": {
        "Trigger_01": {
          "Radius": 1.0,
          "DimX": 1.0,
          "DimY": 1.0,
          "DimZ": 1.0,
          "PointList": []
        },
        "Trigger_02": {
          "Radius": 1.0,
          "DimX": 1.0,
          "DimY": 1.0,
          "DimZ": 1.0,
          "PointList": []
        }
      },
      "BridgeStateRotations": [],
      "DialogueGroups": [],
      "TalkDialogGroupIDList": [],
      "ServerInteractVerificationIDList": [],
      "OverrideTriggerValidGuestConfig": true,
      "TriggerValidGuest": {
        "FakePlayer": true
      },
      "TagContainer": {},
      "CameraCenterEntityList": [],
      "SpawnConfig": {
        "EntitySpawnConfig": {}
      }
    },
    {
      "ID": 300015,
      "PosX": -3.822,
      "PosY": -51.37199,
      "PosZ": 163.748,
      "Name": "Prop15",
      "RotY": 78.20203,
      "PropID": 100,
      "IsOverrideInitLevelGraph": true,
      "InitLevelGraph": "Config/Level/Props/Chap03/InitLevelGraph_Prop_Chap03_TriggerTalk_01.json",
      "ValueSource": {
        "Values": []
      },
      "Trigger": {
        "Shape": "Box",
        "Radius": 1.0,
        "DimX": 1.0,
        "DimY": 1.0,
        "DimZ": 6.0,
        "PointList": []
      },
      "CampID": 4,
      "CustomTriggerMap": {},
      "CustomTriggerMapV2": {
        "MissionTrigger": {
          "PointList": []
        },
        "InteractTrigger": {
          "PointList": []
        }
      },
      "BridgeStateRotations": [],
      "DialogueGroups": [],
      "TalkDialogGroupIDList": [],
      "ServerInteractVerificationIDList": [],
      "TriggerValidGuest": {},
      "TagContainer": {},
      "CameraCenterEntityList": [],
      "SpawnConfig": {
        "EntitySpawnConfig": {}
      }
    },
    {
      "ID": 300017,
      "PosX": -35.526,
      "PosY": -49.1,
      "PosZ": 156.55,
      "Name": "Airwall",
      "RotY": 256.0567,
      "Scale": {
        "x": 1.0,
        "y": 0.2,
        "z": 0.2
      },
      "PropID": 102,
      "ValueSource": {},
      "CampID": 4,
      "CustomTriggerMap": {},
      "CustomTriggerMapV2": {},
      "BridgeStateRotations": [],
      "DialogueGroups": [],
      "TalkDialogGroupIDList": [],
      "ServerInteractVerificationIDList": [],
      "TriggerValidGuest": {},
      "TagContainer": {},
      "CameraCenterEntityList": [],
      "SpawnConfig": {
        "EntitySpawnConfig": {}
      }
    },
    {
      "ID": 300022,
      "PosX": -19.89,
      "PosY": -45.11,
      "PosZ": 158.94,
      "Name": "Trigger_Env_Switch",
      "RotY": 345.0,
      "PropID": 100,
      "ValueSource": {},
      "CampID": 4,
      "CustomTriggerMap": {},
      "CustomTriggerMapV2": {
        "MissionTrigger": {
          "Radius": 2.0,
          "PointList": []
        },
        "InteractTrigger": {
          "Shape": "Box",
          "Radius": 2.0,
          "DimX": 50.0,
          "DimY": 20.0,
          "DimZ": 40.0,
          "PointList": []
        }
      },
      "BridgeStateRotations": [],
      "DialogueGroups": [],
      "TalkDialogGroupIDList": [],
      "ServerInteractVerificationIDList": [],
      "OverrideTriggerValidGuestConfig": true,
      "TriggerValidGuest": {
        "FakePlayer": true
      },
      "TagContainer": {},
      "CameraCenterEntityList": [],
      "SpawnConfig": {
        "EntitySpawnConfig": {}
      }
    }
  ],
  "NPCList": []
}