{
  "GroupGUID": "be41d3c6-9e7f-44a7-993f-83a5c67d0e49",
  "GroupName": "Shrink_Gameplay_02_Monster",
  "AreaAnchorName": "LevelArea_P20321_F20321001_G44",
  "SaveDimensionFilter": {},
  "SavedValueCondition": {
    "Conditions": [],
    "Operation": "And"
  },
  "UseCustomSaveData": true,
  "LoadSide": "Server",
  "LoadOnInitial": true,
  "ValueSource": {},
  "ConflictIDList": [],
  "IsHoyoGroup": true,
  "HoYoGroupType": "Container",
  "ConflictWhiteList": [],
  "TagContainer": {},
  "AnchorList": [],
  "MonsterList": [
    {
      "ID": 200001,
      "PosX": -15.03,
      "PosY": -51.37221,
      "PosZ": 155.83,
      "Name": "Monster1",
      "RotY": 260.0,
      "NPCMonsterID": 3001021,
      "AIConfig": {
        "AIFile": "Config/ConfigAI/Adventure/NPCMonster/WolfBro_NPCMonster/ST_Gameplay_WolfBro_NPCMonster_Master.json",
        "PathwayList": [],
        "SlaveConfigList": []
      },
      "AIVariableSource": {},
      "ValueSource": {},
      "CampID": 3,
      "BattleArea": {},
      "Trigger": {
        "Radius": 1.0,
        "DimX": 1.0,
        "DimY": 1.0,
        "DimZ": 1.0,
        "PointList": []
      },
      "EventID": 10301299,
      "BoardShowList": [
        4
      ],
      "TagList": [],
      "SpawnConfig": {
        "OverrideSpawn": true,
        "EntitySpawnConfig": {}
      },
      "TagContainer": {}
    },
    {
      "ID": 200002,
      "PosX": -31.65151,
      "PosY": -51.37199,
      "PosZ": 159.1848,
      "Name": "Monster2",
      "RotY": 259.199,
      "NPCMonsterID": 3002011,
      "AIConfig": {
        "AIFile": "Config/ConfigAI/Adventure/NPCMonster/WolfBro_NPCMonster/ST_Gameplay_WolfBro_NPCMonster_Master.json",
        "PathwayList": [
          {
            "UseOwnerGroup": true,
            "UseGroup": 44,
            "UseID": 1,
            "Type": "Reverse"
          }
        ],
        "SlaveConfigList": []
      },
      "AIVariableSource": {},
      "ValueSource": {},
      "CampID": 3,
      "BattleArea": {},
      "Trigger": {
        "Radius": 1.0,
        "DimX": 1.0,
        "DimY": 1.0,
        "DimZ": 1.0,
        "PointList": []
      },
      "EventID": 10301299,
      "BoardShowList": [
        4
      ],
      "TagList": [],
      "SpawnConfig": {
        "OverrideSpawn": true,
        "EntitySpawnConfig": {}
      },
      "TagContainer": {}
    },
    {
      "ID": 200003,
      "PosX": -19.79613,
      "PosY": -51.37199,
      "PosZ": 162.1361,
      "Name": "Monster3",
      "RotY": 38.81383,
      "NPCMonsterID": 3002011,
      "AIConfig": {
        "AIFile": "Config/ConfigAI/Adventure/NPCMonster/WolfBro_NPCMonster/ST_Gameplay_WolfBro_NPCMonster_Master.json",
        "PathwayList": [],
        "SlaveConfigList": []
      },
      "AIVariableSource": {},
      "ValueSource": {
        "Values": []
      },
      "CampID": 3,
      "BattleArea": {},
      "Trigger": {
        "Radius": 1.0,
        "DimX": 1.0,
        "DimY": 1.0,
        "DimZ": 1.0,
        "PointList": []
      },
      "EventID": 10301299,
      "BoardShowList": [
        4
      ],
      "TagList": [],
      "SpawnConfig": {
        "OverrideSpawn": true,
        "EntitySpawnConfig": {}
      },
      "TagContainer": {}
    },
    {
      "ID": 200004,
      "PosX": -7.65,
      "PosY": -49.10221,
      "PosZ": 150.038,
      "Name": "Monster4",
      "RotY": 347.8375,
      "NPCMonsterID": 3002011,
      "AIConfig": {
        "AIFile": "Config/ConfigAI/Adventure/NPCMonster/WolfBro_NPCMonster/ST_Gameplay_WolfBro_NPCMonster_Master.json",
        "PathwayList": [
          {
            "UseOwnerGroup": true,
            "UseGroup": 44,
            "UseID": 2,
            "Type": "Reverse"
          }
        ],
        "SlaveConfigList": []
      },
      "AIVariableSource": {},
      "ValueSource": {},
      "CampID": 3,
      "BattleArea": {},
      "Trigger": {
        "Radius": 1.0,
        "DimX": 1.0,
        "DimY": 1.0,
        "DimZ": 1.0,
        "PointList": []
      },
      "EventID": 10301299,
      "BoardShowList": [
        4
      ],
      "TagList": [],
      "SpawnConfig": {
        "OverrideSpawn": true,
        "EntitySpawnConfig": {}
      },
      "TagContainer": {}
    },
    {
      "ID": 200005,
      "PosX": -21.237,
      "PosY": -45.1842,
      "PosZ": 167.297,
      "Name": "Monster5",
      "RotY": 255.0,
      "NPCMonsterID": 3001021,
      "AIConfig": {
        "AIFile": "Config/ConfigAI/Adventure/NPCMonster/WolfBro_NPCMonster/ST_Gameplay_WolfBro_NPCMonster_Master.json",
        "PathwayList": [
          {
            "UseOwnerGroup": true,
            "UseGroup": 44,
            "UseID": 3,
            "Type": "Reverse"
          }
        ],
        "SlaveConfigList": []
      },
      "AIVariableSource": {},
      "ValueSource": {
        "Values": []
      },
      "CampID": 3,
      "BattleArea": {},
      "Trigger": {
        "Radius": 1.0,
        "DimX": 1.0,
        "DimY": 1.0,
        "DimZ": 1.0,
        "PointList": []
      },
      "EventID": 10301299,
      "BoardShowList": [
        4
      ],
      "TagList": [],
      "SpawnConfig": {
        "OverrideSpawn": true,
        "EntitySpawnConfig": {}
      },
      "TagContainer": {}
    },
    {
      "ID": 200006,
      "PosX": -20.39,
      "PosY": -45.18399,
      "PosZ": 167.52,
      "Name": "Monster6",
      "RotY": 75.00005,
      "NPCMonsterID": 3001021,
      "AIConfig": {
        "AIFile": "Config/ConfigAI/Adventure/NPCMonster/WolfBro_NPCMonster/ST_Gameplay_WolfBro_NPCMonster_Master.json",
        "PathwayList": [
          {
            "UseOwnerGroup": true,
            "UseGroup": 44,
            "UseID": 4,
            "Type": "Reverse"
          }
        ],
        "SlaveConfigList": []
      },
      "AIVariableSource": {},
      "ValueSource": {
        "Values": []
      },
      "CampID": 3,
      "BattleArea": {},
      "Trigger": {
        "Radius": 1.0,
        "DimX": 1.0,
        "DimY": 1.0,
        "DimZ": 1.0,
        "PointList": []
      },
      "EventID": 10301299,
      "BoardShowList": [
        4
      ],
      "TagList": [],
      "SpawnConfig": {
        "OverrideSpawn": true,
        "EntitySpawnConfig": {}
      },
      "TagContainer": {}
    },
    {
      "ID": 200007,
      "PosX": -20.747,
      "PosY": -51.37221,
      "PosZ": 166.746,
      "Name": "Monster7",
      "RotY": 350.0001,
      "NPCMonsterID": 3002041,
      "AIConfig": {
        "AIFile": "Config/ConfigAI/Adventure/NPCMonster/WolfBro_NPCMonster/ST_Gameplay_WolfBro_NPCMonster_Master.json",
        "PathwayList": [],
        "SlaveConfigList": []
      },
      "AIVariableSource": {},
      "ValueSource": {},
      "CampID": 3,
      "BattleArea": {},
      "Trigger": {
        "Radius": 1.0,
        "DimX": 1.0,
        "DimY": 1.0,
        "DimZ": 1.0,
        "PointList": []
      },
      "InitialAnimState": "SpecialStandBy1",
      "EventID": 10301299,
      "BoardShowList": [
        4
      ],
      "TagList": [],
      "SpawnConfig": {
        "OverrideSpawn": true,
        "EntitySpawnConfig": {}
      },
      "TagContainer": {}
    }
  ],
  "PropList": [
    {
      "ID": 300001,
      "PosX": -15.03,
      "PosY": -51.37221,
      "PosZ": 155.83,
      "Name": "Prop1",
      "RotY": 260.0,
      "PropID": 100,
      "IsOverrideInitLevelGraph": true,
      "InitLevelGraph": "Config/Level/Props/Chap03/InitLevelGraph_Prop_Chap03_ShowGroupMonsterVision_01.json",
      "ValueSource": {},
      "CampID": 4,
      "CustomTriggerMap": {},
      "CustomTriggerMapV2": {},
      "BridgeStateRotations": [],
      "DialogueGroups": [],
      "TalkDialogGroupIDList": [],
      "ServerInteractVerificationIDList": [],
      "TriggerValidGuest": {},
      "TagContainer": {},
      "CameraCenterEntityList": [],
      "SpawnConfig": {
        "EntitySpawnConfig": {}
      }
    }
  ],
  "NPCList": []
}