{
  "GroupGUID": "a5230d87-0db0-4bff-8df7-6b7f4612ea67",
  "GroupName": "Default_ChallengeChest",
  "LevelGraph": "Config/Level/Maze/MazeGroup/Maze_Group_OpenTreasure_WhenMonsterDie.json",
  "AreaAnchorName": "LevelArea_P20321_F20321001_G16",
  "SaveDimensionFilter": {},
  "SavedValueCondition": {
    "Conditions": [],
    "Operation": "And"
  },
  "LoadSide": "Server",
  "LoadOnInitial": true,
  "ValueSource": {},
  "ConflictIDList": [],
  "IsHoyoGroup": true,
  "ConflictWhiteList": [],
  "TagContainer": {},
  "AnchorList": [],
  "MonsterList": [
    {
      "ID": 200001,
      "PosX": -45.51835,
      "PosY": 57.86237,
      "PosZ": -118.8531,
      "Name": "Monster1",
      "RotY": 321.8452,
      "NPCMonsterID": 3002040,
      "AIConfig": {
        "PathwayList": [],
        "SlaveConfigList": []
      },
      "AIVariableSource": {},
      "ValueSource": {},
      "CampID": 3,
      "BattleArea": {
        "GroupID": 1,
        "ID": 1
      },
      "InitialAnimState": "SpecialStandBy1",
      "EventID": 20321233,
      "BoardShowList": [
        4
      ],
      "TagList": [],
      "SpawnConfig": {
        "EntitySpawnConfig": {}
      },
      "TagContainer": {}
    },
    {
      "ID": 200002,
      "PosX": -48.51,
      "PosY": 57.86237,
      "PosZ": -119.03,
      "Name": "Monster2",
      "RotY": 23.36863,
      "NPCMonsterID": 3002040,
      "AIConfig": {
        "PathwayList": [],
        "SlaveConfigList": []
      },
      "AIVariableSource": {},
      "ValueSource": {},
      "CampID": 3,
      "BattleArea": {
        "GroupID": 1,
        "ID": 1
      },
      "InitialAnimState": "SpecialStandBy1",
      "EventID": 20321234,
      "BoardShowList": [
        4
      ],
      "TagList": [],
      "SpawnConfig": {
        "EntitySpawnConfig": {}
      },
      "TagContainer": {}
    }
  ],
  "PropList": [
    {
      "ID": 300001,
      "PosX": -47.1139,
      "PosY": 57.86237,
      "PosZ": -116.8739,
      "Name": "Prop1",
      "RotY": 170.0,
      "PropID": 60302,
      "ValueSource": {
        "Values": [
          {
            "$type": "SharedString",
            "Key": "MDString_HintTextmap",
            "Value": "MazeText_MazeCommon_ChestLockedHint2"
          }
        ]
      },
      "Trigger": {
        "Radius": 1.5,
        "DimX": 1.0,
        "DimY": 1.0,
        "DimZ": 1.0,
        "PointList": []
      },
      "CampID": 4,
      "State": "ChestLocked",
      "CustomTriggerMap": {},
      "CustomTriggerMapV2": {},
      "BridgeStateRotations": [],
      "ChestID": 20321652,
      "DialogueGroups": [],
      "TalkDialogGroupIDList": [],
      "ServerInteractVerificationIDList": [],
      "TriggerValidGuest": {},
      "TagContainer": {},
      "CameraCenterEntityList": [],
      "SpawnConfig": {
        "EntitySpawnConfig": {}
      }
    },
    {
      "ID": 300002,
      "Name": "Prop2",
      "PropID": 100,
      "IsOverrideInitLevelGraph": true,
      "InitLevelGraph": "Config/Level/Maze/MazeGroup/Maze_GroupProp_OpenTreasure_WhenMonsterDie.json",
      "ValueSource": {
        "Values": [
          {
            "$type": "SharedFloat",
            "Key": "MazeDF_CurrentGroup",
            "Value": 16.0
          }
        ]
      },
      "CampID": 4,
      "CustomTriggerMap": {},
      "CustomTriggerMapV2": {},
      "BridgeStateRotations": [],
      "DialogueGroups": [],
      "TalkDialogGroupIDList": [],
      "ServerInteractVerificationIDList": [],
      "TriggerValidGuest": {},
      "TagContainer": {},
      "CameraCenterEntityList": [],
      "SpawnConfig": {
        "EntitySpawnConfig": {}
      }
    },
    {
      "ID": 300003,
      "PosX": -47.1139,
      "PosY": 57.86237,
      "PosZ": -116.8739,
      "Name": "Prop3",
      "RotY": 170.0,
      "PropID": 211,
      "IsOverrideInitLevelGraph": true,
      "InitLevelGraph": "Config/Level/Maze/MazeExtra/Maze_Prop_GameplayIcon.json",
      "ValueSource": {
        "Values": [
          {
            "$type": "SharedString",
            "Key": "Chest",
            "Value": "16,300001"
          }
        ]
      },
      "CampID": 4,
      "CustomTriggerMap": {},
      "CustomTriggerMapV2": {},
      "BridgeStateRotations": [],
      "MappingInfoID": 10033,
      "DialogueGroups": [],
      "TalkDialogGroupIDList": [],
      "ServerInteractVerificationIDList": [],
      "OverrideMapStateIcons": [
        {
          "IconID": 87
        }
      ],
      "TriggerValidGuest": {},
      "TagContainer": {},
      "CameraCenterEntityList": [],
      "SpawnConfig": {
        "EntitySpawnConfig": {}
      }
    }
  ],
  "NPCList": []
}