{
  "GroupGUID": "4339a42d-53ce-4125-afe3-2a2b819a4c53",
  "GroupName": "New Group",
  "LevelGraph": "Config/Level/AetherDivide/Maze_AetherDivide_LNPCBattleWin02.json",
  "AreaAnchorName": "LevelArea_P43103_F43103002_G22",
  "LoadSide": "Server",
  "LoadOnInitial": true,
  "ValueSource": {
    "Values": []
  },
  "ConflictIDList": [],
  "AnchorList": [
    {
      "ID": 1,
      "PosX": 41.11,
      "PosY": 3.77,
      "PosZ": 250.11,
      "Name": "Anchor1",
      "RotY": 180.0,
      "RotX": 18.00919,
      "Usage": "Camera",
      "CustomParameter": {
        "$type": "LevelAnchorCameraParameter"
      }
    }
  ],
  "MonsterList": [],
  "PropList": [
    {
      "ID": 300001,
      "PosX": -13.46,
      "PosY": -1.147354,
      "PosZ": -25.86629,
      "Name": "Prop1",
      "RotY": 315.5684,
      "PropID": 301078,
      "IsOverrideInitLevelGraph": true,
      "InitLevelGraph": "Config/Level/AetherDivide/Maze_AetherDivide_NPC2Battle.json",
      "ValueSource": {
        "Values": [
          {
            "$type": "SharedString",
            "Key": "TargetMonster",
            "Value": "22,400001"
          },
          {
            "$type": "SharedString",
            "Key": "TriggerBattleString",
            "Value": "NPCBattleStart_14"
          },
          {
            "$type": "SharedString",
            "Key": "TargetNPC",
            "Value": "22,400006"
          },
          {
            "$type": "SharedString",
            "Key": "TalkJson",
            "Value": "801410806"
          },
          {
            "$type": "SharedString",
            "Key": "FinishJson",
            "Value": "801410826"
          }
        ]
      },
      "Trigger": {
        "Radius": 4.0,
        "DimX": 5.0,
        "DimY": 1.0,
        "DimZ": 5.0,
        "PointList": []
      },
      "CampID": 4,
      "CustomTriggerMap": {},
      "CustomTriggerMapV2": {},
      "BridgeStateRotations": [],
      "MappingInfoID": 2348,
      "DialogueGroups": [],
      "TalkDialogGroupIDList": [],
      "ServerInteractVerificationIDList": [],
      "OverrideMapIconType": 146,
      "OverrideMapStateIcons": [
        {
          "IconID": 146,
          "Color": "#FFFFFF"
        },
        {
          "State": "Open",
          "Color": "#4B4B4B"
        }
      ]
    },
    {
      "ID": 300002,
      "PosX": 0.19,
      "PosY": -1.084904,
      "PosZ": 11.17,
      "Name": "Prop2",
      "PropID": 301078,
      "IsOverrideInitLevelGraph": true,
      "InitLevelGraph": "Config/Level/AetherDivide/Maze_AetherDivide_NPC2Battle.json",
      "ValueSource": {
        "Values": [
          {
            "$type": "SharedString",
            "Key": "TargetMonster",
            "Value": "22,400002"
          },
          {
            "$type": "SharedString",
            "Key": "TriggerBattleString",
            "Value": "NPCBattleStart_13"
          },
          {
            "$type": "SharedString",
            "Key": "TargetNPC",
            "Value": "22,400007"
          },
          {
            "$type": "SharedString",
            "Key": "TalkJson",
            "Value": "801410807"
          },
          {
            "$type": "SharedString",
            "Key": "FinishJson",
            "Value": "801410827"
          }
        ]
      },
      "Trigger": {
        "Radius": 3.0,
        "DimX": 1.0,
        "DimY": 1.0,
        "DimZ": 1.0,
        "PointList": []
      },
      "CampID": 4,
      "CustomTriggerMap": {},
      "CustomTriggerMapV2": {},
      "BridgeStateRotations": [],
      "MappingInfoID": 2348,
      "DialogueGroups": [],
      "TalkDialogGroupIDList": [],
      "ServerInteractVerificationIDList": [],
      "OverrideMapIconType": 146,
      "OverrideMapStateIcons": [
        {
          "IconID": 146,
          "Color": "#FFFFFF"
        },
        {
          "State": "Open",
          "Color": "#4B4B4B"
        }
      ]
    },
    {
      "ID": 300003,
      "PosX": -19.63,
      "PosY": 9.100873,
      "PosZ": 94.50338,
      "Name": "Prop3",
      "PropID": 301078,
      "IsOverrideInitLevelGraph": true,
      "InitLevelGraph": "Config/Level/AetherDivide/Maze_AetherDivide_NPC2Battle.json",
      "ValueSource": {
        "Values": [
          {
            "$type": "SharedString",
            "Key": "TargetMonster",
            "Value": "22,400003"
          },
          {
            "$type": "SharedString",
            "Key": "TriggerBattleString",
            "Value": "NPCBattleStart_11"
          },
          {
            "$type": "SharedString",
            "Key": "TargetNPC",
            "Value": "22,400008"
          },
          {
            "$type": "SharedString",
            "Key": "TalkJson",
            "Value": "801410808"
          },
          {
            "$type": "SharedString",
            "Key": "FinishJson",
            "Value": "801410828"
          }
        ]
      },
      "Trigger": {
        "Radius": 4.0,
        "DimX": 10.0,
        "DimY": 1.0,
        "DimZ": 7.0,
        "PointList": []
      },
      "CampID": 4,
      "CustomTriggerMap": {},
      "CustomTriggerMapV2": {},
      "BridgeStateRotations": [],
      "MappingInfoID": 2348,
      "DialogueGroups": [],
      "TalkDialogGroupIDList": [],
      "ServerInteractVerificationIDList": [],
      "OverrideMapIconType": 146,
      "OverrideMapStateIcons": [
        {
          "IconID": 146,
          "Color": "#FFFFFF"
        },
        {
          "State": "Open",
          "Color": "#4B4B4B"
        }
      ]
    },
    {
      "ID": 300004,
      "PosX": 46.66389,
      "PosY": -2.915624,
      "PosZ": 38.04508,
      "Name": "Prop4",
      "PropID": 301078,
      "IsOverrideInitLevelGraph": true,
      "InitLevelGraph": "Config/Level/AetherDivide/Maze_AetherDivide_NPC2Battle.json",
      "ValueSource": {
        "Values": [
          {
            "$type": "SharedString",
            "Key": "TargetMonster",
            "Value": "22,400004"
          },
          {
            "$type": "SharedString",
            "Key": "TriggerBattleString",
            "Value": "NPCBattleStart_10"
          },
          {
            "$type": "SharedString",
            "Key": "TargetNPC",
            "Value": "22,400009"
          },
          {
            "$type": "SharedString",
            "Key": "TalkJson",
            "Value": "801410809"
          },
          {
            "$type": "SharedString",
            "Key": "FinishJson",
            "Value": "801410829"
          }
        ]
      },
      "Trigger": {
        "Radius": 4.0,
        "DimX": 1.0,
        "DimY": 1.0,
        "DimZ": 1.0,
        "PointList": []
      },
      "CampID": 4,
      "CustomTriggerMap": {},
      "CustomTriggerMapV2": {},
      "BridgeStateRotations": [],
      "MappingInfoID": 2348,
      "DialogueGroups": [],
      "TalkDialogGroupIDList": [],
      "ServerInteractVerificationIDList": [],
      "OverrideMapIconType": 146,
      "OverrideMapStateIcons": [
        {
          "IconID": 146,
          "Color": "#FFFFFF"
        },
        {
          "State": "Open",
          "Color": "#4B4B4B"
        }
      ]
    },
    {
      "ID": 300005,
      "PosX": -1.705,
      "PosY": 2.170624,
      "PosZ": 45.586,
      "Name": "Prop5",
      "RotY": 206.28,
      "PropID": 301078,
      "IsOverrideInitLevelGraph": true,
      "InitLevelGraph": "Config/Level/AetherDivide/Maze_AetherDivide_NPC2Battle.json",
      "ValueSource": {
        "Values": [
          {
            "$type": "SharedString",
            "Key": "TargetMonster",
            "Value": "22,400005"
          },
          {
            "$type": "SharedString",
            "Key": "TriggerBattleString",
            "Value": "NPCBattleStart_12"
          },
          {
            "$type": "SharedString",
            "Key": "TargetNPC",
            "Value": "22,400010"
          },
          {
            "$type": "SharedString",
            "Key": "TalkJson",
            "Value": "801410801"
          },
          {
            "$type": "SharedString",
            "Key": "FinishJson",
            "Value": "801410821"
          }
        ]
      },
      "Trigger": {
        "Radius": 4.0,
        "DimX": 1.0,
        "DimY": 1.0,
        "DimZ": 1.0,
        "PointList": []
      },
      "CampID": 4,
      "CustomTriggerMap": {},
      "CustomTriggerMapV2": {},
      "BridgeStateRotations": [],
      "MappingInfoID": 2348,
      "DialogueGroups": [],
      "TalkDialogGroupIDList": [],
      "ServerInteractVerificationIDList": [],
      "OverrideMapIconType": 146,
      "OverrideMapStateIcons": [
        {
          "IconID": 146,
          "Color": "#FFFFFF"
        },
        {
          "State": "Open",
          "Color": "#4B4B4B"
        }
      ]
    }
  ],
  "NPCList": [
    {
      "ID": 400001,
      "PosX": -12.85169,
      "PosY": -1.147354,
      "PosZ": -25.97623,
      "Name": "NPC1",
      "RotY": 180.0,
      "NPCID": 12169,
      "ValueSource": {},
      "DialogueGroups": [],
      "ServerInteractVerificationIDList": [],
      "MappingInfoID": 2348,
      "BoardShowList": [
        4
      ],
      "OverrideNPCName": {
        "Hash": 1745980019
      },
      "OverrideNPCTitle": {
        "Hash": -1987642313
      },
      "TalkDialogGroupIDList": [],
      "DefaultIdleFreeStyleMotionID": 100010210,
      "InitialHiddenNodeList": [],
      "Dialog": {
        "LevelGraph": "Config/Level/NPCDialogue/P43103/F43103002_G22/DialogueMain_F43103002_G22_N400001.json",
        "PackList": []
      },
      "SpawnConfig": {
        "EntitySpawnConfig": {},
        "CaptureDistanceTolerance": 10.0
      }
    },
    {
      "ID": 400002,
      "PosX": 0.199,
      "PosY": -1.065425,
      "PosZ": 9.525,
      "Name": "NPC2",
      "RotY": 4.86515,
      "NPCID": 12129,
      "ValueSource": {},
      "DialogueGroups": [],
      "ServerInteractVerificationIDList": [],
      "MappingInfoID": 2348,
      "BoardShowList": [
        4
      ],
      "OverrideNPCName": {
        "Hash": 1745980018
      },
      "TalkDialogGroupIDList": [],
      "DefaultIdleFreeStyleMotionID": 100010292,
      "InitialHiddenNodeList": [],
      "Dialog": {
        "LevelGraph": "Config/Level/NPCDialogue/P43103/F43103002_G22/DialogueMain_F43103002_G22_N400002.json",
        "PackList": []
      },
      "SpawnConfig": {
        "EntitySpawnConfig": {},
        "CaptureDistanceTolerance": 10.0
      }
    },
    {
      "ID": 400003,
      "PosX": -19.517,
      "PosY": 9.100821,
      "PosZ": 94.533,
      "Name": "NPC3",
      "RotY": 270.0,
      "NPCID": 12148,
      "ValueSource": {},
      "DialogueGroups": [],
      "ServerInteractVerificationIDList": [],
      "MappingInfoID": 2348,
      "BoardShowList": [
        4
      ],
      "OverrideNPCName": {
        "Hash": 1745980005
      },
      "TalkDialogGroupIDList": [],
      "DefaultIdleFreeStyleMotionID": 100010000,
      "InitialHiddenNodeList": [],
      "Dialog": {
        "LevelGraph": "Config/Level/NPCDialogue/P43103/F43103002_G22/DialogueMain_F43103002_G22_N400003.json",
        "PackList": []
      },
      "SpawnConfig": {
        "EntitySpawnConfig": {},
        "CaptureDistanceTolerance": 10.0
      }
    },
    {
      "ID": 400004,
      "PosX": 46.64264,
      "PosY": -2.915624,
      "PosZ": 37.80548,
      "Name": "NPC4",
      "NPCID": 12212,
      "ValueSource": {},
      "DialogueGroups": [],
      "ServerInteractVerificationIDList": [],
      "MappingInfoID": 2348,
      "BoardShowList": [
        4
      ],
      "OverrideNPCTitle": {
        "Hash": -1987642313
      },
      "TalkDialogGroupIDList": [],
      "DefaultIdleFreeStyleMotionID": 100010294,
      "InitialHiddenNodeList": [],
      "Dialog": {
        "LevelGraph": "Config/Level/NPCDialogue/P43103/F43103002_G22/DialogueMain_F43103002_G22_N400004.json",
        "PackList": []
      },
      "SpawnConfig": {
        "EntitySpawnConfig": {},
        "CaptureDistanceTolerance": 10.0
      }
    },
    {
      "ID": 400005,
      "PosX": -1.71,
      "PosY": 2.17059,
      "PosZ": 45.63,
      "Name": "NPC5",
      "RotY": 312.1908,
      "NPCID": 12312,
      "ValueSource": {
        "Values": []
      },
      "DialogueGroups": [],
      "ServerInteractVerificationIDList": [],
      "MappingInfoID": 2348,
      "BoardShowList": [
        4
      ],
      "OverrideNPCName": {
        "Hash": 1745980014
      },
      "TalkDialogGroupIDList": [],
      "DefaultIdleFreeStyleMotionID": 100040000,
      "InitialHiddenNodeList": [],
      "Dialog": {
        "LevelGraph": "Config/Level/NPCDialogue/P43103/F43103002_G22/DialogueMain_F43103002_G22_N400005.json",
        "PackList": []
      },
      "SpawnConfig": {
        "EntitySpawnConfig": {},
        "CaptureDistanceTolerance": 10.0
      }
    },
    {
      "ID": 400006,
      "PosX": -15.45406,
      "PosY": -1.147349,
      "PosZ": -24.37488,
      "Name": "NPC6",
      "RotY": 180.0,
      "NPCID": 2205,
      "LevelGraph": "Config/Level/AetherDivide/Maze_AetherDivide_NPCMonster_Eff.json",
      "ValueSource": {
        "Values": []
      },
      "DialogueGroups": [],
      "ServerInteractVerificationIDList": [],
      "MappingInfoID": 2348,
      "BoardShowList": [],
      "TalkDialogGroupIDList": [],
      "DefaultIdleFreeStyleMotionID": 200250000,
      "InitialHiddenNodeList": [],
      "SpawnConfig": {
        "EntitySpawnConfig": {},
        "CaptureDistanceTolerance": 10.0
      }
    },
    {
      "ID": 400007,
      "PosX": -2.12,
      "PosY": -1.084904,
      "PosZ": 11.88,
      "Name": "NPC7",
      "RotY": 100.4024,
      "NPCID": 2203,
      "LevelGraph": "Config/Level/AetherDivide/Maze_AetherDivide_NPCMonster_Eff.json",
      "ValueSource": {
        "Values": []
      },
      "DialogueGroups": [],
      "ServerInteractVerificationIDList": [],
      "MappingInfoID": 2348,
      "BoardShowList": [],
      "TalkDialogGroupIDList": [],
      "DefaultIdleFreeStyleMotionID": 200260236,
      "InitialHiddenNodeList": [],
      "SpawnConfig": {
        "EntitySpawnConfig": {},
        "CaptureDistanceTolerance": 10.0
      }
    },
    {
      "ID": 400008,
      "PosX": -19.04277,
      "PosY": 9.100867,
      "PosZ": 95.10621,
      "Name": "NPC8",
      "RotY": 268.4279,
      "NPCID": 2219,
      "LevelGraph": "Config/Level/AetherDivide/Maze_AetherDivide_NPCMonster_Eff.json",
      "ValueSource": {
        "Values": []
      },
      "DialogueGroups": [],
      "ServerInteractVerificationIDList": [],
      "MappingInfoID": 2348,
      "BoardShowList": [],
      "TalkDialogGroupIDList": [],
      "DefaultIdleFreeStyleMotionID": 200540000,
      "InitialHiddenNodeList": [],
      "SpawnConfig": {
        "EntitySpawnConfig": {},
        "CaptureDistanceTolerance": 10.0
      }
    },
    {
      "ID": 400009,
      "PosX": 48.603,
      "PosY": -2.915633,
      "PosZ": 37.88456,
      "Name": "NPC9",
      "RotY": 0.138456,
      "NPCID": 2218,
      "LevelGraph": "Config/Level/AetherDivide/Maze_AetherDivide_NPCMonster_Eff.json",
      "ValueSource": {
        "Values": []
      },
      "DialogueGroups": [],
      "ServerInteractVerificationIDList": [],
      "MappingInfoID": 2348,
      "BoardShowList": [],
      "TalkDialogGroupIDList": [],
      "DefaultIdleFreeStyleMotionID": 200240000,
      "InitialHiddenNodeList": [],
      "SpawnConfig": {
        "EntitySpawnConfig": {},
        "CaptureDistanceTolerance": 10.0
      }
    },
    {
      "ID": 400010,
      "PosX": -1.44,
      "PosY": 2.170607,
      "PosZ": 46.57,
      "Name": "NPC10",
      "RotY": 276.8001,
      "NPCID": 2205,
      "LevelGraph": "Config/Level/AetherDivide/Maze_AetherDivide_NPCMonster_Eff.json",
      "ValueSource": {
        "Values": []
      },
      "DialogueGroups": [],
      "ServerInteractVerificationIDList": [],
      "MappingInfoID": 2348,
      "BoardShowList": [],
      "TalkDialogGroupIDList": [],
      "DefaultIdleFreeStyleMotionID": 200250000,
      "InitialHiddenNodeList": [],
      "SpawnConfig": {
        "EntitySpawnConfig": {},
        "CaptureDistanceTolerance": 10.0
      }
    }
  ]
}