{
  "FloorID": 30121001,
  "FloorName": "MazeText_Empty",
  "StartGroupID": 1,
  "StartAnchorID": 1,
  "GroupList": [
    {
      "ID": 1,
      "Name": "DefaultGroup",
      "GroupGUID": "d961f368-23f3-444a-a633-6f53f52c60b7",
      "GroupPath": "Config/LevelOutput/Group/Groups_P30121_F30121001/LevelGroup_P30121_F30121001_G1.json"
    },
    {
      "ID": 3,
      "Name": "DefaultGroup",
      "GroupGUID": "d4b68524-ce46-4398-83cb-26b2f0566cf8",
      "GroupPath": "Config/LevelOutput/Group/Groups_P30121_F30121001/LevelGroup_P30121_F30121001_G3.json"
    },
    {
      "ID": 4,
      "Name": "BGM",
      "GroupGUID": "30b0108b-f8d6-443b-aaf6-e076b5b78473",
      "GroupPath": "Config/LevelOutput/Group/Groups_P30121_F30121001/LevelGroup_P30121_F30121001_G4.json"
    },
    {
      "ID": 5,
      "Name": "Sound",
      "GroupGUID": "61e22f2b-ce2f-4f12-a418-0a9793cf92a1",
      "GroupPath": "Config/LevelOutput/Group/Groups_P30121_F30121001/LevelGroup_P30121_F30121001_G5.json"
    },
    {
      "ID": 6,
      "Name": "Contents",
      "GroupGUID": "c14e2544-5ecc-48de-82b4-a0cab7170ee6",
      "GroupPath": "Config/LevelOutput/Group/Groups_P30121_F30121001/LevelGroup_P30121_F30121001_G6.json"
    },
    {
      "ID": 7,
      "Name": "Contents",
      "GroupGUID": "a28dbaf9-1edd-44cc-8a9d-9310a35bfcc1",
      "GroupPath": "Config/LevelOutput/Group/Groups_P30121_F30121001/LevelGroup_P30121_F30121001_G7.json"
    },
    {
      "ID": 8,
      "Name": "MainDoors",
      "GroupGUID": "e4f751a4-bdde-42d9-9540-46014ce17e50",
      "GroupPath": "Config/LevelOutput/Group/Groups_P30121_F30121001/LevelGroup_P30121_F30121001_G8.json"
    }
  ]
}