{
  "FloorID": 43312003,
  "FloorName": "FloorName_43312003",
  "StartGroupID": 1,
  "StartAnchorID": 1,
  "GroupList": [
    {
      "ID": 1,
      "Name": "DefaultGroup",
      "GroupGUID": "ef651aaf-855b-42b7-b9f3-4543b2da27bd",
      "GroupPath": "Config/LevelOutput/Group/Groups_P43312_F43312003/LevelGroup_P43312_F43312003_G1.json"
    },
    {
      "ID": 2,
      "Name": "Portal",
      "GroupGUID": "df8a942f-ea4c-4084-ba43-5d2a4b76d946",
      "GroupPath": "Config/LevelOutput/Group/Groups_P43312_F43312003/LevelGroup_P43312_F43312003_G2.json"
    },
    {
      "ID": 3,
      "Name": "Blockade",
      "GroupGUID": "f62febc7-f9f9-4de8-b97e-0dbdb3ed553d",
      "GroupPath": "Config/LevelOutput/Group/Groups_P43312_F43312003/LevelGroup_P43312_F43312003_G3.json"
    },
    {
      "ID": 13,
      "Name": "Region0_Pose0_Bridges",
      "GroupGUID": "61c93077-c981-4d22-b4bc-37154593acc9",
      "GroupPath": "Config/LevelOutput/Group/Groups_P43312_F43312003/LevelGroup_P43312_F43312003_G13.json"
    },
    {
      "ID": 14,
      "Name": "Region0_Pose0_Charger",
      "GroupGUID": "2493e4e0-3701-4376-8016-8e3c0bb2e063",
      "GroupPath": "Config/LevelOutput/Group/Groups_P43312_F43312003/LevelGroup_P43312_F43312003_G14.json"
    },
    {
      "ID": 15,
      "Name": "Region0_Gravity_Boards",
      "GroupGUID": "1b5cd66a-5b7a-4b6b-8480-24c74a8ff983",
      "GroupPath": "Config/LevelOutput/Group/Groups_P43312_F43312003/LevelGroup_P43312_F43312003_G15.json"
    },
    {
      "ID": 16,
      "Name": "Region0_Pose1_Charger",
      "GroupGUID": "6cb38c2b-8de0-4a4c-bd0b-2eb666959fd7",
      "GroupPath": "Config/LevelOutput/Group/Groups_P43312_F43312003/LevelGroup_P43312_F43312003_G16.json"
    },
    {
      "ID": 17,
      "Name": "Region0_Pose5_Charger",
      "GroupGUID": "46b9c00d-72e2-45a5-b72d-41e8ccbfc083",
      "GroupPath": "Config/LevelOutput/Group/Groups_P43312_F43312003/LevelGroup_P43312_F43312003_G17.json"
    },
    {
      "ID": 18,
      "Name": "Jigsaw_Piece_Temp",
      "GroupGUID": "90617c11-7daa-47bc-ba3d-5bed0dfb8efb",
      "GroupPath": "Config/LevelOutput/Group/Groups_P43312_F43312003/LevelGroup_P43312_F43312003_G18.json"
    },
    {
      "ID": 19,
      "Name": "MainMission2030302_JigsawPuzzle_P101_Mission_01_LSGM",
      "GroupGUID": "5056b499-45ee-4038-8f78-7d856eba14ec",
      "GroupPath": "Config/LevelOutput/Group/Groups_P43312_F43312003/LevelGroup_P43312_F43312003_G19.json"
    },
    {
      "ID": 20,
      "Name": "MainMission2030302_JigsawPuzzle_Piece2",
      "GroupGUID": "e2ab1547-341b-4c2c-bc2f-12b83aa9261b",
      "GroupPath": "Config/LevelOutput/Group/Groups_P43312_F43312003/LevelGroup_P43312_F43312003_G20.json"
    },
    {
      "ID": 21,
      "Name": "MainMission2030302_JigsawPuzzle_Piece3",
      "GroupGUID": "85e6db13-53eb-4dc5-8c16-913dc2d9b029",
      "GroupPath": "Config/LevelOutput/Group/Groups_P43312_F43312003/LevelGroup_P43312_F43312003_G21.json"
    },
    {
      "ID": 28,
      "Name": "MainMission2030302_New Group",
      "GroupGUID": "263fffb5-fe9d-4861-9079-09e00069b538",
      "GroupPath": "Config/LevelOutput/Group/Groups_P43312_F43312003/LevelGroup_P43312_F43312003_G28.json"
    },
    {
      "ID": 29,
      "Name": "MainMission2030302_New Group",
      "GroupGUID": "3bd6d4cf-7c2b-4e11-bfb0-357daa302959",
      "GroupPath": "Config/LevelOutput/Group/Groups_P43312_F43312003/LevelGroup_P43312_F43312003_G29.json"
    },
    {
      "ID": 30,
      "Name": "MainMission2030302_New Group",
      "GroupGUID": "c03522c5-76d8-4bc8-8ffc-e505da43049e",
      "GroupPath": "Config/LevelOutput/Group/Groups_P43312_F43312003/LevelGroup_P43312_F43312003_G30.json"
    },
    {
      "ID": 31,
      "Name": "MainMission2030302_New Group",
      "GroupGUID": "ae277bd5-ea3b-4be1-91dc-8464effbb4e9",
      "GroupPath": "Config/LevelOutput/Group/Groups_P43312_F43312003/LevelGroup_P43312_F43312003_G31.json"
    },
    {
      "ID": 32,
      "Name": "MainMission2030302_New Group",
      "GroupGUID": "63ed5650-4aa8-4e2c-8263-d60643403404",
      "GroupPath": "Config/LevelOutput/Group/Groups_P43312_F43312003/LevelGroup_P43312_F43312003_G32.json"
    },
    {
      "ID": 33,
      "Name": "MainMission2030302_New Group",
      "GroupGUID": "7f288a76-ef24-40c0-b1e3-268590c0f786",
      "GroupPath": "Config/LevelOutput/Group/Groups_P43312_F43312003/LevelGroup_P43312_F43312003_G33.json"
    },
    {
      "ID": 34,
      "Name": "MainMission2030302_New Group",
      "GroupGUID": "b6aac397-c992-47f4-93fd-d771cc8b37e6",
      "GroupPath": "Config/LevelOutput/Group/Groups_P43312_F43312003/LevelGroup_P43312_F43312003_G34.json"
    },
    {
      "ID": 23,
      "Name": "Monster",
      "GroupGUID": "2558aae6-c991-425d-bf07-51276323fe3a",
      "GroupPath": "Config/LevelOutput/Group/Groups_P43312_F43312003/LevelGroup_P43312_F43312003_G23.json"
    },
    {
      "ID": 27,
      "Name": "Monster",
      "GroupGUID": "fd63447a-3d2c-4bed-9138-6320ae72d415",
      "GroupPath": "Config/LevelOutput/Group/Groups_P43312_F43312003/LevelGroup_P43312_F43312003_G27.json"
    },
    {
      "ID": 35,
      "Name": "3DMapInfo",
      "GroupGUID": "f0a603cb-620e-4482-9cd1-bb2c36ff905b",
      "GroupPath": "Config/LevelOutput/Group/Groups_P43312_F43312003/LevelGroup_P43312_F43312003_G35.json"
    },
    {
      "ID": 37,
      "Name": "Sound-Reverb",
      "GroupGUID": "2df6bda0-a72c-4038-b001-5132088e97bb",
      "GroupPath": "Config/LevelOutput/Group/Groups_P43312_F43312003/LevelGroup_P43312_F43312003_G37.json"
    },
    {
      "ID": 38,
      "Name": "Sound",
      "GroupGUID": "ca3e9c52-eb31-467f-bda5-fc16debe53e7",
      "GroupPath": "Config/LevelOutput/Group/Groups_P43312_F43312003/LevelGroup_P43312_F43312003_G38.json"
    },
    {
      "ID": 40,
      "Name": "BattleArea",
      "GroupGUID": "acf9b4d5-eff5-464e-b5cb-3681eca1ed7d",
      "GroupPath": "Config/LevelOutput/Group/Groups_P43312_F43312003/LevelGroup_P43312_F43312003_G40.json"
    },
    {
      "ID": 41,
      "Name": "BGM",
      "GroupGUID": "3dd7f864-28fe-49c9-bf56-badc64d11a12",
      "GroupPath": "Config/LevelOutput/Group/Groups_P43312_F43312003/LevelGroup_P43312_F43312003_G41.json"
    },
    {
      "ID": 42,
      "Name": "Sound",
      "GroupGUID": "559d6727-5ad6-4152-a42e-b38204eb257d",
      "GroupPath": "Config/LevelOutput/Group/Groups_P43312_F43312003/LevelGroup_P43312_F43312003_G42.json"
    },
    {
      "ID": 43,
      "Name": "MainMission2030302_New Group",
      "GroupGUID": "f151ece5-fd86-4901-bfd3-756f1cc482cd",
      "GroupPath": "Config/LevelOutput/Group/Groups_P43312_F43312003/LevelGroup_P43312_F43312003_G43.json"
    },
    {
      "ID": 44,
      "Name": "Sound",
      "GroupGUID": "aee5f4be-b914-4d98-82b7-5e539071d951",
      "GroupPath": "Config/LevelOutput/Group/Groups_P43312_F43312003/LevelGroup_P43312_F43312003_G44.json"
    },
    {
      "ID": 45,
      "Name": "Sound",
      "GroupGUID": "546e81f4-ff7e-45c9-b3c7-50175a2bc640",
      "GroupPath": "Config/LevelOutput/Group/Groups_P43312_F43312003/LevelGroup_P43312_F43312003_G45.json"
    },
    {
      "ID": 46,
      "Name": "Sound",
      "GroupGUID": "989b23c8-3e46-4f01-aa95-b8a059ac894c",
      "GroupPath": "Config/LevelOutput/Group/Groups_P43312_F43312003/LevelGroup_P43312_F43312003_G46.json"
    },
    {
      "ID": 47,
      "Name": "Sound",
      "GroupGUID": "7b063178-2122-434d-a6d3-1177aa4b93d7",
      "GroupPath": "Config/LevelOutput/Group/Groups_P43312_F43312003/LevelGroup_P43312_F43312003_G47.json"
    },
    {
      "ID": 48,
      "Name": "Sound",
      "GroupGUID": "b7a3b6c0-052e-4877-8ed0-a43a1966fcd1",
      "GroupPath": "Config/LevelOutput/Group/Groups_P43312_F43312003/LevelGroup_P43312_F43312003_G48.json"
    }
  ]
}