{
  "FloorID": 43303003,
  "FloorName": "FloorName_43303003",
  "StartGroupID": 1,
  "StartAnchorID": 1,
  "GroupList": [
    {
      "ID": 1,
      "Name": "DefaultGroup",
      "GroupGUID": "98ded731-71eb-421e-9455-4305994a271e",
      "GroupPath": "Config/LevelOutput/Group/Groups_P43303_F43303003/LevelGroup_P43303_F43303003_G1.json"
    },
    {
      "ID": 2,
      "Name": "MainMission1030304_07",
      "GroupGUID": "ebf2001f-ac85-489a-8f56-f1526b53c591",
      "GroupPath": "Config/LevelOutput/Group/Groups_P43303_F43303003/LevelGroup_P43303_F43303003_G2.json"
    },
    {
      "ID": 3,
      "Name": "npc",
      "GroupGUID": "2b3f3ffe-3d12-4c6c-9eb4-b63ae833bed1",
      "GroupPath": "Config/LevelOutput/Group/Groups_P43303_F43303003/LevelGroup_P43303_F43303003_G3.json"
    },
    {
      "ID": 4,
      "Name": "Sound",
      "GroupGUID": "5f13523e-1d7e-402b-859a-12e2f4de4b4e",
      "GroupPath": "Config/LevelOutput/Group/Groups_P43303_F43303003/LevelGroup_P43303_F43303003_G4.json"
    }
  ]
}