{
  "FloorID": 44301012,
  "FloorName": "FloorName_44301012",
  "StartGroupID": 1,
  "StartAnchorID": 1,
  "GroupList": [
    {
      "ID": 1,
      "Name": "DefaultGroup",
      "GroupGUID": "defa1b53-55be-44c8-b581-a6ae21c10f09",
      "GroupPath": "Config/LevelOutput/Group/Groups_P44301_F44301012/LevelGroup_P44301_F44301012_G1.json"
    },
    {
      "ID": 2,
      "Name": "DefaultGroup",
      "GroupGUID": "c947e41e-8052-4568-b381-1248fbe7dd95",
      "GroupPath": "Config/LevelOutput/Group/Groups_P44301_F44301012/LevelGroup_P44301_F44301012_G2.json"
    },
    {
      "ID": 3,
      "Name": "ClockToy",
      "GroupGUID": "76d9a7df-b138-4755-b572-fae852323ba5",
      "GroupPath": "Config/LevelOutput/Group/Groups_P44301_F44301012/LevelGroup_P44301_F44301012_G3.json"
    },
    {
      "ID": 4,
      "Name": "AirWalls",
      "GroupGUID": "ee41efcc-81ac-47f7-92fe-b1a88152876b",
      "GroupPath": "Config/LevelOutput/Group/Groups_P44301_F44301012/LevelGroup_P44301_F44301012_G4.json"
    },
    {
      "ID": 5,
      "Name": "BGM",
      "GroupGUID": "fd33dab1-cd79-4580-aaac-1ee2fe44c263",
      "GroupPath": "Config/LevelOutput/Group/Groups_P44301_F44301012/LevelGroup_P44301_F44301012_G5.json"
    },
    {
      "ID": 6,
      "Name": "Sound",
      "GroupGUID": "ace5360e-9ec2-4553-a371-2b32bad49491",
      "GroupPath": "Config/LevelOutput/Group/Groups_P44301_F44301012/LevelGroup_P44301_F44301012_G6.json"
    },
    {
      "ID": 7,
      "Name": "Sound-Reverb",
      "GroupGUID": "3c340bff-bf37-4c79-b325-00f0e3b43e2a",
      "GroupPath": "Config/LevelOutput/Group/Groups_P44301_F44301012/LevelGroup_P44301_F44301012_G7.json"
    },
    {
      "ID": 9,
      "Name": "Sound",
      "GroupGUID": "9b3b3483-3708-444f-aa6d-7c0db59ad666",
      "GroupPath": "Config/LevelOutput/Group/Groups_P44301_F44301012/LevelGroup_P44301_F44301012_G9.json"
    }
  ]
}