{
  "FloorID": 44301003,
  "FloorName": "FloorName_44301003",
  "StartGroupID": 1,
  "StartAnchorID": 1,
  "GroupList": [
    {
      "ID": 1,
      "Name": "DefaultGroup",
      "GroupGUID": "08897603-37f9-46e3-af65-b821316b4c0f",
      "GroupPath": "Config/LevelOutput/Group/Groups_P44301_F44301003/LevelGroup_P44301_F44301003_G1.json"
    },
    {
      "ID": 2,
      "Name": "Blockade",
      "GroupGUID": "9078fa7f-60fa-4022-aec4-3382c2fbe3ea",
      "GroupPath": "Config/LevelOutput/Group/Groups_P44301_F44301003/LevelGroup_P44301_F44301003_G2.json"
    },
    {
      "ID": 3,
      "Name": "Portal",
      "GroupGUID": "c5f787f7-3372-4d44-8b2e-ef89e133315b",
      "GroupPath": "Config/LevelOutput/Group/Groups_P44301_F44301003/LevelGroup_P44301_F44301003_G3.json"
    },
    {
      "ID": 9,
      "Name": "Region0_P0_Bridges",
      "GroupGUID": "8228fbee-9166-400b-bee2-86319d301978",
      "GroupPath": "Config/LevelOutput/Group/Groups_P44301_F44301003/LevelGroup_P44301_F44301003_G9.json"
    },
    {
      "ID": 11,
      "Name": "Region0_P0_Gravity_Boards",
      "GroupGUID": "7c4bbda8-7a61-4379-92c1-8457c7074455",
      "GroupPath": "Config/LevelOutput/Group/Groups_P44301_F44301003/LevelGroup_P44301_F44301003_G11.json"
    },
    {
      "ID": 12,
      "Name": "R0_Pose2_Chest",
      "GroupGUID": "45ef39c6-5b45-414f-99fe-d2b3aa1f422a",
      "GroupPath": "Config/LevelOutput/Group/Groups_P44301_F44301003/LevelGroup_P44301_F44301003_G12.json"
    },
    {
      "ID": 13,
      "Name": "Default_Monster_R0_Pose2",
      "GroupGUID": "ee8277f2-0987-4bea-852f-04fdf33df182",
      "GroupPath": "Config/LevelOutput/Group/Groups_P44301_F44301003/LevelGroup_P44301_F44301003_G13.json"
    },
    {
      "ID": 14,
      "Name": "R0_Pose2_Charger",
      "GroupGUID": "c1b8f7be-a382-4375-905d-b7bb26dc2ed8",
      "GroupPath": "Config/LevelOutput/Group/Groups_P44301_F44301003/LevelGroup_P44301_F44301003_G14.json"
    },
    {
      "ID": 16,
      "Name": "R0_Pose5_Charger",
      "GroupGUID": "5dadff01-81ac-4006-9985-9d6898d8b5f8",
      "GroupPath": "Config/LevelOutput/Group/Groups_P44301_F44301003/LevelGroup_P44301_F44301003_G16.json"
    },
    {
      "ID": 17,
      "Name": "Default_Monster_R0_Pose3",
      "GroupGUID": "ab7b22ce-b6e4-4e49-9e48-8a38976ad549",
      "GroupPath": "Config/LevelOutput/Group/Groups_P44301_F44301003/LevelGroup_P44301_F44301003_G17.json"
    },
    {
      "ID": 18,
      "Name": "Default_Destructible_Pose0",
      "GroupGUID": "10ef2945-7138-40c9-b25d-15e0e1fbe990",
      "GroupPath": "Config/LevelOutput/Group/Groups_P44301_F44301003/LevelGroup_P44301_F44301003_G18.json"
    },
    {
      "ID": 19,
      "Name": "Default_Destructible_Pose0",
      "GroupGUID": "3a8effd2-42cc-4956-85b8-ceb86d0a2d8f",
      "GroupPath": "Config/LevelOutput/Group/Groups_P44301_F44301003/LevelGroup_P44301_F44301003_G19.json"
    },
    {
      "ID": 20,
      "Name": "MainMission8020203_01",
      "GroupGUID": "d563cac0-3956-4c16-affc-0e326be7cce4",
      "GroupPath": "Config/LevelOutput/Group/Groups_P44301_F44301003/LevelGroup_P44301_F44301003_G20.json"
    },
    {
      "ID": 21,
      "Name": "BGM",
      "GroupGUID": "8924b37c-2e96-469f-8ce2-182f8e55fdf1",
      "GroupPath": "Config/LevelOutput/Group/Groups_P44301_F44301003/LevelGroup_P44301_F44301003_G21.json"
    },
    {
      "ID": 22,
      "Name": "Sound",
      "GroupGUID": "cab7cc22-f42d-41f3-8f3b-1037834aecb2",
      "GroupPath": "Config/LevelOutput/Group/Groups_P44301_F44301003/LevelGroup_P44301_F44301003_G22.json"
    },
    {
      "ID": 23,
      "Name": "3DMapInfo",
      "GroupGUID": "b7a1ac5a-b57e-449e-a1d6-64f2f1313153",
      "GroupPath": "Config/LevelOutput/Group/Groups_P44301_F44301003/LevelGroup_P44301_F44301003_G23.json"
    },
    {
      "ID": 26,
      "Name": "Saves",
      "GroupGUID": "02fc232b-4d1d-4833-924d-d38c3640d178",
      "GroupPath": "Config/LevelOutput/Group/Groups_P44301_F44301003/LevelGroup_P44301_F44301003_G26.json"
    },
    {
      "ID": 27,
      "IsDelete": true,
      "Name": "Sound",
      "GroupGUID": "06cb0c95-1c7a-43f4-8c75-539026efa150",
      "GroupPath": "Config/LevelOutput/Group/Groups_P44301_F44301003/LevelGroup_P44301_F44301003_G27.json"
    },
    {
      "ID": 29,
      "Name": "Sound-Reverb",
      "GroupGUID": "e2171f64-ba8a-4d6f-97ee-2e52634d5e7f",
      "GroupPath": "Config/LevelOutput/Group/Groups_P44301_F44301003/LevelGroup_P44301_F44301003_G29.json"
    },
    {
      "ID": 30,
      "Name": "Sound",
      "GroupGUID": "e7622777-c6b1-44c1-85a0-defa7aa52ab0",
      "GroupPath": "Config/LevelOutput/Group/Groups_P44301_F44301003/LevelGroup_P44301_F44301003_G30.json"
    },
    {
      "ID": 31,
      "Name": "Sound",
      "GroupGUID": "e9acc705-21c4-47e3-a4f2-3519aeeb449d",
      "GroupPath": "Config/LevelOutput/Group/Groups_P44301_F44301003/LevelGroup_P44301_F44301003_G31.json"
    },
    {
      "ID": 32,
      "Name": "Sound",
      "GroupGUID": "999f676c-97ff-4d56-bae4-c07be822b88b",
      "GroupPath": "Config/LevelOutput/Group/Groups_P44301_F44301003/LevelGroup_P44301_F44301003_G32.json"
    },
    {
      "ID": 33,
      "Name": "Sound",
      "GroupGUID": "d33c084c-f26e-4042-b245-6af87c315a9a",
      "GroupPath": "Config/LevelOutput/Group/Groups_P44301_F44301003/LevelGroup_P44301_F44301003_G33.json"
    },
    {
      "ID": 34,
      "Name": "Sound",
      "GroupGUID": "e803c55e-b7c0-4535-864e-e65ce4a89351",
      "GroupPath": "Config/LevelOutput/Group/Groups_P44301_F44301003/LevelGroup_P44301_F44301003_G34.json"
    }
  ]
}