{
  "FloorID": 44301020,
  "FloorName": "FloorName_44301020",
  "StartGroupID": 2,
  "StartAnchorID": 1,
  "GroupList": [
    {
      "ID": 2,
      "Name": "DefaultGroup",
      "GroupGUID": "896eacbd-fe5b-425f-8c2a-30e25affb2fb",
      "GroupPath": "Config/LevelOutput/Group/Groups_P44301_F44301020/LevelGroup_P44301_F44301020_G2.json"
    },
    {
      "ID": 3,
      "Name": "WolfGroup",
      "GroupGUID": "d1e98dc3-69a3-4047-9468-fcacf55d20a3",
      "GroupPath": "Config/LevelOutput/Group/Groups_P44301_F44301020/LevelGroup_P44301_F44301020_G3.json"
    },
    {
      "ID": 4,
      "Name": "WolfGroup",
      "GroupGUID": "faffde19-6282-40aa-a54d-4d87d0a68694",
      "GroupPath": "Config/LevelOutput/Group/Groups_P44301_F44301020/LevelGroup_P44301_F44301020_G4.json"
    },
    {
      "ID": 5,
      "Name": "OrigamiBird_Normal",
      "GroupGUID": "9367966b-5e19-446f-8b33-17a7b1928dc6",
      "GroupPath": "Config/LevelOutput/Group/Groups_P44301_F44301020/LevelGroup_P44301_F44301020_G5.json"
    },
    {
      "ID": 6,
      "Name": "WolfMonster",
      "GroupGUID": "2619afcd-532a-4bde-aa78-cc5935623d33",
      "GroupPath": "Config/LevelOutput/Group/Groups_P44301_F44301020/LevelGroup_P44301_F44301020_G6.json"
    },
    {
      "ID": 7,
      "Name": "BGM",
      "GroupGUID": "4aae59ce-abd1-46e9-a300-025b3ce7b8e2",
      "GroupPath": "Config/LevelOutput/Group/Groups_P44301_F44301020/LevelGroup_P44301_F44301020_G7.json"
    },
    {
      "ID": 8,
      "Name": "Sound",
      "GroupGUID": "8dc590ae-3eeb-488b-a2d1-41e5969d4af7",
      "GroupPath": "Config/LevelOutput/Group/Groups_P44301_F44301020/LevelGroup_P44301_F44301020_G8.json"
    },
    {
      "ID": 9,
      "Name": "MainMission8020222_01",
      "GroupGUID": "de324f21-450a-42cb-9386-cab94c708d10",
      "GroupPath": "Config/LevelOutput/Group/Groups_P44301_F44301020/LevelGroup_P44301_F44301020_G9.json"
    },
    {
      "ID": 10,
      "Name": "Sound-Reverb",
      "GroupGUID": "c54d9142-dfbd-47a1-902a-2d8e50bd9dd5",
      "GroupPath": "Config/LevelOutput/Group/Groups_P44301_F44301020/LevelGroup_P44301_F44301020_G10.json"
    },
    {
      "ID": 13,
      "IsDelete": true,
      "Name": "MeteorShower",
      "GroupGUID": "37e884a5-2a49-4abb-8222-38ef74594257",
      "GroupPath": "Config/LevelOutput/Group/Groups_P44301_F44301020/LevelGroup_P44301_F44301020_G13.json"
    }
  ]
}