{
  "FloorID": 81223001,
  "FloorName": "FloorName_81223001",
  "StartGroupID": 1,
  "StartAnchorID": 1,
  "GroupList": [
    {
      "ID": 1,
      "Name": "DefaultGroup",
      "GroupGUID": "0980b58f-0ef6-47b7-9574-d96126320ad6",
      "GroupPath": "Config/LevelOutput/Group/Groups_P81223_F81223001/LevelGroup_P81223_F81223001_G1.json"
    },
    {
      "ID": 2,
      "Name": "DefaultGroup",
      "GroupGUID": "d67b55d0-1314-466d-bd5e-75c89bfa43a5",
      "GroupPath": "Config/LevelOutput/Group/Groups_P81223_F81223001/LevelGroup_P81223_F81223001_G2.json"
    },
    {
      "ID": 3,
      "Name": "Sound_01",
      "GroupGUID": "5ba8d3d1-cb59-4040-bbe2-7f296a75c4dc",
      "GroupPath": "Config/LevelOutput/Group/Groups_P81223_F81223001/LevelGroup_P81223_F81223001_G3.json"
    },
    {
      "ID": 4,
      "Name": "RogueTemplate210_Area",
      "GroupGUID": "1c9d1a87-6915-40f1-9823-e8b1bb3567b7",
      "GroupPath": "Config/LevelOutput/Group/Groups_P81223_F81223001/LevelGroup_P81223_F81223001_G4.json"
    },
    {
      "ID": 5,
      "Name": "RogueTemplate210_BaseBoss",
      "GroupGUID": "1bb0233b-44f1-4577-8afc-04f6fda0d2b7",
      "GroupPath": "Config/LevelOutput/Group/Groups_P81223_F81223001/LevelGroup_P81223_F81223001_G5.json"
    },
    {
      "ID": 6,
      "Name": "RogueTemplate210_BaseBoss_Boss",
      "GroupGUID": "3673a6be-46fd-46f9-bdb5-48d75e7386e9",
      "GroupPath": "Config/LevelOutput/Group/Groups_P81223_F81223001/LevelGroup_P81223_F81223001_G6.json"
    },
    {
      "ID": 7,
      "Name": "RogueTemplate210_BaseElite",
      "GroupGUID": "dc1f4d17-e28f-4f4c-83e1-9267d0e484ee",
      "GroupPath": "Config/LevelOutput/Group/Groups_P81223_F81223001/LevelGroup_P81223_F81223001_G7.json"
    },
    {
      "ID": 8,
      "Name": "RogueTemplate210_BaseElite_Elite",
      "GroupGUID": "371181e4-4afb-47a0-8113-7b4ea54940bc",
      "GroupPath": "Config/LevelOutput/Group/Groups_P81223_F81223001/LevelGroup_P81223_F81223001_G8.json"
    },
    {
      "ID": 9,
      "Name": "RogueTemplate210_Area",
      "GroupGUID": "ef42f0ad-724e-4161-b205-6744584c0500",
      "GroupPath": "Config/LevelOutput/Group/Groups_P81223_F81223001/LevelGroup_P81223_F81223001_G9.json"
    },
    {
      "ID": 10,
      "IsDelete": true,
      "Name": "RogueTemplate210_BaseDoubleMonster",
      "GroupGUID": "812a21ac-660a-4c96-acee-d68dcfaec184",
      "GroupPath": "Config/LevelOutput/Group/Groups_P81223_F81223001/LevelGroup_P81223_F81223001_G10.json"
    },
    {
      "ID": 11,
      "IsDelete": true,
      "Name": "RogueTemplate210_BaseDoubleMonster_MainMonster",
      "GroupGUID": "4e83c615-bcf0-41c4-a0a1-0124fc8c8bd0",
      "GroupPath": "Config/LevelOutput/Group/Groups_P81223_F81223001/LevelGroup_P81223_F81223001_G11.json"
    },
    {
      "ID": 12,
      "IsDelete": true,
      "Name": "RogueTemplate210_BaseDoubleMonster_SubMonster",
      "GroupGUID": "7706eae6-0260-4cc5-b6a2-707f65814234",
      "GroupPath": "Config/LevelOutput/Group/Groups_P81223_F81223001/LevelGroup_P81223_F81223001_G12.json"
    },
    {
      "ID": 13,
      "Name": "RogueTemplate210_BaseEvent",
      "GroupGUID": "4b251295-580e-4053-ab83-fbd4971238d0",
      "GroupPath": "Config/LevelOutput/Group/Groups_P81223_F81223001/LevelGroup_P81223_F81223001_G13.json"
    },
    {
      "ID": 14,
      "Name": "RogueTemplate210_BaseEvent_Event",
      "GroupGUID": "c2854805-0fcb-41af-9d5c-846b16626a41",
      "GroupPath": "Config/LevelOutput/Group/Groups_P81223_F81223001/LevelGroup_P81223_F81223001_G14.json"
    },
    {
      "ID": 15,
      "IsDelete": true,
      "Name": "RogueTemplate210_BaseSingleMonster",
      "GroupGUID": "19739c63-fa1e-49b9-beae-158018cf7c3b",
      "GroupPath": "Config/LevelOutput/Group/Groups_P81223_F81223001/LevelGroup_P81223_F81223001_G15.json"
    },
    {
      "ID": 16,
      "IsDelete": true,
      "Name": "RogueTemplate210_BaseSingleMonster_MainMonster",
      "GroupGUID": "823d5021-e508-4b23-ae1a-4d2cde378d6f",
      "GroupPath": "Config/LevelOutput/Group/Groups_P81223_F81223001/LevelGroup_P81223_F81223001_G16.json"
    },
    {
      "ID": 17,
      "Name": "RogueTemplate210_BaseTripleMonster",
      "GroupGUID": "ab00b6d0-00bb-4060-b0bb-499cdbba7416",
      "GroupPath": "Config/LevelOutput/Group/Groups_P81223_F81223001/LevelGroup_P81223_F81223001_G17.json"
    },
    {
      "ID": 18,
      "Name": "RogueTemplate210_BaseTripleMonster_Event",
      "GroupGUID": "4fa8685d-a1c4-4cc9-8efa-c626aed89ffb",
      "GroupPath": "Config/LevelOutput/Group/Groups_P81223_F81223001/LevelGroup_P81223_F81223001_G18.json"
    },
    {
      "ID": 19,
      "Name": "RogueTemplate210_BaseTripleMonster_MainMonster",
      "GroupGUID": "915ff67a-8b6f-4485-a72b-81cc3957e894",
      "GroupPath": "Config/LevelOutput/Group/Groups_P81223_F81223001/LevelGroup_P81223_F81223001_G19.json"
    },
    {
      "ID": 20,
      "Name": "RogueTemplate210_BaseTripleMonster_SubMonster_Left",
      "GroupGUID": "31643098-d9d4-40d9-9599-fbc070f55a25",
      "GroupPath": "Config/LevelOutput/Group/Groups_P81223_F81223001/LevelGroup_P81223_F81223001_G20.json"
    },
    {
      "ID": 21,
      "Name": "RogueTemplate210_BaseTripleMonster_SubMonster_Right",
      "GroupGUID": "99eaed3e-5989-4faf-9e10-ff9dad8cf6de",
      "GroupPath": "Config/LevelOutput/Group/Groups_P81223_F81223001/LevelGroup_P81223_F81223001_G21.json"
    },
    {
      "ID": 51,
      "Name": "RogueTemplate210_BaseTripleMonster_MainMonster_ForDoubleMonster",
      "GroupGUID": "857eede0-c282-423c-9c4c-45c5ac670d66",
      "GroupPath": "Config/LevelOutput/Group/Groups_P81223_F81223001/LevelGroup_P81223_F81223001_G51.json"
    },
    {
      "ID": 22,
      "Name": "RogueTemplate210_Area",
      "GroupGUID": "1c80a50b-c1e7-43a8-aade-87c56b5feb74",
      "GroupPath": "Config/LevelOutput/Group/Groups_P81223_F81223001/LevelGroup_P81223_F81223001_G22.json"
    },
    {
      "ID": 23,
      "Name": "RogueTemplate210_BaseEvent",
      "GroupGUID": "0306d6c7-d736-4ef9-9e7e-71283056ec58",
      "GroupPath": "Config/LevelOutput/Group/Groups_P81223_F81223001/LevelGroup_P81223_F81223001_G23.json"
    },
    {
      "ID": 24,
      "Name": "RogueTemplate210_BaseEvent_Event",
      "GroupGUID": "e8e3e4a9-8867-4885-8bdf-3188824c8637",
      "GroupPath": "Config/LevelOutput/Group/Groups_P81223_F81223001/LevelGroup_P81223_F81223001_G24.json"
    },
    {
      "ID": 25,
      "Name": "Tpl_RogueTemplate210_BaseTripleMonster",
      "GroupGUID": "83652760-1940-4349-be4e-60370e848242",
      "GroupPath": "Config/LevelOutput/Group/Groups_P81223_F81223001/LevelGroup_P81223_F81223001_G25.json"
    },
    {
      "ID": 26,
      "Name": "RogueTemplate210_BaseTripleMonster_Event",
      "GroupGUID": "20c7c4e2-7674-4260-9fd5-7785b60b1bbc",
      "GroupPath": "Config/LevelOutput/Group/Groups_P81223_F81223001/LevelGroup_P81223_F81223001_G26.json"
    },
    {
      "ID": 27,
      "Name": "RogueTemplate210_BaseTripleMonster_MainMonster",
      "GroupGUID": "cea5a545-0a13-4e94-8da3-74bd6ded8588",
      "GroupPath": "Config/LevelOutput/Group/Groups_P81223_F81223001/LevelGroup_P81223_F81223001_G27.json"
    },
    {
      "ID": 28,
      "Name": "RogueTemplate210_BaseTripleMonster_SubMonster_Left",
      "GroupGUID": "62c87be6-224f-447d-b909-39e83605abba",
      "GroupPath": "Config/LevelOutput/Group/Groups_P81223_F81223001/LevelGroup_P81223_F81223001_G28.json"
    },
    {
      "ID": 29,
      "Name": "RogueTemplate210_BaseTripleMonster_SubMonster_Right",
      "GroupGUID": "3131be90-8ad1-4e10-9c0e-e5578d8841f9",
      "GroupPath": "Config/LevelOutput/Group/Groups_P81223_F81223001/LevelGroup_P81223_F81223001_G29.json"
    },
    {
      "ID": 50,
      "Name": "RogueTemplate210_BaseTripleMonster_MainMonster_ForDoubleMonster",
      "GroupGUID": "d8d8c156-0741-46d6-9ef0-a8396c18e204",
      "GroupPath": "Config/LevelOutput/Group/Groups_P81223_F81223001/LevelGroup_P81223_F81223001_G50.json"
    },
    {
      "ID": 52,
      "Name": "RogueTemplate210_Area",
      "GroupGUID": "39f8703b-fddb-4798-82de-12ff85a7bdd1",
      "GroupPath": "Config/LevelOutput/Group/Groups_P81223_F81223001/LevelGroup_P81223_F81223001_G52.json"
    },
    {
      "ID": 30,
      "Name": "RogueTemplate210_BaseRest",
      "GroupGUID": "94881e38-b0e4-4360-864d-0a6ea618d83d",
      "GroupPath": "Config/LevelOutput/Group/Groups_P81223_F81223001/LevelGroup_P81223_F81223001_G30.json"
    },
    {
      "ID": 31,
      "Name": "RogueTemplate210_BaseRest_Rest",
      "GroupGUID": "e99eadd9-2e42-4367-a544-2ffabfd134d3",
      "GroupPath": "Config/LevelOutput/Group/Groups_P81223_F81223001/LevelGroup_P81223_F81223001_G31.json"
    },
    {
      "ID": 32,
      "Name": "RogueTemplate210_Area",
      "GroupGUID": "e46ff11b-315b-4609-b966-0a3d37e2672f",
      "GroupPath": "Config/LevelOutput/Group/Groups_P81223_F81223001/LevelGroup_P81223_F81223001_G32.json"
    },
    {
      "ID": 33,
      "Name": "RogueTemplate210_BaseEvent",
      "GroupGUID": "ea7a6ca0-df23-4876-9e81-6c08de257c34",
      "GroupPath": "Config/LevelOutput/Group/Groups_P81223_F81223001/LevelGroup_P81223_F81223001_G33.json"
    },
    {
      "ID": 34,
      "Name": "RogueTemplate210_BaseEvent_Event",
      "GroupGUID": "c09c8413-7ef5-4cf1-b276-2f22a22ba2e7",
      "GroupPath": "Config/LevelOutput/Group/Groups_P81223_F81223001/LevelGroup_P81223_F81223001_G34.json"
    },
    {
      "ID": 35,
      "Name": "RogueTemplate210_BaseTripleMonster",
      "GroupGUID": "ac5e7300-a5ad-465d-a960-0daa7e1c9ad5",
      "GroupPath": "Config/LevelOutput/Group/Groups_P81223_F81223001/LevelGroup_P81223_F81223001_G35.json"
    },
    {
      "ID": 36,
      "Name": "RogueTemplate210_BaseTripleMonster_Event",
      "GroupGUID": "5b94ba21-5ce2-44da-8b36-8a7d312c82b8",
      "GroupPath": "Config/LevelOutput/Group/Groups_P81223_F81223001/LevelGroup_P81223_F81223001_G36.json"
    },
    {
      "ID": 37,
      "Name": "RogueTemplate210_BaseTripleMonster_MainMonster",
      "GroupGUID": "042cebbe-cd36-44dc-881b-3f594b815cf2",
      "GroupPath": "Config/LevelOutput/Group/Groups_P81223_F81223001/LevelGroup_P81223_F81223001_G37.json"
    },
    {
      "ID": 38,
      "Name": "RogueTemplate210_BaseTripleMonster_SubMonster_Left",
      "GroupGUID": "87ece5e3-0dfa-4298-b806-87ec42ba466a",
      "GroupPath": "Config/LevelOutput/Group/Groups_P81223_F81223001/LevelGroup_P81223_F81223001_G38.json"
    },
    {
      "ID": 39,
      "Name": "RogueTemplate210_BaseTripleMonster_SubMonster_Right",
      "GroupGUID": "c140d09d-6872-4e30-a94d-4516d65e5507",
      "GroupPath": "Config/LevelOutput/Group/Groups_P81223_F81223001/LevelGroup_P81223_F81223001_G39.json"
    },
    {
      "ID": 49,
      "Name": "RogueTemplate210_BaseTripleMonster_MainMonster_ForDoubleMonster",
      "GroupGUID": "4d59ebe8-b53a-4217-b233-09ef43d90079",
      "GroupPath": "Config/LevelOutput/Group/Groups_P81223_F81223001/LevelGroup_P81223_F81223001_G49.json"
    },
    {
      "ID": 40,
      "Name": "RogueTemplate210_Area",
      "GroupGUID": "e5a14c77-bdac-418c-b60c-9e0c53e850c7",
      "GroupPath": "Config/LevelOutput/Group/Groups_P81223_F81223001/LevelGroup_P81223_F81223001_G40.json"
    },
    {
      "ID": 41,
      "Name": "RogueTemplate210_BaseEvent",
      "GroupGUID": "1f47a3d7-53bb-4cae-8449-dbb4080567c0",
      "GroupPath": "Config/LevelOutput/Group/Groups_P81223_F81223001/LevelGroup_P81223_F81223001_G41.json"
    },
    {
      "ID": 42,
      "Name": "RogueTemplate210_BaseEvent_Event",
      "GroupGUID": "09acd468-f034-4549-8080-d2e9e4deddd9",
      "GroupPath": "Config/LevelOutput/Group/Groups_P81223_F81223001/LevelGroup_P81223_F81223001_G42.json"
    },
    {
      "ID": 43,
      "Name": "RogueTemplate210_BaseTripleMonster",
      "GroupGUID": "a4fba039-9d2f-4fd2-bcff-5e8d7faf07c5",
      "GroupPath": "Config/LevelOutput/Group/Groups_P81223_F81223001/LevelGroup_P81223_F81223001_G43.json"
    },
    {
      "ID": 44,
      "Name": "RogueTemplate210_BaseTripleMonster_Event",
      "GroupGUID": "1c07e1f0-41cf-4a0a-bb47-bbb3b35522e4",
      "GroupPath": "Config/LevelOutput/Group/Groups_P81223_F81223001/LevelGroup_P81223_F81223001_G44.json"
    },
    {
      "ID": 45,
      "Name": "RogueTemplate210_BaseTripleMonster_MainMonster",
      "GroupGUID": "fa218986-c575-4bb3-8eeb-3447f8f6d01f",
      "GroupPath": "Config/LevelOutput/Group/Groups_P81223_F81223001/LevelGroup_P81223_F81223001_G45.json"
    },
    {
      "ID": 46,
      "Name": "RogueTemplate210_BaseTripleMonster_SubMonster_Left",
      "GroupGUID": "656f6f6f-9fca-4495-8cae-a43cd0b3ec99",
      "GroupPath": "Config/LevelOutput/Group/Groups_P81223_F81223001/LevelGroup_P81223_F81223001_G46.json"
    },
    {
      "ID": 47,
      "Name": "RogueTemplate210_BaseTripleMonster_SubMonster_Right",
      "GroupGUID": "974d9e3c-85e6-474d-b9dd-97268a702451",
      "GroupPath": "Config/LevelOutput/Group/Groups_P81223_F81223001/LevelGroup_P81223_F81223001_G47.json"
    },
    {
      "ID": 48,
      "Name": "RogueTemplate210_BaseTripleMonster_MainMonster_ForDoubleMonster",
      "GroupGUID": "5339bf64-0482-4660-800c-fb703eba5f21",
      "GroupPath": "Config/LevelOutput/Group/Groups_P81223_F81223001/LevelGroup_P81223_F81223001_G48.json"
    },
    {
      "ID": 53,
      "Name": "Polymer_Plinter",
      "GroupGUID": "85e3093a-ef9a-4f48-ab07-228fb6ca4706",
      "GroupPath": "Config/LevelOutput/Group/Groups_P81223_F81223001/LevelGroup_P81223_F81223001_G53.json"
    },
    {
      "ID": 54,
      "Name": "RogueTemplate210_Area",
      "GroupGUID": "337ef35a-c648-45bd-bac7-93c1bb157ac4",
      "GroupPath": "Config/LevelOutput/Group/Groups_P81223_F81223001/LevelGroup_P81223_F81223001_G54.json"
    },
    {
      "ID": 55,
      "Name": "RogueTemplate210_BaseTripleMonster",
      "GroupGUID": "dc2da2aa-976e-436a-9cef-12b319f50572",
      "GroupPath": "Config/LevelOutput/Group/Groups_P81223_F81223001/LevelGroup_P81223_F81223001_G55.json"
    },
    {
      "ID": 56,
      "Name": "RogueTemplate210_BaseTripleMonster_Event",
      "GroupGUID": "cebd266b-67f9-4122-b87b-3a3de299df08",
      "GroupPath": "Config/LevelOutput/Group/Groups_P81223_F81223001/LevelGroup_P81223_F81223001_G56.json"
    },
    {
      "ID": 57,
      "Name": "RogueTemplate210_BaseTripleMonster_MainMonster",
      "GroupGUID": "f0d2b30b-1a87-4577-9946-72d1f4fb867e",
      "GroupPath": "Config/LevelOutput/Group/Groups_P81223_F81223001/LevelGroup_P81223_F81223001_G57.json"
    },
    {
      "ID": 58,
      "Name": "RogueTemplate210_BaseTripleMonster_SubMonster_Left",
      "GroupGUID": "422a1b3d-ffab-411b-908a-75d1d529b3a6",
      "GroupPath": "Config/LevelOutput/Group/Groups_P81223_F81223001/LevelGroup_P81223_F81223001_G58.json"
    },
    {
      "ID": 59,
      "Name": "RogueTemplate210_BaseTripleMonster_SubMonster_Right",
      "GroupGUID": "33f467b4-4ee6-47ee-9a4f-c4cdc051886a",
      "GroupPath": "Config/LevelOutput/Group/Groups_P81223_F81223001/LevelGroup_P81223_F81223001_G59.json"
    },
    {
      "ID": 60,
      "Name": "RogueTemplate210_Area",
      "GroupGUID": "a7142a25-5ff8-4f3e-8e37-4fc0b27add7b",
      "GroupPath": "Config/LevelOutput/Group/Groups_P81223_F81223001/LevelGroup_P81223_F81223001_G60.json"
    },
    {
      "ID": 61,
      "Name": "RogueTemplate210_BaseTripleMonster",
      "GroupGUID": "f15313a1-97cc-4605-a937-5f394b6ba454",
      "GroupPath": "Config/LevelOutput/Group/Groups_P81223_F81223001/LevelGroup_P81223_F81223001_G61.json"
    },
    {
      "ID": 62,
      "Name": "RogueTemplate210_BaseTripleMonster_Event",
      "GroupGUID": "2b405821-a843-46e4-95ba-131767245b60",
      "GroupPath": "Config/LevelOutput/Group/Groups_P81223_F81223001/LevelGroup_P81223_F81223001_G62.json"
    },
    {
      "ID": 63,
      "Name": "RogueTemplate210_BaseTripleMonster_MainMonster",
      "GroupGUID": "01af7731-e089-40ed-8cd6-9dbfc18d9fcd",
      "GroupPath": "Config/LevelOutput/Group/Groups_P81223_F81223001/LevelGroup_P81223_F81223001_G63.json"
    },
    {
      "ID": 64,
      "Name": "RogueTemplate210_BaseTripleMonster_SubMonster_Left",
      "GroupGUID": "590f73e5-015e-48c2-9f5a-848b49924aa6",
      "GroupPath": "Config/LevelOutput/Group/Groups_P81223_F81223001/LevelGroup_P81223_F81223001_G64.json"
    },
    {
      "ID": 65,
      "Name": "RogueTemplate210_BaseTripleMonster_SubMonster_Right",
      "GroupGUID": "1df45527-0499-4ce9-953d-1445ab7e6705",
      "GroupPath": "Config/LevelOutput/Group/Groups_P81223_F81223001/LevelGroup_P81223_F81223001_G65.json"
    },
    {
      "ID": 66,
      "Name": "RogueTemplate210_Area",
      "GroupGUID": "eada140b-15e8-48e7-9a7e-8f739251b78b",
      "GroupPath": "Config/LevelOutput/Group/Groups_P81223_F81223001/LevelGroup_P81223_F81223001_G66.json"
    },
    {
      "ID": 67,
      "Name": "RogueTemplate210_BaseTripleMonster",
      "GroupGUID": "72f88c5d-7f80-4be6-81f4-d555ab9faee6",
      "GroupPath": "Config/LevelOutput/Group/Groups_P81223_F81223001/LevelGroup_P81223_F81223001_G67.json"
    },
    {
      "ID": 68,
      "Name": "RogueTemplate210_BaseTripleMonster_Event",
      "GroupGUID": "701a4c46-b6ac-4c20-87b1-cf7fe2d895bb",
      "GroupPath": "Config/LevelOutput/Group/Groups_P81223_F81223001/LevelGroup_P81223_F81223001_G68.json"
    },
    {
      "ID": 69,
      "Name": "RogueTemplate210_BaseTripleMonster_MainMonster",
      "GroupGUID": "01fab572-743f-4b99-9022-36d2c9ec8212",
      "GroupPath": "Config/LevelOutput/Group/Groups_P81223_F81223001/LevelGroup_P81223_F81223001_G69.json"
    },
    {
      "ID": 70,
      "Name": "RogueTemplate210_BaseTripleMonster_SubMonster_Left",
      "GroupGUID": "b8505be3-5568-4734-a2eb-379f386bd34e",
      "GroupPath": "Config/LevelOutput/Group/Groups_P81223_F81223001/LevelGroup_P81223_F81223001_G70.json"
    },
    {
      "ID": 71,
      "Name": "RogueTemplate210_BaseTripleMonster_SubMonster_Right",
      "GroupGUID": "3997e278-9721-4e2a-a6a9-786fc843b0b2",
      "GroupPath": "Config/LevelOutput/Group/Groups_P81223_F81223001/LevelGroup_P81223_F81223001_G71.json"
    }
  ]
}