{
  "GroupGUID": "e7ac184b-333c-4719-be31-7b9b63decc18",
  "GroupName": "Distractible_4_Pose5",
  "LevelGraph": "Config/Level/GroupGraph/F44305005/Group_F44305005_G42.json",
  "AreaAnchorName": "LevelArea_P44305_F44305005_G42",
  "SaveDimensionFilter": {},
  "SavedValueCondition": {
    "Conditions": [],
    "Operation": "And"
  },
  "LoadSide": "Server",
  "LoadOnInitial": true,
  "ValueSource": {},
  "ConflictIDList": [],
  "IsHoyoGroup": true,
  "ConflictWhiteList": [],
  "TagContainer": {},
  "AnchorList": [],
  "MonsterList": [],
  "PropList": [
    {
      "ID": 300001,
      "PosX": 107.246,
      "PosY": 42.322,
      "PosZ": -287.2296,
      "Name": "Prop1",
      "RotY": 270.0,
      "RotX": 270.0,
      "PropID": 103016,
      "IsOverrideInitLevelGraph": true,
      "InitLevelGraph": "Config/Level/Props/Chap03/InitLevelGraph_Prop_Chap03_Balloon_03.json",
      "ValueSource": {
        "Values": [
          {
            "$type": "SharedString",
            "Key": "RaidTargetID",
            "Value": "443050036"
          }
        ]
      },
      "CampID": 4,
      "EventID": 10000,
      "CustomTriggerMap": {},
      "CustomTriggerMapV2": {},
      "BridgeStateRotations": [],
      "DialogueGroups": [],
      "TalkDialogGroupIDList": [],
      "ServerInteractVerificationIDList": [],
      "TriggerValidGuest": {},
      "TagContainer": {},
      "CameraCenterEntityList": [],
      "SpawnConfig": {
        "EntitySpawnConfig": {}
      }
    },
    {
      "ID": 300002,
      "PosX": 125.2301,
      "PosY": 43.56296,
      "PosZ": -270.389,
      "Name": "Prop2",
      "RotZ": 270.0,
      "PropID": 103017,
      "IsOverrideInitLevelGraph": true,
      "InitLevelGraph": "Config/Level/Props/Chap03/InitLevelGraph_Prop_Chap03_Balloon_03.json",
      "ValueSource": {
        "Values": [
          {
            "$type": "SharedUint",
            "Key": "RotationType"
          },
          {
            "$type": "SharedString",
            "Key": "RaidTargetID",
            "Value": "443050036"
          }
        ]
      },
      "CampID": 4,
      "EventID": 10000,
      "CustomTriggerMap": {},
      "CustomTriggerMapV2": {},
      "BridgeStateRotations": [],
      "DialogueGroups": [],
      "TalkDialogGroupIDList": [],
      "ServerInteractVerificationIDList": [],
      "TriggerValidGuest": {},
      "TagContainer": {},
      "CameraCenterEntityList": [],
      "SpawnConfig": {
        "EntitySpawnConfig": {}
      }
    }
  ],
  "NPCList": []
}