{
  "GroupGUID": "40bf71ab-693e-4fdf-af13-28f610e17f6b",
  "GroupName": "Distractible_4_Pose0",
  "LevelGraph": "Config/Level/GroupGraph/F44305005/Group_F44305005_G31.json",
  "AreaAnchorName": "LevelArea_P44305_F44305005_G31",
  "SaveDimensionFilter": {},
  "SavedValueCondition": {
    "Conditions": [],
    "Operation": "And"
  },
  "LoadSide": "Server",
  "LoadOnInitial": true,
  "ValueSource": {},
  "ConflictIDList": [],
  "IsHoyoGroup": true,
  "ConflictWhiteList": [],
  "TagContainer": {},
  "AnchorList": [],
  "MonsterList": [],
  "PropList": [
    {
      "ID": 300001,
      "PosX": 153.0293,
      "PosY": 43.84616,
      "PosZ": -248.9874,
      "Name": "Prop1",
      "RotY": 90.0,
      "RotZ": 270.0,
      "PropID": 103017,
      "IsOverrideInitLevelGraph": true,
      "InitLevelGraph": "Config/Level/Props/Chap03/InitLevelGraph_Prop_Chap03_Balloon_03.json",
      "ValueSource": {
        "Values": [
          {
            "$type": "SharedUint",
            "Key": "RotationType"
          },
          {
            "$type": "SharedString",
            "Key": "RaidTargetID",
            "Value": "443050036"
          }
        ]
      },
      "CampID": 4,
      "EventID": 10000,
      "CustomTriggerMap": {},
      "CustomTriggerMapV2": {},
      "BridgeStateRotations": [],
      "DialogueGroups": [],
      "TalkDialogGroupIDList": [],
      "ServerInteractVerificationIDList": [],
      "TriggerValidGuest": {},
      "TagContainer": {},
      "CameraCenterEntityList": [],
      "SpawnConfig": {
        "EntitySpawnConfig": {}
      }
    },
    {
      "ID": 300002,
      "PosX": 150.47,
      "PosY": 48.73,
      "PosZ": -249.15,
      "Name": "Prop2",
      "RotY": 167.189,
      "RotX": -2.0E-5,
      "RotZ": 180.0,
      "Scale": {
        "x": 0.647402,
        "y": 4.531175,
        "z": -0.84641
      },
      "PropID": 109,
      "ValueSource": {
        "Values": []
      },
      "CampID": 4,
      "CustomTriggerMap": {},
      "CustomTriggerMapV2": {},
      "BridgeStateRotations": [],
      "DialogueGroups": [],
      "TalkDialogGroupIDList": [],
      "ServerInteractVerificationIDList": [],
      "TriggerValidGuest": {
        "TargetList": []
      },
      "TagContainer": {
        "List": []
      },
      "CameraCenterEntityList": [],
      "SpawnConfig": {
        "EntitySpawnConfig": {}
      }
    },
    {
      "ID": 300003,
      "PosX": 141.91,
      "PosY": 48.73,
      "PosZ": -249.15,
      "Name": "Prop3",
      "RotY": 12.81101,
      "RotX": 2.1E-5,
      "RotZ": 180.0,
      "Scale": {
        "x": 0.647402,
        "y": 4.531175,
        "z": -0.84641
      },
      "PropID": 109,
      "ValueSource": {
        "Values": []
      },
      "CampID": 4,
      "CustomTriggerMap": {},
      "CustomTriggerMapV2": {},
      "BridgeStateRotations": [],
      "DialogueGroups": [],
      "TalkDialogGroupIDList": [],
      "ServerInteractVerificationIDList": [],
      "TriggerValidGuest": {
        "TargetList": []
      },
      "TagContainer": {
        "List": []
      },
      "CameraCenterEntityList": [],
      "SpawnConfig": {
        "EntitySpawnConfig": {}
      }
    },
    {
      "ID": 300004,
      "PosX": 146.11,
      "PosY": 47.09,
      "PosZ": -249.15,
      "Name": "Prop4",
      "RotY": 180.0,
      "RotX": -1.7E-5,
      "RotZ": 180.0,
      "Scale": {
        "x": 1.570456,
        "y": 3.372745,
        "z": -0.84641
      },
      "PropID": 109,
      "ValueSource": {
        "Values": []
      },
      "CampID": 4,
      "CustomTriggerMap": {},
      "CustomTriggerMapV2": {},
      "BridgeStateRotations": [],
      "DialogueGroups": [],
      "TalkDialogGroupIDList": [],
      "ServerInteractVerificationIDList": [],
      "TriggerValidGuest": {
        "TargetList": []
      },
      "TagContainer": {
        "List": []
      },
      "CameraCenterEntityList": [],
      "SpawnConfig": {
        "EntitySpawnConfig": {}
      }
    }
  ],
  "NPCList": []
}