{
  "GroupGUID": "d4b08696-8b93-4417-8304-d2918fe9c55e",
  "GroupName": "MainMission8022127_ChallengeRoom_StartPoint",
  "Category": "Mission",
  "LevelGraph": "Config/Level/GroupGraph/F44305005/Group_F44305005_G37.json",
  "AreaAnchorName": "LevelArea_P44305_F44305005_G37",
  "SaveType": "Reset",
  "OwnerMainMissionID": 8022127,
  "ValueSource": {},
  "ConflictIDList": [],
  "IsHoyoGroup": true,
  "ConflictWhiteList": [],
  "TagContainer": {},
  "AnchorList": [
    {
      "ID": 2,
      "PosX": 146.3587,
      "PosY": 44.74586,
      "PosZ": -269.4431,
      "Name": "Go_E",
      "RotY": 5.0E-6,
      "RotX": -5.0E-6,
      "RotZ": 5.0E-6,
      "Usage": "Camera",
      "CustomParameter": {
        "$type": "LevelAnchorCameraParameter"
      }
    },
    {
      "ID": 3,
      "PosX": 146.1266,
      "PosY": 44.53342,
      "PosZ": -277.3583,
      "Name": "Go_S",
      "RotX": 355.0,
      "RotZ": 180.0,
      "Usage": "Camera",
      "CustomParameter": {
        "$type": "LevelAnchorCameraParameter"
      }
    }
  ],
  "MonsterList": [],
  "PropList": [
    {
      "ID": 300001,
      "PosX": 146.275,
      "PosY": 47.046,
      "PosZ": -269.43,
      "Name": "Prop1",
      "RotY": 180.0,
      "RotZ": 180.0,
      "PropID": 103013,
      "IsOverrideInitLevelGraph": true,
      "InitLevelGraph": "Config/Level/Props/Chap03/InitLevelGraph_Prop_Chap03_Portal_02.json",
      "ValueSource": {
        "Values": [
          {
            "$type": "SharedUint",
            "Key": "TargetAnchorGroupID",
            "Value": 222
          },
          {
            "$type": "SharedUint",
            "Key": "TargetAnchorInstanceID",
            "Value": 2
          },
          {
            "$type": "SharedString",
            "Key": "CameraAnchorRef01",
            "Value": "LevelArea_P44305_F44305005_G37,Go_S"
          },
          {
            "$type": "SharedString",
            "Key": "CameraAnchorRef02",
            "Value": "LevelArea_P44305_F44305005_G37,Go_E"
          },
          {
            "$type": "SharedUint",
            "Key": "FakeFramePortal",
            "Value": 2
          }
        ]
      },
      "CampID": 4,
      "State": "Open",
      "CustomTriggerMap": {},
      "CustomTriggerMapV2": {},
      "BridgeStateRotations": [],
      "DialogueGroups": [],
      "TalkDialogGroupIDList": [],
      "ServerInteractVerificationIDList": [],
      "TriggerValidGuest": {},
      "TagContainer": {},
      "CameraCenterEntityList": [],
      "SpawnConfig": {
        "EntitySpawnConfig": {}
      }
    }
  ],
  "NPCList": []
}