{
  "GroupGUID": "60071ed6-a309-47a2-b59c-a4060a8adead",
  "GroupName": "MainDoors",
  "AreaAnchorName": "LevelArea_P43312_F43312002_G7",
  "SaveType": "Reset",
  "SavedValueCondition": {
    "Conditions": [],
    "Operation": "And"
  },
  "LoadOnInitial": true,
  "ValueSource": {},
  "ConflictIDList": [],
  "IsHoyoGroup": true,
  "ConflictWhiteList": [],
  "TagContainer": {},
  "AnchorList": [],
  "MonsterList": [],
  "PropList": [
    {
      "ID": 300003,
      "PosX": -117.3899,
      "PosY": 11.51731,
      "PosZ": 47.05093,
      "Name": "GhostDoor1",
      "PropID": 103031,
      "IsOverrideInitLevelGraph": true,
      "InitLevelGraph": "Config/Level/Props/Chap03/InitLevelGraph_Prop_Chap03_Door_02.json",
      "ValueSource": {
        "Values": [
          {
            "$type": "SharedUint",
            "Key": "IsAutoDoor"
          }
        ]
      },
      "CampID": 4,
      "CustomTriggerMap": {},
      "CustomTriggerMapV2": {
        "ExitTrigger": {
          "Radius": 4.0,
          "PointList": []
        }
      },
      "BridgeStateRotations": [],
      "DialogueGroups": [],
      "TalkDialogGroupIDList": [],
      "ServerInteractVerificationIDList": [],
      "TriggerValidGuest": {},
      "TagContainer": {},
      "CameraCenterEntityList": [],
      "SpawnConfig": {
        "EntitySpawnConfig": {}
      }
    },
    {
      "ID": 300004,
      "PosX": -117.3899,
      "PosY": 11.51731,
      "PosZ": 77.05092,
      "Name": "GhostDoor2",
      "PropID": 103031,
      "IsOverrideInitLevelGraph": true,
      "InitLevelGraph": "Config/Level/Props/Chap03/InitLevelGraph_Prop_Chap03_Door_02.json",
      "ValueSource": {
        "Values": [
          {
            "$type": "SharedUint",
            "Key": "IsAutoDoor"
          }
        ]
      },
      "CampID": 4,
      "CustomTriggerMap": {},
      "CustomTriggerMapV2": {
        "ExitTrigger": {
          "Radius": 4.0,
          "PointList": []
        }
      },
      "BridgeStateRotations": [],
      "DialogueGroups": [],
      "TalkDialogGroupIDList": [],
      "ServerInteractVerificationIDList": [],
      "OverrideMapStateIcons": [
        {
          "State": "Locked",
          "Color": "#4b4b4b"
        },
        {
          "Color": "#b74a4a"
        },
        {
          "State": "Open",
          "Color": "#4b4b4b"
        }
      ],
      "TriggerValidGuest": {},
      "TagContainer": {},
      "CameraCenterEntityList": [],
      "SpawnConfig": {
        "EntitySpawnConfig": {}
      }
    },
    {
      "ID": 300005,
      "PosX": -104.3995,
      "PosY": 11.51731,
      "PosZ": 54.55087,
      "Name": "GhostDoor3",
      "RotY": 300.0,
      "PropID": 103031,
      "IsOverrideInitLevelGraph": true,
      "InitLevelGraph": "Config/Level/Props/Chap03/InitLevelGraph_Prop_Chap03_Door_02.json",
      "ValueSource": {
        "Values": [
          {
            "$type": "SharedUint",
            "Key": "IsAutoDoor"
          }
        ]
      },
      "CampID": 4,
      "CustomTriggerMap": {},
      "CustomTriggerMapV2": {
        "ExitTrigger": {
          "Radius": 4.0,
          "PointList": []
        }
      },
      "BridgeStateRotations": [],
      "DialogueGroups": [],
      "TalkDialogGroupIDList": [],
      "ServerInteractVerificationIDList": [],
      "OverrideMapStateIcons": [
        {
          "State": "Locked",
          "Color": "#4b4b4b"
        },
        {
          "Color": "#b74a4a"
        },
        {
          "State": "Open",
          "Color": "#4b4b4b"
        }
      ],
      "TriggerValidGuest": {},
      "TagContainer": {},
      "CameraCenterEntityList": [],
      "SpawnConfig": {
        "EntitySpawnConfig": {}
      }
    },
    {
      "ID": 300006,
      "PosX": -130.3803,
      "PosY": 11.51731,
      "PosZ": 69.55088,
      "Name": "GhostDoor4",
      "RotY": 300.0,
      "PropID": 103031,
      "IsOverrideInitLevelGraph": true,
      "InitLevelGraph": "Config/Level/Props/Chap03/InitLevelGraph_Prop_Chap03_Door_02.json",
      "ValueSource": {
        "Values": [
          {
            "$type": "SharedUint",
            "Key": "IsAutoDoor"
          }
        ]
      },
      "CampID": 4,
      "CustomTriggerMap": {},
      "CustomTriggerMapV2": {
        "ExitTrigger": {
          "Radius": 4.0,
          "PointList": []
        }
      },
      "BridgeStateRotations": [],
      "DialogueGroups": [],
      "TalkDialogGroupIDList": [],
      "ServerInteractVerificationIDList": [],
      "OverrideMapStateIcons": [
        {
          "State": "Locked",
          "Color": "#4b4b4b"
        },
        {
          "Color": "#b74a4a"
        },
        {
          "State": "Open",
          "Color": "#4b4b4b"
        }
      ],
      "TriggerValidGuest": {},
      "TagContainer": {},
      "CameraCenterEntityList": [],
      "SpawnConfig": {
        "EntitySpawnConfig": {}
      }
    },
    {
      "ID": 300007,
      "PosX": -104.388,
      "PosY": 11.51731,
      "PosZ": 69.547,
      "Name": "GhostDoor5",
      "RotY": 240.0,
      "PropID": 103031,
      "IsOverrideInitLevelGraph": true,
      "InitLevelGraph": "Config/Level/Props/Chap03/InitLevelGraph_Prop_Chap03_Door_02.json",
      "ValueSource": {
        "Values": [
          {
            "$type": "SharedUint",
            "Key": "IsAutoDoor"
          }
        ]
      },
      "CampID": 4,
      "CustomTriggerMap": {},
      "CustomTriggerMapV2": {
        "ExitTrigger": {
          "Radius": 4.0,
          "PointList": []
        }
      },
      "BridgeStateRotations": [],
      "DialogueGroups": [],
      "TalkDialogGroupIDList": [],
      "ServerInteractVerificationIDList": [],
      "OverrideMapStateIcons": [
        {
          "State": "Locked",
          "Color": "#4b4b4b"
        },
        {
          "Color": "#b74a4a"
        },
        {
          "State": "Open",
          "Color": "#4b4b4b"
        }
      ],
      "TriggerValidGuest": {},
      "TagContainer": {},
      "CameraCenterEntityList": [],
      "SpawnConfig": {
        "EntitySpawnConfig": {}
      }
    },
    {
      "ID": 300008,
      "PosX": -130.3803,
      "PosY": 11.51731,
      "PosZ": 54.55087,
      "Name": "GhostDoor6",
      "RotY": 240.0,
      "PropID": 103031,
      "IsOverrideInitLevelGraph": true,
      "InitLevelGraph": "Config/Level/Props/Chap03/InitLevelGraph_Prop_Chap03_Door_02.json",
      "ValueSource": {
        "Values": [
          {
            "$type": "SharedUint",
            "Key": "IsAutoDoor"
          }
        ]
      },
      "CampID": 4,
      "CustomTriggerMap": {},
      "CustomTriggerMapV2": {
        "ExitTrigger": {
          "Radius": 4.0,
          "PointList": []
        }
      },
      "BridgeStateRotations": [],
      "DialogueGroups": [],
      "TalkDialogGroupIDList": [],
      "ServerInteractVerificationIDList": [],
      "OverrideMapStateIcons": [
        {
          "State": "Locked",
          "Color": "#4b4b4b"
        },
        {
          "Color": "#b74a4a"
        },
        {
          "State": "Open",
          "Color": "#4b4b4b"
        }
      ],
      "TriggerValidGuest": {},
      "TagContainer": {},
      "CameraCenterEntityList": [],
      "SpawnConfig": {
        "EntitySpawnConfig": {}
      }
    },
    {
      "ID": 300009,
      "PosX": -117.3899,
      "PosY": 11.51731,
      "PosZ": 119.0509,
      "Name": "GhostDoor2",
      "RotY": 180.0,
      "PropID": 103031,
      "IsOverrideInitLevelGraph": true,
      "InitLevelGraph": "Config/Level/Props/Chap03/InitLevelGraph_Prop_Chap03_Door_02.json",
      "ValueSource": {
        "Values": [
          {
            "$type": "SharedUint",
            "Key": "IsAutoDoor"
          }
        ]
      },
      "CampID": 4,
      "CustomTriggerMap": {},
      "CustomTriggerMapV2": {
        "ExitTrigger": {
          "Radius": 4.0,
          "PointList": []
        }
      },
      "BridgeStateRotations": [],
      "DialogueGroups": [],
      "TalkDialogGroupIDList": [],
      "ServerInteractVerificationIDList": [],
      "OverrideMapStateIcons": [
        {
          "State": "Locked",
          "Color": "#4b4b4b"
        },
        {
          "Color": "#b74a4a"
        },
        {
          "State": "Open",
          "Color": "#4b4b4b"
        }
      ],
      "TriggerValidGuest": {},
      "TagContainer": {},
      "CameraCenterEntityList": [],
      "SpawnConfig": {
        "EntitySpawnConfig": {}
      }
    },
    {
      "ID": 300010,
      "PosX": -68.01,
      "PosY": 11.51731,
      "PosZ": 33.541,
      "Name": "GhostDoor3",
      "RotY": 120.0,
      "PropID": 103031,
      "IsOverrideInitLevelGraph": true,
      "InitLevelGraph": "Config/Level/Props/Chap03/InitLevelGraph_Prop_Chap03_Door_02.json",
      "ValueSource": {
        "Values": [
          {
            "$type": "SharedUint",
            "Key": "IsAutoDoor"
          }
        ]
      },
      "CampID": 4,
      "CustomTriggerMap": {},
      "CustomTriggerMapV2": {
        "ExitTrigger": {
          "Radius": 4.0,
          "PointList": []
        }
      },
      "BridgeStateRotations": [],
      "DialogueGroups": [],
      "TalkDialogGroupIDList": [],
      "ServerInteractVerificationIDList": [],
      "OverrideMapStateIcons": [
        {
          "State": "Locked",
          "Color": "#4b4b4b"
        },
        {
          "Color": "#b74a4a"
        },
        {
          "State": "Open",
          "Color": "#4b4b4b"
        }
      ],
      "TriggerValidGuest": {},
      "TagContainer": {},
      "CameraCenterEntityList": [],
      "SpawnConfig": {
        "EntitySpawnConfig": {}
      }
    },
    {
      "ID": 300011,
      "PosX": -166.7731,
      "PosY": 11.51731,
      "PosZ": 90.53,
      "Name": "GhostDoor4",
      "RotY": 300.0,
      "PropID": 103031,
      "IsOverrideInitLevelGraph": true,
      "InitLevelGraph": "Config/Level/Props/Chap03/InitLevelGraph_Prop_Chap03_Door_02.json",
      "ValueSource": {
        "Values": [
          {
            "$type": "SharedUint",
            "Key": "IsAutoDoor"
          }
        ]
      },
      "CampID": 4,
      "CustomTriggerMap": {},
      "CustomTriggerMapV2": {
        "ExitTrigger": {
          "Radius": 4.0,
          "PointList": []
        }
      },
      "BridgeStateRotations": [],
      "DialogueGroups": [],
      "TalkDialogGroupIDList": [],
      "ServerInteractVerificationIDList": [],
      "OverrideMapStateIcons": [
        {
          "State": "Locked",
          "Color": "#4b4b4b"
        },
        {
          "Color": "#b74a4a"
        },
        {
          "State": "Open",
          "Color": "#4b4b4b"
        }
      ],
      "TriggerValidGuest": {},
      "TagContainer": {},
      "CameraCenterEntityList": [],
      "SpawnConfig": {
        "EntitySpawnConfig": {}
      }
    },
    {
      "ID": 300012,
      "PosX": -68.02647,
      "PosY": 11.51731,
      "PosZ": 90.60279,
      "Name": "GhostDoor5",
      "RotY": 60.0,
      "PropID": 103031,
      "IsOverrideInitLevelGraph": true,
      "InitLevelGraph": "Config/Level/Props/Chap03/InitLevelGraph_Prop_Chap03_Door_02.json",
      "ValueSource": {
        "Values": [
          {
            "$type": "SharedUint",
            "Key": "IsAutoDoor"
          }
        ]
      },
      "CampID": 4,
      "CustomTriggerMap": {},
      "CustomTriggerMapV2": {
        "ExitTrigger": {
          "Radius": 4.0,
          "PointList": []
        }
      },
      "BridgeStateRotations": [],
      "DialogueGroups": [],
      "TalkDialogGroupIDList": [],
      "ServerInteractVerificationIDList": [],
      "OverrideMapStateIcons": [
        {
          "State": "Locked",
          "Color": "#4b4b4b"
        },
        {
          "Color": "#b74a4a"
        },
        {
          "State": "Open",
          "Color": "#4b4b4b"
        }
      ],
      "TriggerValidGuest": {},
      "TagContainer": {},
      "CameraCenterEntityList": [],
      "SpawnConfig": {
        "EntitySpawnConfig": {}
      }
    },
    {
      "ID": 300013,
      "PosX": -166.7534,
      "PosY": 11.51731,
      "PosZ": 33.53,
      "Name": "GhostDoor6",
      "RotY": 240.0,
      "PropID": 103031,
      "IsOverrideInitLevelGraph": true,
      "InitLevelGraph": "Config/Level/Props/Chap03/InitLevelGraph_Prop_Chap03_Door_02.json",
      "ValueSource": {
        "Values": [
          {
            "$type": "SharedUint",
            "Key": "IsAutoDoor"
          }
        ]
      },
      "CampID": 4,
      "CustomTriggerMap": {},
      "CustomTriggerMapV2": {
        "ExitTrigger": {
          "Radius": 4.0,
          "PointList": []
        }
      },
      "BridgeStateRotations": [],
      "DialogueGroups": [],
      "TalkDialogGroupIDList": [],
      "ServerInteractVerificationIDList": [],
      "OverrideMapStateIcons": [
        {
          "State": "Locked",
          "Color": "#4b4b4b"
        },
        {
          "Color": "#b74a4a"
        },
        {
          "State": "Open",
          "Color": "#4b4b4b"
        }
      ],
      "TriggerValidGuest": {},
      "TagContainer": {},
      "CameraCenterEntityList": [],
      "SpawnConfig": {
        "EntitySpawnConfig": {}
      }
    },
    {
      "ID": 300001,
      "PosX": -117.3899,
      "PosY": 11.52731,
      "PosZ": 5.050841,
      "Name": "GhostDoor1",
      "PropID": 103031,
      "IsOverrideInitLevelGraph": true,
      "InitLevelGraph": "Config/Level/Props/Chap03/InitLevelGraph_Prop_Chap03_Door_02.json",
      "ValueSource": {
        "Values": [
          {
            "$type": "SharedUint",
            "Key": "IsAutoDoor"
          }
        ]
      },
      "CampID": 4,
      "CustomTriggerMap": {},
      "CustomTriggerMapV2": {
        "ExitTrigger": {
          "Radius": 4.0,
          "PointList": []
        }
      },
      "BridgeStateRotations": [],
      "DialogueGroups": [],
      "TalkDialogGroupIDList": [],
      "ServerInteractVerificationIDList": [],
      "TriggerValidGuest": {},
      "TagContainer": {},
      "CameraCenterEntityList": [],
      "SpawnConfig": {
        "EntitySpawnConfig": {}
      }
    }
  ],
  "NPCList": []
}