{
  "GroupGUID": "035e4cbc-f240-4065-a0a3-8db4abf5c5b7",
  "GroupName": "Sound",
  "AreaAnchorName": "LevelArea_P43308_F43308001_G5",
  "SaveType": "Reset",
  "SavedValueCondition": {
    "Conditions": [],
    "Operation": "And"
  },
  "LoadOnInitial": true,
  "ValueSource": {},
  "ConflictIDList": [],
  "IsHoyoGroup": true,
  "HoYoGroupType": "Container",
  "ConflictWhiteList": [],
  "TagContainer": {
    "List": [
      {
        "Tag": "Group.Audio.Sound",
        "TagHash": 1757672304
      }
    ]
  },
  "AnchorList": [],
  "MonsterList": [],
  "PropList": [],
  "NPCList": []
}