{
  "GroupGUID": "80ab399e-38ab-4311-a8b3-c9f949f26b16",
  "GroupName": "MainMission2020306_",
  "Category": "Mission",
  "AreaAnchorName": "LevelArea_P40211_F40211002_G81",
  "SaveType": "Reset",
  "LoadCondition": {
    "Conditions": [
      {
        "Type": "SubMission",
        "ID": 202030607
      },
      {
        "Type": "SubMission",
        "ID": 202030608
      },
      {
        "Type": "SubMission",
        "ID": 202030609
      },
      {
        "Type": "SubMission",
        "ID": 202030610
      },
      {
        "Type": "SubMission",
        "ID": 202030611
      }
    ],
    "Operation": "Or"
  },
  "OwnerMainMissionID": 2020306,
  "ConflictIDList": [],
  "AnchorList": [
    {
      "ID": 1,
      "PosX": -14.252,
      "PosY": -1.14736,
      "PosZ": -28.073,
      "Name": "Anchor1",
      "RotY": 201.1175,
      "Usage": "Camera"
    },
    {
      "ID": 2,
      "PosX": -4.576,
      "PosY": -1.147373,
      "PosZ": -34.419,
      "Name": "Anchor2",
      "RotY": 115.3702
    }
  ],
  "MonsterList": [],
  "PropList": [
    {
      "ID": 300001,
      "PosX": -13.49,
      "PosY": -1.147331,
      "PosZ": -17.72,
      "Name": "Prop1",
      "PropID": 111,
      "IsOverrideInitLevelGraph": true,
      "Trigger": {
        "Shape": "Box",
        "Radius": 1.0,
        "DimX": 8.0,
        "DimY": 1.0,
        "DimZ": 1.0,
        "PointList": []
      },
      "CampID": 4,
      "CustomTriggerMap": {},
      "BridgeStateRotations": [],
      "DialogueGroups": [],
      "TalkDialogGroupIDList": [],
      "ServerInteractVerificationIDList": []
    },
    {
      "ID": 300002,
      "PosX": -1.84,
      "PosY": -1.147329,
      "PosZ": -33.46,
      "Name": "Prop2",
      "PropID": 100,
      "IsOverrideInitLevelGraph": true,
      "Trigger": {
        "Radius": 2.0,
        "DimX": 8.0,
        "DimY": 1.0,
        "DimZ": 1.0,
        "PointList": []
      },
      "CampID": 4,
      "CustomTriggerMap": {},
      "BridgeStateRotations": [],
      "DialogueGroups": [],
      "TalkDialogGroupIDList": [],
      "ServerInteractVerificationIDList": []
    },
    {
      "ID": 300003,
      "PosX": -11.491,
      "PosY": 6.79,
      "PosZ": -49.45,
      "Name": "Prop3",
      "PropID": 100,
      "IsOverrideInitLevelGraph": true,
      "Trigger": {
        "Shape": "Box",
        "Radius": 1.0,
        "DimX": 8.0,
        "DimY": 1.0,
        "DimZ": 1.0,
        "PointList": []
      },
      "CampID": 4,
      "CustomTriggerMap": {},
      "BridgeStateRotations": [],
      "DialogueGroups": [],
      "TalkDialogGroupIDList": [],
      "ServerInteractVerificationIDList": []
    },
    {
      "ID": 300004,
      "PosX": -17.5,
      "PosY": -1.147351,
      "PosZ": -25.07,
      "Name": "Prop4",
      "RotY": 32.04389,
      "PropID": 102044,
      "IsOverrideInitLevelGraph": true,
      "CampID": 4,
      "CustomTriggerMap": {},
      "BridgeStateRotations": [],
      "DialogueGroups": [],
      "TalkDialogGroupIDList": [],
      "ServerInteractVerificationIDList": []
    },
    {
      "ID": 300005,
      "PosX": -1.67,
      "PosY": -1.097226,
      "PosZ": -36.36,
      "Name": "Prop5",
      "RotY": 76.46203,
      "PropID": 102044,
      "IsOverrideInitLevelGraph": true,
      "CampID": 4,
      "CustomTriggerMap": {},
      "BridgeStateRotations": [],
      "DialogueGroups": [],
      "TalkDialogGroupIDList": [],
      "ServerInteractVerificationIDList": []
    }
  ],
  "NPCList": [
    {
      "ID": 400001,
      "PosX": -10.09,
      "PosY": -1.147346,
      "PosZ": -23.88,
      "Name": "NPC1",
      "RotY": 358.1408,
      "NPCID": 2201,
      "DialogueGroups": [],
      "ServerInteractVerificationIDList": [],
      "DefaultIdleStateName": "Pose02",
      "DefaultLookAtMode": "Closed",
      "BoardShowList": [],
      "TalkDialogGroupIDList": [],
      "DefaultIdleFreeStyleMotionID": 200230215,
      "InitialHiddenNodeList": []
    },
    {
      "ID": 400002,
      "PosX": -1.87,
      "PosY": -1.147346,
      "PosZ": -32.83,
      "Name": "NPC2",
      "RotY": 202.6987,
      "NPCID": 2201,
      "DialogueGroups": [],
      "ServerInteractVerificationIDList": [],
      "DefaultIdleStateName": "Pose02",
      "DefaultLookAtMode": "Closed",
      "BoardShowList": [],
      "TalkDialogGroupIDList": [],
      "DefaultIdleFreeStyleMotionID": 200230215,
      "InitialHiddenNodeList": []
    },
    {
      "ID": 400003,
      "PosX": -4.51,
      "PosY": -1.147346,
      "PosZ": -42.34,
      "Name": "NPC3",
      "RotY": 356.4803,
      "NPCID": 2201,
      "DialogueGroups": [],
      "ServerInteractVerificationIDList": [],
      "DefaultIdleStateName": "Pose02",
      "DefaultLookAtMode": "Closed",
      "BoardShowList": [],
      "TalkDialogGroupIDList": [],
      "DefaultIdleFreeStyleMotionID": 200230215,
      "InitialHiddenNodeList": []
    },
    {
      "ID": 400004,
      "PosX": -3.287,
      "PosY": -1.147373,
      "PosZ": -33.539,
      "Name": "NPC4",
      "RotY": 183.7188,
      "NPCID": 2201,
      "DialogueGroups": [],
      "ServerInteractVerificationIDList": [],
      "DefaultLookAtMode": "Closed",
      "BoardShowList": [],
      "TalkDialogGroupIDList": [],
      "DefaultIdleFreeStyleMotionID": 200230000,
      "InitialHiddenNodeList": []
    },
    {
      "ID": 400005,
      "PosX": -14.252,
      "PosY": -1.14736,
      "PosZ": -28.073,
      "Name": "NPC5",
      "RotY": 201.1175,
      "NPCID": 1992,
      "DialogueGroups": [],
      "ServerInteractVerificationIDList": [],
      "DefaultLookAtMode": "Closed",
      "BoardShowList": [],
      "TalkDialogGroupIDList": [],
      "DefaultIdleFreeStyleMotionID": 380020000,
      "InitialHiddenNodeList": []
    },
    {
      "ID": 400006,
      "PosX": -3.25,
      "PosY": -1.147373,
      "PosZ": -35.29,
      "Name": "NPC6",
      "RotY": 326.4383,
      "NPCID": 1209,
      "DialogueGroups": [],
      "ServerInteractVerificationIDList": [],
      "DefaultLookAtMode": "Closed",
      "BoardShowList": [],
      "TalkDialogGroupIDList": [],
      "DefaultIdleFreeStyleMotionID": 312110000,
      "InitialHiddenNodeList": []
    },
    {
      "ID": 400007,
      "PosX": -15.02122,
      "PosY": -1.147362,
      "PosZ": -29.00483,
      "Name": "NPC7",
      "RotY": 29.9811,
      "NPCID": 1209,
      "DialogueGroups": [],
      "ServerInteractVerificationIDList": [],
      "DefaultLookAtMode": "Closed",
      "BoardShowList": [],
      "TalkDialogGroupIDList": [],
      "DefaultIdleFreeStyleMotionID": 312110222,
      "InitialHiddenNodeList": []
    },
    {
      "ID": 400008,
      "PosX": -14.1797,
      "PosY": -1.147362,
      "PosZ": -29.02362,
      "Name": "NPC8",
      "RotY": 340.3291,
      "NPCID": 12226,
      "DialogueGroups": [],
      "ServerInteractVerificationIDList": [],
      "DefaultLookAtMode": "Closed",
      "BoardShowList": [],
      "TalkDialogGroupIDList": [],
      "DefaultIdleFreeStyleMotionID": 100020306,
      "InitialHiddenNodeList": []
    }
  ]
}