{
  "GroupGUID": "4c166e2f-6a85-442a-9219-7e4f7e2ca281",
  "GroupName": "Submission202030615",
  "AreaAnchorName": "LevelArea_P40211_F40211002_G85",
  "SaveType": "Reset",
  "LoadCondition": {
    "Conditions": [
      {
        "Type": "SubMission",
        "ID": 202030615
      },
      {
        "Type": "SubMission",
        "ID": 202030616
      },
      {
        "Type": "SubMission",
        "ID": 202030617
      }
    ],
    "Operation": "Or"
  },
  "UnloadCondition": {
    "Conditions": [
      {
        "Type": "SubMission",
        "ID": 202030618
      }
    ]
  },
  "ConflictIDList": [],
  "AnchorList": [
    {
      "ID": 1,
      "PosX": -14.82,
      "PosY": 5.235957,
      "PosZ": -74.46,
      "Name": "Anchor1",
      "RotY": 279.8243,
      "Usage": "Camera"
    }
  ],
  "MonsterList": [],
  "PropList": [
    {
      "ID": 300001,
      "PosX": -14.17,
      "PosY": 5.235959,
      "PosZ": -74.12,
      "Name": "Prop1",
      "PropID": 111,
      "IsOverrideInitLevelGraph": true,
      "Trigger": {
        "Radius": 2.0,
        "DimX": 2.0,
        "DimY": 1.0,
        "DimZ": 1.0,
        "PointList": []
      },
      "CampID": 4,
      "CustomTriggerMap": {},
      "BridgeStateRotations": [],
      "DialogueGroups": [],
      "TalkDialogGroupIDList": [],
      "ServerInteractVerificationIDList": []
    },
    {
      "ID": 300002,
      "PosX": -13.89,
      "PosY": 5.235952,
      "PosZ": -93.12,
      "Name": "Prop2",
      "PropID": 100,
      "IsOverrideInitLevelGraph": true,
      "Trigger": {
        "Shape": "Box",
        "Radius": 1.0,
        "DimX": 5.0,
        "DimY": 2.0,
        "DimZ": 4.0,
        "PointList": []
      },
      "CampID": 4,
      "CustomTriggerMap": {},
      "BridgeStateRotations": [],
      "DialogueGroups": [],
      "TalkDialogGroupIDList": [],
      "ServerInteractVerificationIDList": []
    },
    {
      "ID": 300003,
      "PosX": -7.66,
      "PosY": 5.235952,
      "PosZ": -66.53,
      "Name": "Prop3",
      "PropID": 100,
      "IsOverrideInitLevelGraph": true,
      "Trigger": {
        "Shape": "Box",
        "Radius": 1.0,
        "DimX": 8.0,
        "DimY": 2.0,
        "DimZ": 2.0,
        "PointList": []
      },
      "CampID": 4,
      "CustomTriggerMap": {},
      "BridgeStateRotations": [],
      "DialogueGroups": [],
      "TalkDialogGroupIDList": [],
      "ServerInteractVerificationIDList": []
    },
    {
      "ID": 300004,
      "PosX": -15.319,
      "PosY": 6.256,
      "PosZ": -73.176,
      "Name": "Prop4",
      "Scale": {
        "x": 0.9967,
        "y": 0.9967,
        "z": 0.9967
      },
      "PropID": 100,
      "IsOverrideInitLevelGraph": true,
      "Trigger": {
        "Radius": 0.5,
        "DimX": 1.0,
        "DimY": 1.0,
        "DimZ": 1.0,
        "PointList": []
      },
      "CampID": 4,
      "CustomTriggerMap": {},
      "BridgeStateRotations": [],
      "DialogueGroups": [],
      "TalkDialogGroupIDList": [],
      "ServerInteractVerificationIDList": []
    }
  ],
  "NPCList": [
    {
      "ID": 400002,
      "PosX": -15.96,
      "PosY": 5.235952,
      "PosZ": -74.9,
      "Name": "NPC2",
      "RotY": 67.28944,
      "NPCID": 1209,
      "DialogueGroups": [],
      "ServerInteractVerificationIDList": [],
      "DefaultLookAtMode": "Closed",
      "BoardShowList": [],
      "TalkDialogGroupIDList": [],
      "DefaultIdleFreeStyleMotionID": 312110000,
      "InitialHiddenNodeList": []
    },
    {
      "ID": 400003,
      "PosX": -15.88442,
      "PosY": 5.235952,
      "PosZ": -73.88815,
      "Name": "NPC3",
      "RotY": 108.6879,
      "NPCID": 2202,
      "AIConfig": {
        "AIFile": "Config/ConfigAI/Adventure/MazeNPC_FollowPlayer_2020306.json",
        "PathwayList": [
          {
            "UseOwnerGroup": true,
            "UseGroup": 85,
            "UseID": 1
          }
        ],
        "SlaveConfigList": []
      },
      "DialogueGroups": [],
      "ServerInteractVerificationIDList": [],
      "DefaultLookAtMode": "Closed",
      "BoardShowList": [],
      "TalkDialogGroupIDList": [],
      "DefaultIdleFreeStyleMotionID": 200160000,
      "InitialHiddenNodeList": []
    },
    {
      "ID": 400001,
      "PosX": -14.82,
      "PosY": 5.235957,
      "PosZ": -74.46,
      "Name": "NPC1",
      "RotY": 279.8243,
      "NPCID": 1992,
      "DialogueGroups": [],
      "ServerInteractVerificationIDList": [],
      "DefaultLookAtMode": "Closed",
      "BoardShowList": [],
      "TalkDialogGroupIDList": [],
      "DefaultIdleFreeStyleMotionID": 380020000,
      "InitialHiddenNodeList": []
    }
  ]
}